%!PS-Adobe-2.0
%%Title: Canvas_1.ps: Canvas_1
%%Creator: ROOT Version 6.18/04
%%CreationDate: Wed Sep 15 16:02:40 2021
%%Orientation: Landscape
%%DocumentNeededResources: ProcSet (FontSetInit)
%%EndComments
%%BeginProlog
/s {stroke} def /l {lineto} def /m {moveto} def /t {translate} def
/r {rotate} def /rl {roll}  def /R {repeat} def
/d {rlineto} def /rm {rmoveto} def /gr {grestore} def /f {eofill} def
/c {setrgbcolor} def /black {0 setgray} def /sd {setdash} def
/cl {closepath} def /sf {scalefont setfont} def /lw {setlinewidth} def
/box {m dup 0 exch d exch 0 d 0 exch neg d cl} def
/NC{systemdict begin initclip end}def/C{NC box clip newpath}def
/bl {box s} def /bf {gsave box gsave f grestore 1 lw [] 0 sd s grestore} def /Y { 0 exch d} def /X { 0 d} def 
/K {{pop pop 0 moveto} exch kshow} bind def
/ita {/ang 15 def gsave [1 0 ang dup sin exch cos div 1 0 0] concat} def 
/mp {newpath /y exch def /x exch def} def
/side {[w .77 mul w .23 mul] .385 w mul sd w 0 l currentpoint t -144 r} def
/mr {mp x y w2 0 360 arc} def /m24 {mr s} def /m20 {mr f} def
/mb {mp x y w2 add m w2 neg 0 d 0 w neg d w 0 d 0 w d cl} def
/mt {mp x y w2 add m w2 neg w neg d w 0 d cl} def
/w4 {w 4 div} def
/w6 {w 6 div} def
/w8 {w 8 div} def
/m21 {mb f} def /m25 {mb s} def /m22 {mt f} def /m26{mt s} def
/m23 {mp x y w2 sub m w2 w d w neg 0 d cl f} def
/m27 {mp x y w2 add m w3 neg w2 neg d w3 w2 neg d w3 w2 d cl s} def
/m28 {mp x w2 sub y w2 sub w3 add m w3 0 d  0 w3 neg d w3 0 d 0 w3 d w3 0 d  0 w3 d w3 neg 0 d 0 w3 d w3 neg 0 d 0 w3 neg d w3 neg 0 d cl s } def
/m29 {mp gsave x w2 sub y w2 add w3 sub m currentpoint t 4 {side} repeat cl fill gr} def
/m30 {mp gsave x w2 sub y w2 add w3 sub m currentpoint t 4 {side} repeat cl s gr} def
/m31 {mp x y w2 sub m 0 w d x w2 sub y m w 0 d x w2 sub y w2 add m w w neg d x w2 sub y w2 sub m w w d s} def
/m32 {mp x y w2 sub m w2 w d w neg 0 d cl s} def
/m33 {mp x y w2 add m w3 neg w2 neg d w3 w2 neg d w3 w2 d cl f} def
/m34 {mp x w2 sub y w2 sub w3 add m w3 0 d  0 w3 neg d w3 0 d 0 w3 d w3 0 d  0 w3 d w3 neg 0 d 0 w3 d w3 neg 0 d 0 w3 neg d w3 neg 0 d cl f } def
/m35 {mp x y w2 add m w2 neg w2 neg d w2 w2 neg d w2 w2 d w2 neg w2 d x y w2 sub m 0 w d x w2 sub y m w 0 d s} def
/m36 {mb x w2 sub y w2 add m w w neg d x w2 sub y w2 sub m w w d s} def
/m37 {mp x y m w4 neg w2 d w4 neg w2 neg d w2 0 d  w4 neg w2 neg d w2 0 d w4 neg w2 d w2 0 d w4 neg w2 d w4 neg w2 neg d cl s} def
/m38 {mp x w4 sub y w2 add m w4 neg w4 neg d 0 w2 neg d w4 w4 neg d w2 0 d w4 w4 d 0 w2 d w4 neg w4 d w2 neg 0 d x y w2 sub m 0 w d x w2 sub y m w 0 d cl s} def
/m39 {mp x y m w4 neg w2 d w4 neg w2 neg d w2 0 d  w4 neg w2 neg d w2 0 d w4 neg w2 d w2 0 d w4 neg w2 d w4 neg w2 neg d cl f} def
/m40 {mp x y m w4 w2 d w4 w4 neg d w2 neg w4 neg d w2 w4 neg d w4 neg w4 neg d w4 neg w2 d w4 neg w2 neg d w4 neg w4 d w2 w4 d w2 neg w4 d w4 w4 d w4 w2 neg d cl s} def
/m41 {mp x y m w4 w2 d w4 w4 neg d w2 neg w4 neg d w2 w4 neg d w4 neg w4 neg d w4 neg w2 d w4 neg w2 neg d w4 neg w4 d w2 w4 d w2 neg w4 d w4 w4 d w4 w2 neg d cl f} def
/m42 {mp x y w2 add m w8 neg w2 -3 4 div mul d w2 -3 4 div mul w8 neg d w2 3 4 div mul w8 neg d w8 w2 -3 4 div mul d w8 w2 3 4 div mul d w2 3 4 div mul w8 d w2 -3 4 div mul w8 d w8 neg w2 3 4 div mul d cl s} def
/m43 {mp x y w2 add m w8 neg w2 -3 4 div mul d w2 -3 4 div mul w8 neg d w2 3 4 div mul w8 neg d w8 w2 -3 4 div mul d w8 w2 3 4 div mul d w2 3 4 div mul w8 d w2 -3 4 div mul w8 d w8 neg w2 3 4 div mul d cl f} def
/m44 {mp x y m w6 neg w2 d w2 2 3 div mul 0 d w6 neg w2 neg d w2 w6 d 0 w2 -2 3 div mul d w2 neg w6 d w6 w2 neg d w2 -2 3 div mul 0 d w6 w2 d w2 neg w6 neg d 0 w2 2 3 div mul d w2 w6 neg d cl s} def
/m45 {mp x y m w6 neg w2 d w2 2 3 div mul 0 d w6 neg w2 neg d w2 w6 d 0 w2 -2 3 div mul d w2 neg w6 d w6 w2 neg d w2 -2 3 div mul 0 d w6 w2 d w2 neg w6 neg d 0 w2 2 3 div mul d w2 w6 neg d cl f} def
/m46 {mp x y w4 add m w4 neg w4 d w4 neg w4 neg d  w4 w4 neg d w4 neg w4 neg d w4 w4 neg d w4 w4 d w4 w4 neg d w4 w4 d w4 neg w4 d w4 w4 d w4 neg w4 d w4 neg w4 neg d cl s} def
/m47 {mp x y w4 add m w4 neg w4 d w4 neg w4 neg d w4 w4 neg d w4 neg w4 neg d  w4 w4 neg d w4 w4 d w4 w4 neg d w4 w4 d w4 neg w4 d w4 w4 d w4 neg w4 d w4 neg w4 neg d cl f} def
/m48 {mp x y w4 add m w4 neg w4 d w4 neg w4 neg d w4 w4 neg d  w4 neg w4 neg d w4 w4 neg d w4 w4 d w4 w4 neg d w4 w4 d w4 neg w4 d w4 w4 d w4 neg w4 d w4 neg w4 neg d  w4 w4 neg d w4 neg w4 neg d w4 neg w4 d w4 w4 d cl f} def
/m49 {mp x w2 sub w3 add y w2 sub w3 add m  0 w3 neg d w3 0 d 0 w3 d w3 0 d 0 w3 d w3 neg 0 d 0 w3 d w3 neg 0 d 0 w3 neg d w3 neg 0 d 0 w3 neg d w3 0 d 0 w3 d w3 0 d 0 w3 neg d w3 neg 0 d cl f } def
/m2 {mp x y w2 sub m 0 w d x w2 sub y m w 0 d s} def
/m5 {mp x w2 sub y w2 sub m w w d x w2 sub y w2 add m w w neg d s} def
%%IncludeResource: ProcSet (FontSetInit)
%%IncludeResource: font Times-Roman
%%IncludeResource: font Times-Italic
%%IncludeResource: font Times-Bold
%%IncludeResource: font Times-BoldItalic
%%IncludeResource: font Helvetica
%%IncludeResource: font Helvetica-Oblique
%%IncludeResource: font Helvetica-Bold
%%IncludeResource: font Helvetica-BoldOblique
%%IncludeResource: font Courier
%%IncludeResource: font Courier-Oblique
%%IncludeResource: font Courier-Bold
%%IncludeResource: font Courier-BoldOblique
%%IncludeResource: font Symbol
%%IncludeResource: font ZapfDingbats
/reEncode {exch findfont dup length dict begin {1 index /FID eq  {pop pop} {def} ifelse } forall /Encoding exch def currentdict end dup /FontName get exch definefont pop } def [/Times-Bold /Times-Italic /Times-BoldItalic /Helvetica /Helvetica-Oblique
 /Helvetica-Bold /Helvetica-BoldOblique /Courier /Courier-Oblique /Courier-Bold /Courier-BoldOblique /Times-Roman /AvantGarde-Book /AvantGarde-BookOblique /AvantGarde-Demi /AvantGarde-DemiOblique /Bookman-Demi /Bookman-DemiItalic /Bookman-Light
 /Bookman-LightItalic /Helvetica-Narrow /Helvetica-Narrow-Bold /Helvetica-Narrow-BoldOblique /Helvetica-Narrow-Oblique /NewCenturySchlbk-Roman /NewCenturySchlbk-Bold /NewCenturySchlbk-BoldItalic /NewCenturySchlbk-Italic /Palatino-Bold
 /Palatino-BoldItalic /Palatino-Italic /Palatino-Roman ] {ISOLatin1Encoding reEncode } forall/Zone {/iy exch def /ix exch def  ix 1 sub  3144 mul  1 iy sub  2224 mul t} def
%%EndProlog
%%BeginSetup
%%EndSetup
newpath  gsave  90 r 0 -594 t  28 20 t .25 .25 scale  gsave 
%%Page: 1 1
 gsave  gsave 
 1 1 Zone
 gsave  0 0 t black[  ] 0 sd 3 lw 1 1 1 c 2948 1720 0 0 bf black 1 1 1 c 2358 1376 295 172 bf black 2358 1376 295 172 bl 1 1 1 c 2358 1376 295 172 bf black 2358 1376 295 172 bl 0 0 0.6 c 1 1 1 c black 0 0 0.6 c 295 1483 m 884 X -20 Y 590 X -1291 Y
 295 X 1291 Y 294 X -1291 Y 295 X s black 1 1 1 c 590 276 2299 1333 bf black 2299 1333 m 590 X s 2889 1333 m 276 Y s 2889 1609 m -590 X s 2299 1609 m -276 Y s 1 1 1 c black
 gsave  2948 1720 0 0 C 2404.22 1561.47 t 0 r /Helvetica findfont 60.4235 sf 0 0 m (cutflow_jets_1) show NC gr  2299 1540 m 590 X s
 gsave  2948 1720 0 0 C 2327.9 1485.15 t 0 r /Helvetica findfont 60.4235 sf 0 0 m (Entries ) show NC gr 
 gsave  2948 1720 0 0 C 2642.73 1485.15 t 0 r /Helvetica findfont 60.4235 sf 0 0 m ( 164898) show NC gr 
 gsave  2948 1720 0 0 C 2327.9 1415.18 t 0 r /Helvetica findfont 60.4235 sf 0 0 m (Mean  ) show NC gr 
 gsave  2948 1720 0 0 C 2674.54 1415.18 t 0 r /Helvetica findfont 60.4235 sf 0 0 m (  3.654) show NC gr 
 gsave  2948 1720 0 0 C 2327.9 1345.22 t 0 r /Helvetica findfont 60.4235 sf 0 0 m (Std Dev   ) show NC gr 
 gsave  2948 1720 0 0 C 2684.08 1348.4 t 0 r /Helvetica findfont 60.4235 sf 0 0 m (  1.971) show NC gr  295 172 m 2358 X s
 gsave  2948 1720 0 0 C 422.965 124.027 t 0 r /Helvetica findfont 38.1622 sf 0 0 m (all) show NC gr 
 gsave  2948 1720 0 0 C 645.578 124.027 t 0 r /Helvetica findfont 38.1622 sf 0 0 m (ptmax_cut) show NC gr 
 gsave  2948 1720 0 0 C 947.695 124.027 t 0 r /Helvetica findfont 38.1622 sf 0 0 m (ptmin_cut) show NC gr 
 gsave  2948 1720 0 0 C 1262.53 124.027 t 0 r /Helvetica findfont 38.1622 sf 0 0 m (eta_cut) show NC gr 
 gsave  2948 1720 0 0 C 1548.75 124.027 t 0 r /Helvetica findfont 38.1622 sf 0 0 m (JVT_cut) show NC gr 
 gsave  2948 1720 0 0 C 1831.79 124.027 t 0 r /Helvetica findfont 38.1622 sf 0 0 m (BTag_cut) show NC gr 
 gsave  2948 1720 0 0 C 2102.1 124.027 t 0 r /Helvetica findfont 38.1622 sf 0 0 m (cleaning_cut) show NC gr  295 213 m -41 Y s 590 213 m -41 Y s 884 213 m -41 Y s 1179 213 m -41 Y s 1474 213 m -41 Y s 1769 213 m -41 Y s 2064 213 m -41 Y s 2358 213 m
 -41 Y s 2653 213 m -41 Y s 295 172 m 1376 Y s 366 172 m -71 X s 330 219 m -35 X s 330 267 m -35 X s 330 314 m -35 X s 330 361 m -35 X s 366 409 m -71 X s 330 456 m -35 X s 330 503 m -35 X s 330 551 m -35 X s 330 598 m -35 X s 366 645 m -71 X s 330
 693 m -35 X s 330 740 m -35 X s 330 787 m -35 X s 330 835 m -35 X s 366 882 m -71 X s 330 929 m -35 X s 330 977 m -35 X s 330 1024 m -35 X s 330 1072 m -35 X s 366 1119 m -71 X s 330 1166 m -35 X s 330 1214 m -35 X s 330 1261 m -35 X s 330 1308 m
 -35 X s 366 1356 m -71 X s 366 1356 m -71 X s 330 1403 m -35 X s 330 1450 m -35 X s 330 1498 m -35 X s 330 1545 m -35 X s
 gsave  2948 1720 0 0 C 248.054 152.649 t 0 r /Helvetica findfont 57.2433 sf 0 0 m (0) show NC gr 
 gsave  2948 1720 0 0 C 152.649 387.983 t 0 r /Helvetica findfont 57.2433 sf 0 0 m (5000) show NC gr 
 gsave  2948 1720 0 0 C 120.847 623.316 t 0 r /Helvetica findfont 57.2433 sf 0 0 m (10000) show NC gr 
 gsave  2948 1720 0 0 C 120.847 861.83 t 0 r /Helvetica findfont 57.2433 sf 0 0 m (15000) show NC gr 
 gsave  2948 1720 0 0 C 120.847 1097.16 t 0 r /Helvetica findfont 57.2433 sf 0 0 m (20000) show NC gr 
 gsave  2948 1720 0 0 C 120.847 1335.68 t 0 r /Helvetica findfont 57.2433 sf 0 0 m (25000) show NC gr  1 1 1 c 590 276 2299 1333 bf black 2299 1333 m 590 X s 2889 1333 m 276 Y s 2889 1609 m -590 X s 2299 1609 m -276 Y s 1 1 1 c black
 gsave  2948 1720 0 0 C 2404.22 1561.47 t 0 r /Helvetica findfont 60.4235 sf 0 0 m (cutflow_jets_1) show NC gr  2299 1540 m 590 X s
 gsave  2948 1720 0 0 C 2327.9 1485.15 t 0 r /Helvetica findfont 60.4235 sf 0 0 m (Entries ) show NC gr 
 gsave  2948 1720 0 0 C 2642.73 1485.15 t 0 r /Helvetica findfont 60.4235 sf 0 0 m ( 164898) show NC gr 
 gsave  2948 1720 0 0 C 2327.9 1415.18 t 0 r /Helvetica findfont 60.4235 sf 0 0 m (Mean  ) show NC gr 
 gsave  2948 1720 0 0 C 2674.54 1415.18 t 0 r /Helvetica findfont 60.4235 sf 0 0 m (  3.654) show NC gr 
 gsave  2948 1720 0 0 C 2327.9 1345.22 t 0 r /Helvetica findfont 60.4235 sf 0 0 m (Std Dev   ) show NC gr 
 gsave  2948 1720 0 0 C 2684.08 1348.4 t 0 r /Helvetica findfont 60.4235 sf 0 0 m (  1.971) show NC gr  1 1 1 c black
 gsave  2948 1720 0 0 C 1208.47 1634.62 t 0 r /Helvetica findfont 85.865 sf 0 0 m (cutflow_jets_1) show NC gr  gr showpage
 gr 
%%Trailer
%%Pages:  1
 gr  gr  gr 
%%EOF
