%!PS-Adobe-2.0 EPSF-2.0
%%BoundingBox:  0 0 567 384
%%Title: Tile0_Tile0/Distribution_Tile0_eta_14.eps: c1
%%Creator: ROOT Version 6.22/08
%%CreationDate: Tue Aug  3 22:33:30 2021
%%DocumentNeededResources: ProcSet (FontSetInit)
%%EndComments
%%BeginProlog
80 dict begin
/s {stroke} def /l {lineto} def /m {moveto} def /t {translate} def
/r {rotate} def /rl {roll}  def /R {repeat} def
/d {rlineto} def /rm {rmoveto} def /gr {grestore} def /f {eofill} def
/c {setrgbcolor} def /black {0 setgray} def /sd {setdash} def
/cl {closepath} def /sf {scalefont setfont} def /lw {setlinewidth} def
/box {m dup 0 exch d exch 0 d 0 exch neg d cl} def
/NC{systemdict begin initclip end}def/C{NC box clip newpath}def
/bl {box s} def /bf {gsave box gsave f grestore 1 lw [] 0 sd s grestore} def /Y { 0 exch d} def /X { 0 d} def 
/K {{pop pop 0 moveto} exch kshow} bind def
/ita {/ang 15 def gsave [1 0 ang dup sin exch cos div 1 0 0] concat} def 
/mp {newpath /y exch def /x exch def} def
/side {[w .77 mul w .23 mul] .385 w mul sd w 0 l currentpoint t -144 r} def
/mr {mp x y w2 0 360 arc} def /m24 {mr s} def /m20 {mr f} def
/mb {mp x y w2 add m w2 neg 0 d 0 w neg d w 0 d 0 w d cl} def
/mt {mp x y w2 add m w2 neg w neg d w 0 d cl} def
/w4 {w 4 div} def
/w6 {w 6 div} def
/w8 {w 8 div} def
/m21 {mb f} def /m25 {mb s} def /m22 {mt f} def /m26{mt s} def
/m23 {mp x y w2 sub m w2 w d w neg 0 d cl f} def
/m27 {mp x y w2 add m w3 neg w2 neg d w3 w2 neg d w3 w2 d cl s} def
/m28 {mp x w2 sub y w2 sub w3 add m w3 0 d  0 w3 neg d w3 0 d 0 w3 d w3 0 d  0 w3 d w3 neg 0 d 0 w3 d w3 neg 0 d 0 w3 neg d w3 neg 0 d cl s } def
/m29 {mp gsave x w2 sub y w2 add w3 sub m currentpoint t 4 {side} repeat cl fill gr} def
/m30 {mp gsave x w2 sub y w2 add w3 sub m currentpoint t 4 {side} repeat cl s gr} def
/m31 {mp x y w2 sub m 0 w d x w2 sub y m w 0 d x w2 .707 mul sub y w2 .707 mul add m w 1.44 div w 1.44 div neg d x w2 .707 mul sub y w2 .707 mul sub m w 1.44 div w 1.44 div d s} def
/m32 {mp x y w2 sub m w2 w d w neg 0 d cl s} def
/m33 {mp x y w2 add m w3 neg w2 neg d w3 w2 neg d w3 w2 d cl f} def
/m34 {mp x w2 sub y w2 sub w3 add m w3 0 d  0 w3 neg d w3 0 d 0 w3 d w3 0 d  0 w3 d w3 neg 0 d 0 w3 d w3 neg 0 d 0 w3 neg d w3 neg 0 d cl f } def
/m35 {mp x y w2 add m w2 neg w2 neg d w2 w2 neg d w2 w2 d w2 neg w2 d x y w2 sub m 0 w d x w2 sub y m w 0 d s} def
/m36 {mb x w2 sub y w2 add m w w neg d x w2 sub y w2 sub m w w d s} def
/m37 {mp x y m w4 neg w2 d w4 neg w2 neg d w2 0 d  w4 neg w2 neg d w2 0 d w4 neg w2 d w2 0 d w4 neg w2 d w4 neg w2 neg d cl s} def
/m38 {mp x w4 sub y w2 add m w4 neg w4 neg d 0 w2 neg d w4 w4 neg d w2 0 d w4 w4 d 0 w2 d w4 neg w4 d w2 neg 0 d x y w2 sub m 0 w d x w2 sub y m w 0 d cl s} def
/m39 {mp x y m w4 neg w2 d w4 neg w2 neg d w2 0 d  w4 neg w2 neg d w2 0 d w4 neg w2 d w2 0 d w4 neg w2 d w4 neg w2 neg d cl f} def
/m40 {mp x y m w4 w2 d w4 w4 neg d w2 neg w4 neg d w2 w4 neg d w4 neg w4 neg d w4 neg w2 d w4 neg w2 neg d w4 neg w4 d w2 w4 d w2 neg w4 d w4 w4 d w4 w2 neg d cl s} def
/m41 {mp x y m w4 w2 d w4 w4 neg d w2 neg w4 neg d w2 w4 neg d w4 neg w4 neg d w4 neg w2 d w4 neg w2 neg d w4 neg w4 d w2 w4 d w2 neg w4 d w4 w4 d w4 w2 neg d cl f} def
/m42 {mp x y w2 add m w8 neg w2 -3 4 div mul d w2 -3 4 div mul w8 neg d w2 3 4 div mul w8 neg d w8 w2 -3 4 div mul d w8 w2 3 4 div mul d w2 3 4 div mul w8 d w2 -3 4 div mul w8 d w8 neg w2 3 4 div mul d cl s} def
/m43 {mp x y w2 add m w8 neg w2 -3 4 div mul d w2 -3 4 div mul w8 neg d w2 3 4 div mul w8 neg d w8 w2 -3 4 div mul d w8 w2 3 4 div mul d w2 3 4 div mul w8 d w2 -3 4 div mul w8 d w8 neg w2 3 4 div mul d cl f} def
/m44 {mp x y m w6 neg w2 d w2 2 3 div mul 0 d w6 neg w2 neg d w2 w6 d 0 w2 -2 3 div mul d w2 neg w6 d w6 w2 neg d w2 -2 3 div mul 0 d w6 w2 d w2 neg w6 neg d 0 w2 2 3 div mul d w2 w6 neg d cl s} def
/m45 {mp x y m w6 neg w2 d w2 2 3 div mul 0 d w6 neg w2 neg d w2 w6 d 0 w2 -2 3 div mul d w2 neg w6 d w6 w2 neg d w2 -2 3 div mul 0 d w6 w2 d w2 neg w6 neg d 0 w2 2 3 div mul d w2 w6 neg d cl f} def
/m46 {mp x y w4 add m w4 neg w4 d w4 neg w4 neg d  w4 w4 neg d w4 neg w4 neg d w4 w4 neg d w4 w4 d w4 w4 neg d w4 w4 d w4 neg w4 d w4 w4 d w4 neg w4 d w4 neg w4 neg d cl s} def
/m47 {mp x y w4 add m w4 neg w4 d w4 neg w4 neg d w4 w4 neg d w4 neg w4 neg d  w4 w4 neg d w4 w4 d w4 w4 neg d w4 w4 d w4 neg w4 d w4 w4 d w4 neg w4 d w4 neg w4 neg d cl f} def
/m48 {mp x y w4 add m w4 neg w4 d w4 neg w4 neg d w4 w4 neg d  w4 neg w4 neg d w4 w4 neg d w4 w4 d w4 w4 neg d w4 w4 d w4 neg w4 d w4 w4 d w4 neg w4 d w4 neg w4 neg d  w4 w4 neg d w4 neg w4 neg d w4 neg w4 d w4 w4 d cl f} def
/m49 {mp x w2 sub w3 add y w2 sub w3 add m  0 w3 neg d w3 0 d 0 w3 d w3 0 d 0 w3 d w3 neg 0 d 0 w3 d w3 neg 0 d 0 w3 neg d w3 neg 0 d 0 w3 neg d w3 0 d 0 w3 d w3 0 d 0 w3 neg d w3 neg 0 d cl f } def
/m2 {mp x y w2 sub m 0 w d x w2 sub y m w 0 d s} def
/m5 {mp x w2 .707 mul sub y w2 .707 mul sub m w 1.44 div w 1.44 div d x w2 .707 mul sub y w2 .707 mul add m w 1.44 div w 1.44 div neg d s} def
%%IncludeResource: ProcSet (FontSetInit)
%%IncludeResource: font Times-Roman
%%IncludeResource: font Times-Italic
%%IncludeResource: font Times-Bold
%%IncludeResource: font Times-BoldItalic
%%IncludeResource: font Helvetica
%%IncludeResource: font Helvetica-Oblique
%%IncludeResource: font Helvetica-Bold
%%IncludeResource: font Helvetica-BoldOblique
%%IncludeResource: font Courier
%%IncludeResource: font Courier-Oblique
%%IncludeResource: font Courier-Bold
%%IncludeResource: font Courier-BoldOblique
%%IncludeResource: font Symbol
%%IncludeResource: font ZapfDingbats
/reEncode {exch findfont dup length dict begin {1 index /FID eq  {pop pop} {def} ifelse } forall /Encoding exch def currentdict end dup /FontName get exch definefont pop } def [/Times-Bold /Times-Italic /Times-BoldItalic /Helvetica /Helvetica-Oblique
 /Helvetica-Bold /Helvetica-BoldOblique /Courier /Courier-Oblique /Courier-Bold /Courier-BoldOblique /Times-Roman /AvantGarde-Book /AvantGarde-BookOblique /AvantGarde-Demi /AvantGarde-DemiOblique /Bookman-Demi /Bookman-DemiItalic /Bookman-Light
 /Bookman-LightItalic /Helvetica-Narrow /Helvetica-Narrow-Bold /Helvetica-Narrow-BoldOblique /Helvetica-Narrow-Oblique /NewCenturySchlbk-Roman /NewCenturySchlbk-Bold /NewCenturySchlbk-BoldItalic /NewCenturySchlbk-Italic /Palatino-Bold
 /Palatino-BoldItalic /Palatino-Italic /Palatino-Roman ] {ISOLatin1Encoding reEncode } forall
%%EndProlog
%%BeginSetup
%%EndSetup
newpath  gsave  .25 .25 scale  gsave  0 0 t 1 0 0 c[  ] 0 sd 3 lw 1 1 1 c 2268 1538 0 0 bf black 1 1 1 c 1905 1276 295 231 bf black 1905 1276 295 231 bl 1 1 1 c 1905 1276 295 231 bf black 1905 1276 295 231 bl 0 0 1 c 6 lw 1 1 1 c 0 0 1 c 3 lw /w 31
 def /w2 {w 2 div} def /w3 {w 3 div} def 302 231 m20 6 lw 3 lw 315 231 m20 6 lw 3 lw 329 231 m20 6 lw 3 lw 342 231 m20 6 lw 3 lw 356 234 m20 6 lw 3 lw 370 231 m20 6 lw 3 lw 383 233 m20 6 lw 3 lw 397 232 m20 6 lw 3 lw 410 234 m20 6 lw 3 lw 424 234 m20
 6 lw 3 lw 438 233 m20 6 lw 3 lw 451 235 m20 6 lw 3 lw 465 240 m20 6 lw 3 lw 478 242 m20 6 lw 3 lw 492 243 m20 6 lw 3 lw 506 248 m20 6 lw 3 lw 519 246 m20 6 lw 3 lw 533 263 m20 6 lw 3 lw 547 305 m20 6 lw 560 523 m 1 Y s 560 550 m 1 Y s 3 lw 560 537
 m20 6 lw 574 640 m 3 Y s 574 669 m 4 Y s 3 lw 574 656 m20 6 lw 3 lw 587 399 m20 6 lw 3 lw 601 345 m20 6 lw 3 lw 615 343 m20 6 lw 3 lw 628 354 m20 6 lw 3 lw 642 345 m20 6 lw 3 lw 655 331 m20 6 lw 3 lw 669 334 m20 6 lw 3 lw 683 343 m20 6 lw 3 lw 696
 342 m20 6 lw 3 lw 710 330 m20 6 lw 3 lw 723 320 m20 6 lw 3 lw 737 340 m20 6 lw 3 lw 751 329 m20 6 lw 3 lw 764 321 m20 6 lw 3 lw 778 321 m20 6 lw 3 lw 791 317 m20 6 lw 3 lw 805 314 m20 6 lw 3 lw 819 313 m20 6 lw 3 lw 832 306 m20 6 lw 3 lw 846 302 m20
 6 lw 3 lw 859 313 m20 6 lw 3 lw 873 298 m20 6 lw 3 lw 887 306 m20 6 lw 3 lw 900 299 m20 6 lw 3 lw 914 291 m20 6 lw 3 lw 927 302 m20 6 lw 3 lw 941 288 m20 6 lw 3 lw 955 288 m20 6 lw 3 lw 968 291 m20 6 lw 3 lw 982 280 m20 6 lw 3 lw 996 277 m20 6 lw 3
 lw 1009 275 m20 6 lw 3 lw 1023 272 m20 6 lw 3 lw 1036 273 m20 6 lw 3 lw 1050 275 m20 6 lw 3 lw 1064 269 m20 6 lw 3 lw 1077 268 m20 6 lw 3 lw 1091 266 m20 6 lw 3 lw 1104 269 m20 6 lw 3 lw 1118 266 m20 6 lw 3 lw 1132 264 m20 6 lw 3 lw 1145 264 m20 6
 lw 3 lw 1159 258 m20 6 lw 3 lw 1172 262 m20 6 lw 3 lw 1186 252 m20 6 lw 3 lw 1200 257 m20 6 lw 3 lw 1213 258 m20 6 lw 3 lw 1227 253 m20 6 lw 3 lw 1240 261 m20 6 lw 3 lw 1254 251 m20 6 lw 3 lw 1268 251 m20 6 lw 3 lw 1281 249 m20 6 lw 3 lw 1295 255
 m20 6 lw 3 lw 1308 252 m20 6 lw 3 lw 1322 253 m20 6 lw 3 lw 1336 246 m20 6 lw 3 lw 1349 251 m20 6 lw 3 lw 1363 245 m20 6 lw 3 lw 1377 247 m20 6 lw 3 lw 1390 246 m20 6 lw 3 lw 1404 247 m20 6 lw 3 lw 1417 248 m20 6 lw 3 lw 1431 244 m20 6 lw 3 lw 1445
 242 m20 6 lw 3 lw 1458 244 m20 6 lw 3 lw 1472 243 m20 6 lw 3 lw 1485 242 m20 6 lw 3 lw 1499 238 m20 6 lw 3 lw 1513 241 m20 6 lw 3 lw 1526 244 m20 6 lw 3 lw 1540 240 m20 6 lw 3 lw 1553 241 m20 6 lw 3 lw 1567 238 m20 6 lw 3 lw 1581 240 m20 6 lw 3 lw
 1594 234 m20 6 lw 3 lw 1608 240 m20 6 lw 3 lw 1621 244 m20 6 lw 3 lw 1635 235 m20 6 lw 3 lw 1649 235 m20 6 lw 3 lw 1662 240 m20 6 lw 3 lw 1676 239 m20 6 lw 3 lw 1689 237 m20 6 lw 3 lw 1703 234 m20 6 lw 3 lw 1717 235 m20 6 lw 3 lw 1730 234 m20 6 lw 3
 lw 1744 234 m20 6 lw 3 lw 1757 235 m20 6 lw 3 lw 1771 235 m20 6 lw 3 lw 1785 238 m20 6 lw 3 lw 1798 237 m20 6 lw 3 lw 1812 236 m20 6 lw 3 lw 1826 235 m20 6 lw 3 lw 1839 236 m20 6 lw 3 lw 1853 237 m20 6 lw 3 lw 1866 235 m20 6 lw 3 lw 1880 233 m20 6
 lw 3 lw 1894 234 m20 6 lw 3 lw 1907 235 m20 6 lw 3 lw 1921 234 m20 6 lw 3 lw 1934 233 m20 6 lw 3 lw 1948 233 m20 6 lw 3 lw 1962 234 m20 6 lw 3 lw 1975 233 m20 6 lw 3 lw 1989 233 m20 6 lw 3 lw 2002 233 m20 6 lw 3 lw 2016 236 m20 6 lw 3 lw 2030 232
 m20 6 lw 3 lw 2043 233 m20 6 lw 3 lw 2057 233 m20 6 lw 3 lw 2070 232 m20 6 lw 3 lw 2084 233 m20 6 lw 3 lw 2098 232 m20 6 lw 3 lw 2111 231 m20 6 lw 3 lw 2125 234 m20 6 lw 3 lw 2138 235 m20 6 lw 3 lw 2152 234 m20 6 lw 3 lw 2166 232 m20 6 lw 3 lw 2179
 231 m20 6 lw 3 lw 2193 233 m20 6 lw black 3 lw 295 231 m 1905 X s 295 269 m -38 Y s 349 250 m -19 Y s 404 250 m -19 Y s 458 250 m -19 Y s 513 250 m -19 Y s 567 269 m -38 Y s 621 250 m -19 Y s 676 250 m -19 Y s 730 250 m -19 Y s 785 250 m -19 Y s 839
 269 m -38 Y s 893 250 m -19 Y s 948 250 m -19 Y s 1002 250 m -19 Y s 1057 250 m -19 Y s 1111 269 m -38 Y s 1166 250 m -19 Y s 1220 250 m -19 Y s 1274 250 m -19 Y s 1329 250 m -19 Y s 1383 269 m -38 Y s 1438 250 m -19 Y s 1492 250 m -19 Y s 1547 250
 m -19 Y s 1601 250 m -19 Y s 1655 269 m -38 Y s 1710 250 m -19 Y s 1764 250 m -19 Y s 1819 250 m -19 Y s 1873 250 m -19 Y s 1928 269 m -38 Y s 1982 250 m -19 Y s 2036 250 m -19 Y s 2091 250 m -19 Y s 2145 250 m -19 Y s 2200 269 m -38 Y s
 gsave  2268 1538 0 0 C 267.173 162.911 t 0 r /Helvetica findfont 71.6807 sf 0 0 m (0.1) show NC gr 
 gsave  2268 1538 0 0 C 231.333 162.911 t 0 r /Symbol findfont 71.6807 sf 0 0 m (-) show NC gr 
 gsave  2268 1538 0 0 C 547.38 162.911 t 0 r /Helvetica findfont 71.6807 sf 0 0 m (0) show NC gr 
 gsave  2268 1538 0 0 C 795.004 162.911 t 0 r /Helvetica findfont 71.6807 sf 0 0 m (0.1) show NC gr 
 gsave  2268 1538 0 0 C 1062.18 162.911 t 0 r /Helvetica findfont 71.6807 sf 0 0 m (0.2) show NC gr 
 gsave  2268 1538 0 0 C 1332.61 162.911 t 0 r /Helvetica findfont 71.6807 sf 0 0 m (0.3) show NC gr 
 gsave  2268 1538 0 0 C 1606.3 162.911 t 0 r /Helvetica findfont 71.6807 sf 0 0 m (0.4) show NC gr 
 gsave  2268 1538 0 0 C 1876.73 162.911 t 0 r /Helvetica findfont 71.6807 sf 0 0 m (0.5) show NC gr 
 gsave  2268 1538 0 0 C 2150.42 162.911 t 0 r /Helvetica findfont 71.6807 sf 0 0 m (0.6) show NC gr 
 gsave  2268 1538 0 0 C 2095.03 19.5493 t 0 r /Helvetica findfont 48.8732 sf 0 0 m (Tile0) show NC gr 
 gsave  2268 1538 0 0 C 2075.48 42.3568 t 0 r /Helvetica findfont 71.6807 sf 0 0 m (f) show NC gr  295 1507 m 1905 X s 295 1468 m 39 Y s 349 1488 m 19 Y s 404 1488 m 19 Y s 458 1488 m 19 Y s 513 1488 m 19 Y s 567 1468 m 39 Y s 621 1488 m 19 Y s 676
 1488 m 19 Y s 730 1488 m 19 Y s 785 1488 m 19 Y s 839 1468 m 39 Y s 893 1488 m 19 Y s 948 1488 m 19 Y s 1002 1488 m 19 Y s 1057 1488 m 19 Y s 1111 1468 m 39 Y s 1166 1488 m 19 Y s 1220 1488 m 19 Y s 1274 1488 m 19 Y s 1329 1488 m 19 Y s 1383 1468 m
 39 Y s 1438 1488 m 19 Y s 1492 1488 m 19 Y s 1547 1488 m 19 Y s 1601 1488 m 19 Y s 1655 1468 m 39 Y s 1710 1488 m 19 Y s 1764 1488 m 19 Y s 1819 1488 m 19 Y s 1873 1488 m 19 Y s 1928 1468 m 39 Y s 1982 1488 m 19 Y s 2036 1488 m 19 Y s 2091 1488 m 19
 Y s 2145 1488 m 19 Y s 2200 1468 m 39 Y s 295 231 m 1276 Y s 351 231 m -56 X s 323 279 m -28 X s 323 327 m -28 X s 323 375 m -28 X s 323 423 m -28 X s 351 472 m -56 X s 323 520 m -28 X s 323 568 m -28 X s 323 616 m -28 X s 323 664 m -28 X s 351 712
 m -56 X s 323 761 m -28 X s 323 809 m -28 X s 323 857 m -28 X s 323 905 m -28 X s 351 953 m -56 X s 323 1001 m -28 X s 323 1050 m -28 X s 323 1098 m -28 X s 323 1146 m -28 X s 351 1194 m -56 X s 323 1242 m -28 X s 323 1290 m -28 X s 323 1339 m -28 X
 s 323 1387 m -28 X s 351 1435 m -56 X s 351 1435 m -56 X s 323 1483 m -28 X s
 gsave  2268 1538 0 0 C 244.366 205.267 t 0 r /Helvetica findfont 71.6807 sf 0 0 m (0) show NC gr 
 gsave  2268 1538 0 0 C 146.62 446.375 t 0 r /Helvetica findfont 71.6807 sf 0 0 m (0.05) show NC gr 
 gsave  2268 1538 0 0 C 198.751 687.483 t 0 r /Helvetica findfont 71.6807 sf 0 0 m (0.1) show NC gr 
 gsave  2268 1538 0 0 C 146.62 928.591 t 0 r /Helvetica findfont 71.6807 sf 0 0 m (0.15) show NC gr 
 gsave  2268 1538 0 0 C 188.976 1169.7 t 0 r /Helvetica findfont 71.6807 sf 0 0 m (0.2) show NC gr 
 gsave  2268 1538 0 0 C 146.62 1410.81 t 0 r /Helvetica findfont 71.6807 sf 0 0 m (0.25) show NC gr 
 gsave  2268 1538 0 0 C 156.394 925.333 t 90 r /Helvetica findfont 71.6807 sf 0 0 m (Normalized entries) show NC gr  2200 231 m 1276 Y s 2143 231 m 57 X s 2171 279 m 29 X s 2171 327 m 29 X s 2171 375 m 29 X s 2171 423 m 29 X s 2143 472 m 57 X s 2171
 520 m 29 X s 2171 568 m 29 X s 2171 616 m 29 X s 2171 664 m 29 X s 2143 712 m 57 X s 2171 761 m 29 X s 2171 809 m 29 X s 2171 857 m 29 X s 2171 905 m 29 X s 2143 953 m 57 X s 2171 1001 m 29 X s 2171 1050 m 29 X s 2171 1098 m 29 X s 2171 1146 m 29 X
 s 2143 1194 m 57 X s 2171 1242 m 29 X s 2171 1290 m 29 X s 2171 1339 m 29 X s 2171 1387 m 29 X s 2143 1435 m 57 X s 2143 1435 m 57 X s 2171 1483 m 29 X s 1 0 0 c 6 lw 1 1 1 c 1 0 0 c 3 lw 329 231 m20 6 lw 3 lw 370 231 m20 6 lw 3 lw 438 231 m20 6 lw
 3 lw 451 231 m20 6 lw 3 lw 465 231 m20 6 lw 3 lw 478 231 m20 6 lw 3 lw 492 231 m20 6 lw 3 lw 506 231 m20 6 lw 3 lw 519 231 m20 6 lw 3 lw 533 233 m20 6 lw 3 lw 547 235 m20 6 lw 3 lw 560 275 m20 6 lw 3 lw 574 323 m20 6 lw 3 lw 587 285 m20 6 lw 3 lw
 601 299 m20 6 lw 3 lw 615 308 m20 6 lw 3 lw 628 313 m20 6 lw 3 lw 642 324 m20 6 lw 3 lw 655 332 m20 6 lw 3 lw 669 342 m20 6 lw 3 lw 683 351 m20 6 lw 3 lw 696 363 m20 6 lw 3 lw 710 356 m20 6 lw 3 lw 723 354 m20 6 lw 3 lw 737 354 m20 6 lw 3 lw 751 365
 m20 6 lw 3 lw 764 359 m20 6 lw 3 lw 778 351 m20 6 lw 3 lw 791 350 m20 6 lw 3 lw 805 351 m20 6 lw 3 lw 819 348 m20 6 lw 3 lw 832 347 m20 6 lw 3 lw 846 342 m20 6 lw 3 lw 859 344 m20 6 lw 3 lw 873 340 m20 6 lw 3 lw 887 331 m20 6 lw 3 lw 900 328 m20 6
 lw 3 lw 914 326 m20 6 lw 3 lw 927 321 m20 6 lw 3 lw 941 319 m20 6 lw 3 lw 955 314 m20 6 lw 3 lw 968 312 m20 6 lw 3 lw 982 311 m20 6 lw 3 lw 996 296 m20 6 lw 3 lw 1009 301 m20 6 lw 3 lw 1023 298 m20 6 lw 3 lw 1036 291 m20 6 lw 3 lw 1050 298 m20 6 lw
 3 lw 1064 294 m20 6 lw 3 lw 1077 287 m20 6 lw 3 lw 1091 288 m20 6 lw 3 lw 1104 283 m20 6 lw 3 lw 1118 282 m20 6 lw 3 lw 1132 277 m20 6 lw 3 lw 1145 277 m20 6 lw 3 lw 1159 276 m20 6 lw 3 lw 1172 273 m20 6 lw 3 lw 1186 269 m20 6 lw 3 lw 1200 265 m20 6
 lw 3 lw 1213 262 m20 6 lw 3 lw 1227 264 m20 6 lw 3 lw 1240 262 m20 6 lw 3 lw 1254 261 m20 6 lw 3 lw 1268 258 m20 6 lw 3 lw 1281 258 m20 6 lw 3 lw 1295 258 m20 6 lw 3 lw 1308 254 m20 6 lw 3 lw 1322 252 m20 6 lw 3 lw 1336 254 m20 6 lw 3 lw 1349 252
 m20 6 lw 3 lw 1363 252 m20 6 lw 3 lw 1377 249 m20 6 lw 3 lw 1390 248 m20 6 lw 3 lw 1404 249 m20 6 lw 3 lw 1417 245 m20 6 lw 3 lw 1431 246 m20 6 lw 3 lw 1445 246 m20 6 lw 3 lw 1458 244 m20 6 lw 3 lw 1472 244 m20 6 lw 3 lw 1485 244 m20 6 lw 3 lw 1499
 242 m20 6 lw 3 lw 1513 244 m20 6 lw 3 lw 1526 242 m20 6 lw 3 lw 1540 242 m20 6 lw 3 lw 1553 242 m20 6 lw 3 lw 1567 241 m20 6 lw 3 lw 1581 239 m20 6 lw 3 lw 1594 240 m20 6 lw 3 lw 1608 238 m20 6 lw 3 lw 1621 239 m20 6 lw 3 lw 1635 239 m20 6 lw 3 lw
 1649 237 m20 6 lw 3 lw 1662 238 m20 6 lw 3 lw 1676 235 m20 6 lw 3 lw 1689 236 m20 6 lw 3 lw 1703 236 m20 6 lw 3 lw 1717 237 m20 6 lw 3 lw 1730 237 m20 6 lw 3 lw 1744 235 m20 6 lw 3 lw 1757 236 m20 6 lw 3 lw 1771 236 m20 6 lw 3 lw 1785 235 m20 6 lw 3
 lw 1798 234 m20 6 lw 3 lw 1812 233 m20 6 lw 3 lw 1826 234 m20 6 lw 3 lw 1839 235 m20 6 lw 3 lw 1853 235 m20 6 lw 3 lw 1866 233 m20 6 lw 3 lw 1880 233 m20 6 lw 3 lw 1894 233 m20 6 lw 3 lw 1907 233 m20 6 lw 3 lw 1921 233 m20 6 lw 3 lw 1934 233 m20 6
 lw 3 lw 1948 233 m20 6 lw 3 lw 1962 233 m20 6 lw 3 lw 1975 232 m20 6 lw 3 lw 1989 233 m20 6 lw 3 lw 2002 232 m20 6 lw 3 lw 2016 232 m20 6 lw 3 lw 2030 232 m20 6 lw 3 lw 2043 232 m20 6 lw 3 lw 2057 232 m20 6 lw 3 lw 2070 232 m20 6 lw 3 lw 2084 232
 m20 6 lw 3 lw 2098 232 m20 6 lw 3 lw 2111 232 m20 6 lw 3 lw 2125 231 m20 6 lw 3 lw 2138 232 m20 6 lw 3 lw 2152 232 m20 6 lw 3 lw 2166 232 m20 6 lw 3 lw 2179 231 m20 6 lw 3 lw 2193 231 m20 6 lw black 1 1 1 c black 3 lw 547 231 m20 6 lw 3 lw 560 232
 m20 6 lw 3 lw 574 237 m20 6 lw 3 lw 587 240 m20 6 lw 3 lw 601 246 m20 6 lw 3 lw 615 250 m20 6 lw 3 lw 628 256 m20 6 lw 3 lw 642 262 m20 6 lw 3 lw 655 266 m20 6 lw 3 lw 669 270 m20 6 lw 3 lw 683 277 m20 6 lw 3 lw 696 286 m20 6 lw 3 lw 710 291 m20 6
 lw 3 lw 723 296 m20 6 lw 3 lw 737 303 m20 6 lw 3 lw 751 315 m20 6 lw 3 lw 764 318 m20 6 lw 3 lw 778 331 m20 6 lw 3 lw 791 329 m20 6 lw 3 lw 805 336 m20 6 lw 3 lw 819 336 m20 6 lw 3 lw 832 349 m20 6 lw 3 lw 846 349 m20 6 lw 3 lw 859 352 m20 6 lw 3 lw
 873 345 m20 6 lw 3 lw 887 347 m20 6 lw 3 lw 900 348 m20 6 lw 3 lw 914 355 m20 6 lw 3 lw 927 359 m20 6 lw 3 lw 941 343 m20 6 lw 3 lw 955 347 m20 6 lw 3 lw 968 341 m20 6 lw 3 lw 982 350 m20 6 lw 3 lw 996 332 m20 6 lw 3 lw 1009 339 m20 6 lw 3 lw 1023
 330 m20 6 lw 3 lw 1036 345 m20 6 lw 3 lw 1050 329 m20 6 lw 3 lw 1064 328 m20 6 lw 3 lw 1077 319 m20 6 lw 3 lw 1091 316 m20 6 lw 3 lw 1104 311 m20 6 lw 3 lw 1118 308 m20 6 lw 3 lw 1132 301 m20 6 lw 3 lw 1145 299 m20 6 lw 3 lw 1159 303 m20 6 lw 3 lw
 1172 298 m20 6 lw 3 lw 1186 285 m20 6 lw 3 lw 1200 284 m20 6 lw 3 lw 1213 285 m20 6 lw 3 lw 1227 286 m20 6 lw 3 lw 1240 277 m20 6 lw 3 lw 1254 277 m20 6 lw 3 lw 1268 275 m20 6 lw 3 lw 1281 275 m20 6 lw 3 lw 1295 270 m20 6 lw 3 lw 1308 273 m20 6 lw 3
 lw 1322 266 m20 6 lw 3 lw 1336 263 m20 6 lw 3 lw 1349 269 m20 6 lw 3 lw 1363 259 m20 6 lw 3 lw 1377 261 m20 6 lw 3 lw 1390 257 m20 6 lw 3 lw 1404 256 m20 6 lw 3 lw 1417 254 m20 6 lw 3 lw 1431 252 m20 6 lw 3 lw 1445 252 m20 6 lw 3 lw 1458 250 m20 6
 lw 3 lw 1472 247 m20 6 lw 3 lw 1485 250 m20 6 lw 3 lw 1499 250 m20 6 lw 3 lw 1513 243 m20 6 lw 3 lw 1526 248 m20 6 lw 3 lw 1540 244 m20 6 lw 3 lw 1553 243 m20 6 lw 3 lw 1567 243 m20 6 lw 3 lw 1581 245 m20 6 lw 3 lw 1594 240 m20 6 lw 3 lw 1608 240
 m20 6 lw 3 lw 1621 241 m20 6 lw 3 lw 1635 241 m20 6 lw 3 lw 1649 241 m20 6 lw 3 lw 1662 237 m20 6 lw 3 lw 1676 240 m20 6 lw 3 lw 1689 236 m20 6 lw 3 lw 1703 240 m20 6 lw 3 lw 1717 236 m20 6 lw 3 lw 1730 236 m20 6 lw 3 lw 1744 240 m20 6 lw 3 lw 1757
 235 m20 6 lw 3 lw 1771 235 m20 6 lw 3 lw 1785 235 m20 6 lw 3 lw 1798 237 m20 6 lw 3 lw 1812 236 m20 6 lw 3 lw 1826 236 m20 6 lw 3 lw 1839 236 m20 6 lw 3 lw 1853 233 m20 6 lw 3 lw 1866 233 m20 6 lw 3 lw 1880 234 m20 6 lw 3 lw 1894 234 m20 6 lw 3 lw
 1907 236 m20 6 lw 3 lw 1921 234 m20 6 lw 3 lw 1934 233 m20 6 lw 3 lw 1948 233 m20 6 lw 3 lw 1962 232 m20 6 lw 3 lw 1975 232 m20 6 lw 3 lw 1989 232 m20 6 lw 3 lw 2002 232 m20 6 lw 3 lw 2016 231 m20 6 lw 3 lw 2030 234 m20 6 lw 3 lw 2043 231 m20 6 lw 3
 lw 2057 232 m20 6 lw 3 lw 2070 233 m20 6 lw 3 lw 2084 231 m20 6 lw 3 lw 2098 232 m20 6 lw 3 lw 2111 232 m20 6 lw 3 lw 2125 232 m20 6 lw 3 lw 2138 232 m20 6 lw 3 lw 2152 232 m20 6 lw 3 lw 2166 233 m20 6 lw 3 lw 2179 232 m20 6 lw 3 lw 2193 232 m20 6
 lw 0 0.6 0 c 1 1 1 c 0 0.6 0 c 3 lw 560 231 m20 6 lw 3 lw 574 233 m20 6 lw 3 lw 587 235 m20 6 lw 3 lw 601 239 m20 6 lw 3 lw 615 242 m20 6 lw 3 lw 628 247 m20 6 lw 3 lw 642 247 m20 6 lw 3 lw 655 249 m20 6 lw 3 lw 669 254 m20 6 lw 3 lw 683 259 m20 6
 lw 3 lw 696 267 m20 6 lw 3 lw 710 273 m20 6 lw 3 lw 723 273 m20 6 lw 3 lw 737 278 m20 6 lw 3 lw 751 285 m20 6 lw 3 lw 764 285 m20 6 lw 3 lw 778 291 m20 6 lw 3 lw 791 299 m20 6 lw 3 lw 805 299 m20 6 lw 3 lw 819 314 m20 6 lw 3 lw 832 310 m20 6 lw 3 lw
 846 319 m20 6 lw 3 lw 859 332 m20 6 lw 3 lw 873 336 m20 6 lw 3 lw 887 326 m20 6 lw 3 lw 900 335 m20 6 lw 3 lw 914 342 m20 6 lw 3 lw 927 341 m20 6 lw 3 lw 941 330 m20 6 lw 3 lw 955 337 m20 6 lw 3 lw 968 339 m20 6 lw 3 lw 982 341 m20 6 lw 3 lw 996 349
 m20 6 lw 3 lw 1009 352 m20 6 lw 3 lw 1023 349 m20 6 lw 3 lw 1036 349 m20 6 lw 3 lw 1050 347 m20 6 lw 3 lw 1064 336 m20 6 lw 3 lw 1077 334 m20 6 lw 3 lw 1091 332 m20 6 lw 3 lw 1104 332 m20 6 lw 3 lw 1118 328 m20 6 lw 3 lw 1132 327 m20 6 lw 3 lw 1145
 314 m20 6 lw 3 lw 1159 315 m20 6 lw 3 lw 1172 314 m20 6 lw 3 lw 1186 305 m20 6 lw 3 lw 1200 308 m20 6 lw 3 lw 1213 301 m20 6 lw 3 lw 1227 300 m20 6 lw 3 lw 1240 295 m20 6 lw 3 lw 1254 293 m20 6 lw 3 lw 1268 295 m20 6 lw 3 lw 1281 287 m20 6 lw 3 lw
 1295 284 m20 6 lw 3 lw 1308 289 m20 6 lw 3 lw 1322 272 m20 6 lw 3 lw 1336 272 m20 6 lw 3 lw 1349 271 m20 6 lw 3 lw 1363 274 m20 6 lw 3 lw 1377 270 m20 6 lw 3 lw 1390 271 m20 6 lw 3 lw 1404 260 m20 6 lw 3 lw 1417 262 m20 6 lw 3 lw 1431 261 m20 6 lw 3
 lw 1445 257 m20 6 lw 3 lw 1458 255 m20 6 lw 3 lw 1472 257 m20 6 lw 3 lw 1485 262 m20 6 lw 3 lw 1499 254 m20 6 lw 3 lw 1513 249 m20 6 lw 3 lw 1526 249 m20 6 lw 3 lw 1540 249 m20 6 lw 3 lw 1553 253 m20 6 lw 3 lw 1567 249 m20 6 lw 3 lw 1581 244 m20 6
 lw 3 lw 1594 244 m20 6 lw 3 lw 1608 244 m20 6 lw 3 lw 1621 245 m20 6 lw 3 lw 1635 242 m20 6 lw 3 lw 1649 244 m20 6 lw 3 lw 1662 240 m20 6 lw 3 lw 1676 241 m20 6 lw 3 lw 1689 241 m20 6 lw 3 lw 1703 238 m20 6 lw 3 lw 1717 239 m20 6 lw 3 lw 1730 236
 m20 6 lw 3 lw 1744 238 m20 6 lw 3 lw 1757 241 m20 6 lw 3 lw 1771 235 m20 6 lw 3 lw 1785 240 m20 6 lw 3 lw 1798 239 m20 6 lw 3 lw 1812 235 m20 6 lw 3 lw 1826 237 m20 6 lw 3 lw 1839 236 m20 6 lw 3 lw 1853 237 m20 6 lw 3 lw 1866 235 m20 6 lw 3 lw 1880
 236 m20 6 lw 3 lw 1894 234 m20 6 lw 3 lw 1907 234 m20 6 lw 3 lw 1921 234 m20 6 lw 3 lw 1934 233 m20 6 lw 3 lw 1948 234 m20 6 lw 3 lw 1962 233 m20 6 lw 3 lw 1975 233 m20 6 lw 3 lw 1989 234 m20 6 lw 3 lw 2002 233 m20 6 lw 3 lw 2016 233 m20 6 lw 3 lw
 2030 232 m20 6 lw 3 lw 2043 233 m20 6 lw 3 lw 2057 232 m20 6 lw 3 lw 2070 232 m20 6 lw 3 lw 2084 233 m20 6 lw 3 lw 2098 232 m20 6 lw 3 lw 2111 232 m20 6 lw 3 lw 2125 232 m20 6 lw 3 lw 2138 232 m20 6 lw 3 lw 2152 231 m20 6 lw 3 lw 2166 232 m20 6 lw 3
 lw 2179 231 m20 6 lw 3 lw 2193 231 m20 6 lw black
 gsave  2268 1538 0 0 C 1648.66 1394.52 t 0 r /Helvetica-Bold findfont 48.8732 sf 0 0 m ( < 40 GeV) show NC gr 
 gsave  2268 1538 0 0 C 1573.72 1420.58 t 0 r /Helvetica-Bold findfont 32.5821 sf 0 0 m (truth) show NC gr 
 gsave  2268 1538 0 0 C 1573.72 1368.45 t 0 r /Helvetica-Bold findfont 32.5821 sf 0 0 m (T) show NC gr 
 gsave  2268 1538 0 0 C 1433.61 1394.52 t 0 r /Helvetica-Bold findfont 48.8732 sf 0 0 m (30 < p) show NC gr  0 0 1 c 1275 1413 m 131 X s 3 lw 1341 1413 m20 6 lw black
 gsave  2268 1538 0 0 C 1648.66 1296.77 t 0 r /Helvetica-Bold findfont 48.8732 sf 0 0 m ( < 100 GeV) show NC gr 
 gsave  2268 1538 0 0 C 1573.72 1322.83 t 0 r /Helvetica-Bold findfont 32.5821 sf 0 0 m (truth) show NC gr 
 gsave  2268 1538 0 0 C 1573.72 1270.7 t 0 r /Helvetica-Bold findfont 32.5821 sf 0 0 m (T) show NC gr 
 gsave  2268 1538 0 0 C 1433.61 1296.77 t 0 r /Helvetica-Bold findfont 48.8732 sf 0 0 m (80 < p) show NC gr  1 0 0 c 1275 1317 m 131 X s 3 lw 1341 1317 m20 6 lw black
 gsave  2268 1538 0 0 C 1674.72 1202.28 t 0 r /Helvetica-Bold findfont 48.8732 sf 0 0 m ( < 400 GeV) show NC gr 
 gsave  2268 1538 0 0 C 1599.78 1228.35 t 0 r /Helvetica-Bold findfont 32.5821 sf 0 0 m (truth) show NC gr 
 gsave  2268 1538 0 0 C 1599.78 1176.21 t 0 r /Helvetica-Bold findfont 32.5821 sf 0 0 m (T) show NC gr 
 gsave  2268 1538 0 0 C 1433.61 1202.28 t 0 r /Helvetica-Bold findfont 48.8732 sf 0 0 m (350 < p) show NC gr  1275 1221 m 131 X s 3 lw 1341 1221 m20 6 lw
 gsave  2268 1538 0 0 C 1704.05 1104.53 t 0 r /Helvetica-Bold findfont 48.8732 sf 0 0 m ( < 1200 GeV) show NC gr 
 gsave  2268 1538 0 0 C 1629.11 1130.6 t 0 r /Helvetica-Bold findfont 32.5821 sf 0 0 m (truth) show NC gr 
 gsave  2268 1538 0 0 C 1629.11 1078.47 t 0 r /Helvetica-Bold findfont 32.5821 sf 0 0 m (T) show NC gr 
 gsave  2268 1538 0 0 C 1433.61 1104.53 t 0 r /Helvetica-Bold findfont 48.8732 sf 0 0 m (1000 < p) show NC gr  0 0.6 0 c 1275 1125 m 131 X s 3 lw 1341 1125 m20 6 lw black
 gsave  2268 1538 0 0 C 384.469 1417.32 t 0 r /Helvetica-BoldOblique findfont 61.9061 sf 0 0 m (ATLAS) show NC gr 
 gsave  2268 1538 0 0 C 632.093 1417.32 t 0 r /Helvetica findfont 58.6478 sf 0 0 m (Simulation Internal) show NC gr 
 gsave  2268 1538 0 0 C 746.131 1339.13 t 0 r /Helvetica findfont 58.6478 sf 0 0 m ( = 13 TeV) show NC gr 
 gsave  2268 1538 0 0 C 716.807 1339.13 t 0 r /Helvetica findfont 58.6478 sf 0 0 m (s) show NC gr  697 1372 m 7 -36 d s 3 lw 704 1336 m 6 52 d s 710 1388 m 36 X s
 gsave  2268 1538 0 0 C 384.469 1339.13 t 0 r /Helvetica findfont 58.6478 sf 0 0 m (Pythia Dijet ) show NC gr 
 gsave  2268 1538 0 0 C 384.469 1264.19 t 0 r /Helvetica findfont 58.6478 sf 0 0 m (EM+JES) show NC gr 
 gsave  2268 1538 0 0 C 938.365 1185.99 t 0 r /Helvetica findfont 58.6478 sf 0 0 m (| < 1.5) show NC gr 
 gsave  2268 1538 0 0 C 905.783 1185.99 t 0 r /Symbol findfont 58.6478 sf 0 0 m (h) show NC gr 
 gsave  2268 1538 0 0 C 720.065 1185.99 t 0 r /Helvetica findfont 58.6478 sf 0 0 m (, 1.4 < |) show NC gr 
 gsave  2268 1538 0 0 C 707.032 1169.7 t 0 r /Helvetica findfont 39.0986 sf 0 0 m (t) show NC gr 
 gsave  2268 1538 0 0 C 671.192 1185.99 t 0 r /Helvetica-Oblique findfont 58.6478 sf 0 0 m (k) show NC gr 
 gsave  2268 1538 0 0 C 430.084 1185.99 t 0 r /Helvetica findfont 58.6478 sf 0 0 m (=0.4 anti\255) show NC gr 
 gsave  2268 1538 0 0 C 384.469 1185.99 t 0 r /Helvetica-Oblique findfont 58.6478 sf 0 0 m (R) show NC gr 
 gr  gr showpage
end
%%EOF
