%!PS-Adobe-2.0 EPSF-2.0
%%BoundingBox:  0 0 567 384
%%Title: Tile0_Tile0/Distribution_Tile0_eta_5.eps: c1_n2
%%Creator: ROOT Version 6.22/08
%%CreationDate: Tue Aug  3 22:33:28 2021
%%DocumentNeededResources: ProcSet (FontSetInit)
%%EndComments
%%BeginProlog
80 dict begin
/s {stroke} def /l {lineto} def /m {moveto} def /t {translate} def
/r {rotate} def /rl {roll}  def /R {repeat} def
/d {rlineto} def /rm {rmoveto} def /gr {grestore} def /f {eofill} def
/c {setrgbcolor} def /black {0 setgray} def /sd {setdash} def
/cl {closepath} def /sf {scalefont setfont} def /lw {setlinewidth} def
/box {m dup 0 exch d exch 0 d 0 exch neg d cl} def
/NC{systemdict begin initclip end}def/C{NC box clip newpath}def
/bl {box s} def /bf {gsave box gsave f grestore 1 lw [] 0 sd s grestore} def /Y { 0 exch d} def /X { 0 d} def 
/K {{pop pop 0 moveto} exch kshow} bind def
/ita {/ang 15 def gsave [1 0 ang dup sin exch cos div 1 0 0] concat} def 
/mp {newpath /y exch def /x exch def} def
/side {[w .77 mul w .23 mul] .385 w mul sd w 0 l currentpoint t -144 r} def
/mr {mp x y w2 0 360 arc} def /m24 {mr s} def /m20 {mr f} def
/mb {mp x y w2 add m w2 neg 0 d 0 w neg d w 0 d 0 w d cl} def
/mt {mp x y w2 add m w2 neg w neg d w 0 d cl} def
/w4 {w 4 div} def
/w6 {w 6 div} def
/w8 {w 8 div} def
/m21 {mb f} def /m25 {mb s} def /m22 {mt f} def /m26{mt s} def
/m23 {mp x y w2 sub m w2 w d w neg 0 d cl f} def
/m27 {mp x y w2 add m w3 neg w2 neg d w3 w2 neg d w3 w2 d cl s} def
/m28 {mp x w2 sub y w2 sub w3 add m w3 0 d  0 w3 neg d w3 0 d 0 w3 d w3 0 d  0 w3 d w3 neg 0 d 0 w3 d w3 neg 0 d 0 w3 neg d w3 neg 0 d cl s } def
/m29 {mp gsave x w2 sub y w2 add w3 sub m currentpoint t 4 {side} repeat cl fill gr} def
/m30 {mp gsave x w2 sub y w2 add w3 sub m currentpoint t 4 {side} repeat cl s gr} def
/m31 {mp x y w2 sub m 0 w d x w2 sub y m w 0 d x w2 .707 mul sub y w2 .707 mul add m w 1.44 div w 1.44 div neg d x w2 .707 mul sub y w2 .707 mul sub m w 1.44 div w 1.44 div d s} def
/m32 {mp x y w2 sub m w2 w d w neg 0 d cl s} def
/m33 {mp x y w2 add m w3 neg w2 neg d w3 w2 neg d w3 w2 d cl f} def
/m34 {mp x w2 sub y w2 sub w3 add m w3 0 d  0 w3 neg d w3 0 d 0 w3 d w3 0 d  0 w3 d w3 neg 0 d 0 w3 d w3 neg 0 d 0 w3 neg d w3 neg 0 d cl f } def
/m35 {mp x y w2 add m w2 neg w2 neg d w2 w2 neg d w2 w2 d w2 neg w2 d x y w2 sub m 0 w d x w2 sub y m w 0 d s} def
/m36 {mb x w2 sub y w2 add m w w neg d x w2 sub y w2 sub m w w d s} def
/m37 {mp x y m w4 neg w2 d w4 neg w2 neg d w2 0 d  w4 neg w2 neg d w2 0 d w4 neg w2 d w2 0 d w4 neg w2 d w4 neg w2 neg d cl s} def
/m38 {mp x w4 sub y w2 add m w4 neg w4 neg d 0 w2 neg d w4 w4 neg d w2 0 d w4 w4 d 0 w2 d w4 neg w4 d w2 neg 0 d x y w2 sub m 0 w d x w2 sub y m w 0 d cl s} def
/m39 {mp x y m w4 neg w2 d w4 neg w2 neg d w2 0 d  w4 neg w2 neg d w2 0 d w4 neg w2 d w2 0 d w4 neg w2 d w4 neg w2 neg d cl f} def
/m40 {mp x y m w4 w2 d w4 w4 neg d w2 neg w4 neg d w2 w4 neg d w4 neg w4 neg d w4 neg w2 d w4 neg w2 neg d w4 neg w4 d w2 w4 d w2 neg w4 d w4 w4 d w4 w2 neg d cl s} def
/m41 {mp x y m w4 w2 d w4 w4 neg d w2 neg w4 neg d w2 w4 neg d w4 neg w4 neg d w4 neg w2 d w4 neg w2 neg d w4 neg w4 d w2 w4 d w2 neg w4 d w4 w4 d w4 w2 neg d cl f} def
/m42 {mp x y w2 add m w8 neg w2 -3 4 div mul d w2 -3 4 div mul w8 neg d w2 3 4 div mul w8 neg d w8 w2 -3 4 div mul d w8 w2 3 4 div mul d w2 3 4 div mul w8 d w2 -3 4 div mul w8 d w8 neg w2 3 4 div mul d cl s} def
/m43 {mp x y w2 add m w8 neg w2 -3 4 div mul d w2 -3 4 div mul w8 neg d w2 3 4 div mul w8 neg d w8 w2 -3 4 div mul d w8 w2 3 4 div mul d w2 3 4 div mul w8 d w2 -3 4 div mul w8 d w8 neg w2 3 4 div mul d cl f} def
/m44 {mp x y m w6 neg w2 d w2 2 3 div mul 0 d w6 neg w2 neg d w2 w6 d 0 w2 -2 3 div mul d w2 neg w6 d w6 w2 neg d w2 -2 3 div mul 0 d w6 w2 d w2 neg w6 neg d 0 w2 2 3 div mul d w2 w6 neg d cl s} def
/m45 {mp x y m w6 neg w2 d w2 2 3 div mul 0 d w6 neg w2 neg d w2 w6 d 0 w2 -2 3 div mul d w2 neg w6 d w6 w2 neg d w2 -2 3 div mul 0 d w6 w2 d w2 neg w6 neg d 0 w2 2 3 div mul d w2 w6 neg d cl f} def
/m46 {mp x y w4 add m w4 neg w4 d w4 neg w4 neg d  w4 w4 neg d w4 neg w4 neg d w4 w4 neg d w4 w4 d w4 w4 neg d w4 w4 d w4 neg w4 d w4 w4 d w4 neg w4 d w4 neg w4 neg d cl s} def
/m47 {mp x y w4 add m w4 neg w4 d w4 neg w4 neg d w4 w4 neg d w4 neg w4 neg d  w4 w4 neg d w4 w4 d w4 w4 neg d w4 w4 d w4 neg w4 d w4 w4 d w4 neg w4 d w4 neg w4 neg d cl f} def
/m48 {mp x y w4 add m w4 neg w4 d w4 neg w4 neg d w4 w4 neg d  w4 neg w4 neg d w4 w4 neg d w4 w4 d w4 w4 neg d w4 w4 d w4 neg w4 d w4 w4 d w4 neg w4 d w4 neg w4 neg d  w4 w4 neg d w4 neg w4 neg d w4 neg w4 d w4 w4 d cl f} def
/m49 {mp x w2 sub w3 add y w2 sub w3 add m  0 w3 neg d w3 0 d 0 w3 d w3 0 d 0 w3 d w3 neg 0 d 0 w3 d w3 neg 0 d 0 w3 neg d w3 neg 0 d 0 w3 neg d w3 0 d 0 w3 d w3 0 d 0 w3 neg d w3 neg 0 d cl f } def
/m2 {mp x y w2 sub m 0 w d x w2 sub y m w 0 d s} def
/m5 {mp x w2 .707 mul sub y w2 .707 mul sub m w 1.44 div w 1.44 div d x w2 .707 mul sub y w2 .707 mul add m w 1.44 div w 1.44 div neg d s} def
%%IncludeResource: ProcSet (FontSetInit)
%%IncludeResource: font Times-Roman
%%IncludeResource: font Times-Italic
%%IncludeResource: font Times-Bold
%%IncludeResource: font Times-BoldItalic
%%IncludeResource: font Helvetica
%%IncludeResource: font Helvetica-Oblique
%%IncludeResource: font Helvetica-Bold
%%IncludeResource: font Helvetica-BoldOblique
%%IncludeResource: font Courier
%%IncludeResource: font Courier-Oblique
%%IncludeResource: font Courier-Bold
%%IncludeResource: font Courier-BoldOblique
%%IncludeResource: font Symbol
%%IncludeResource: font ZapfDingbats
/reEncode {exch findfont dup length dict begin {1 index /FID eq  {pop pop} {def} ifelse } forall /Encoding exch def currentdict end dup /FontName get exch definefont pop } def [/Times-Bold /Times-Italic /Times-BoldItalic /Helvetica /Helvetica-Oblique
 /Helvetica-Bold /Helvetica-BoldOblique /Courier /Courier-Oblique /Courier-Bold /Courier-BoldOblique /Times-Roman /AvantGarde-Book /AvantGarde-BookOblique /AvantGarde-Demi /AvantGarde-DemiOblique /Bookman-Demi /Bookman-DemiItalic /Bookman-Light
 /Bookman-LightItalic /Helvetica-Narrow /Helvetica-Narrow-Bold /Helvetica-Narrow-BoldOblique /Helvetica-Narrow-Oblique /NewCenturySchlbk-Roman /NewCenturySchlbk-Bold /NewCenturySchlbk-BoldItalic /NewCenturySchlbk-Italic /Palatino-Bold
 /Palatino-BoldItalic /Palatino-Italic /Palatino-Roman ] {ISOLatin1Encoding reEncode } forall
%%EndProlog
%%BeginSetup
%%EndSetup
newpath  gsave  .25 .25 scale  gsave  0 0 t 1 0 0 c[  ] 0 sd 3 lw 1 1 1 c 2268 1538 0 0 bf black 1 1 1 c 1905 1276 295 231 bf black 1905 1276 295 231 bl 1 1 1 c 1905 1276 295 231 bf black 1905 1276 295 231 bl 0 0 1 c 6 lw 1 1 1 c 0 0 1 c 3 lw /w 31
 def /w2 {w 2 div} def /w3 {w 3 div} def 302 233 m20 6 lw 3 lw 315 236 m20 6 lw 3 lw 329 233 m20 6 lw 3 lw 342 233 m20 6 lw 3 lw 356 234 m20 6 lw 3 lw 370 231 m20 6 lw 3 lw 383 235 m20 6 lw 3 lw 397 238 m20 6 lw 3 lw 410 237 m20 6 lw 3 lw 424 241 m20
 6 lw 3 lw 438 240 m20 6 lw 3 lw 451 244 m20 6 lw 3 lw 465 246 m20 6 lw 3 lw 478 246 m20 6 lw 3 lw 492 247 m20 6 lw 3 lw 506 257 m20 6 lw 3 lw 519 258 m20 6 lw 3 lw 533 299 m20 6 lw 3 lw 547 320 m20 6 lw 560 512 m 3 Y s 560 541 m 4 Y s 3 lw 560 528
 m20 6 lw 574 636 m 7 Y s 574 669 m 7 Y s 3 lw 574 656 m20 6 lw 587 424 m s 587 450 m 1 Y s 3 lw 587 437 m20 6 lw 3 lw 601 412 m20 6 lw 3 lw 615 394 m20 6 lw 3 lw 628 414 m20 6 lw 642 419 m 1 Y s 642 446 m s 3 lw 642 433 m20 6 lw 3 lw 655 389 m20 6
 lw 669 427 m 1 Y s 669 454 m 1 Y s 3 lw 669 441 m20 6 lw 683 415 m s 683 441 m 1 Y s 3 lw 683 428 m20 6 lw 696 415 m s 696 441 m 1 Y s 3 lw 696 428 m20 6 lw 710 424 m s 710 450 m 1 Y s 3 lw 710 437 m20 6 lw 723 417 m 1 Y s 723 444 m 1 Y s 3 lw 723
 431 m20 6 lw 737 448 m 1 Y s 737 475 m 2 Y s 3 lw 737 462 m20 6 lw 751 419 m 1 Y s 751 446 m s 3 lw 751 433 m20 6 lw 764 406 m s 764 432 m s 3 lw 764 419 m20 6 lw 778 423 m s 778 450 m s 3 lw 778 437 m20 6 lw 791 434 m 1 Y s 791 462 m 1 Y s 3 lw 791
 448 m20 6 lw 805 427 m 1 Y s 805 454 m 1 Y s 3 lw 805 441 m20 6 lw 819 435 m 1 Y s 819 462 m 2 Y s 3 lw 819 449 m20 6 lw 3 lw 832 401 m20 6 lw 3 lw 846 392 m20 6 lw 859 403 m s 859 429 m s 3 lw 859 416 m20 6 lw 3 lw 873 399 m20 6 lw 3 lw 887 409 m20
 6 lw 3 lw 900 409 m20 6 lw 3 lw 914 411 m20 6 lw 3 lw 927 393 m20 6 lw 3 lw 941 375 m20 6 lw 3 lw 955 373 m20 6 lw 3 lw 968 363 m20 6 lw 3 lw 982 380 m20 6 lw 3 lw 996 380 m20 6 lw 3 lw 1009 362 m20 6 lw 3 lw 1023 354 m20 6 lw 3 lw 1036 361 m20 6 lw
 3 lw 1050 357 m20 6 lw 3 lw 1064 346 m20 6 lw 3 lw 1077 332 m20 6 lw 3 lw 1091 339 m20 6 lw 3 lw 1104 342 m20 6 lw 3 lw 1118 323 m20 6 lw 3 lw 1132 331 m20 6 lw 3 lw 1145 344 m20 6 lw 3 lw 1159 317 m20 6 lw 3 lw 1172 303 m20 6 lw 3 lw 1186 323 m20 6
 lw 3 lw 1200 319 m20 6 lw 3 lw 1213 308 m20 6 lw 3 lw 1227 302 m20 6 lw 3 lw 1240 291 m20 6 lw 3 lw 1254 293 m20 6 lw 3 lw 1268 298 m20 6 lw 3 lw 1281 299 m20 6 lw 3 lw 1295 291 m20 6 lw 3 lw 1308 287 m20 6 lw 3 lw 1322 283 m20 6 lw 3 lw 1336 283
 m20 6 lw 3 lw 1349 286 m20 6 lw 3 lw 1363 279 m20 6 lw 3 lw 1377 265 m20 6 lw 3 lw 1390 269 m20 6 lw 3 lw 1404 276 m20 6 lw 3 lw 1417 261 m20 6 lw 3 lw 1431 274 m20 6 lw 3 lw 1445 278 m20 6 lw 3 lw 1458 265 m20 6 lw 3 lw 1472 261 m20 6 lw 3 lw 1485
 267 m20 6 lw 3 lw 1499 252 m20 6 lw 3 lw 1513 258 m20 6 lw 3 lw 1526 263 m20 6 lw 3 lw 1540 250 m20 6 lw 3 lw 1553 255 m20 6 lw 3 lw 1567 255 m20 6 lw 3 lw 1581 260 m20 6 lw 3 lw 1594 251 m20 6 lw 3 lw 1608 255 m20 6 lw 3 lw 1621 245 m20 6 lw 3 lw
 1635 254 m20 6 lw 3 lw 1649 252 m20 6 lw 3 lw 1662 246 m20 6 lw 3 lw 1676 248 m20 6 lw 3 lw 1689 246 m20 6 lw 3 lw 1703 241 m20 6 lw 3 lw 1717 239 m20 6 lw 3 lw 1730 244 m20 6 lw 3 lw 1744 242 m20 6 lw 3 lw 1757 240 m20 6 lw 3 lw 1771 246 m20 6 lw 3
 lw 1785 237 m20 6 lw 3 lw 1798 243 m20 6 lw 3 lw 1812 237 m20 6 lw 3 lw 1826 243 m20 6 lw 3 lw 1839 234 m20 6 lw 3 lw 1853 236 m20 6 lw 3 lw 1866 235 m20 6 lw 3 lw 1880 235 m20 6 lw 3 lw 1894 237 m20 6 lw 3 lw 1907 234 m20 6 lw 3 lw 1921 233 m20 6
 lw 3 lw 1934 234 m20 6 lw 3 lw 1948 233 m20 6 lw 3 lw 1962 236 m20 6 lw 3 lw 1975 235 m20 6 lw 3 lw 1989 233 m20 6 lw 3 lw 2002 235 m20 6 lw 3 lw 2016 232 m20 6 lw 3 lw 2030 234 m20 6 lw 3 lw 2043 232 m20 6 lw 3 lw 2057 231 m20 6 lw 3 lw 2070 234
 m20 6 lw 3 lw 2084 232 m20 6 lw 3 lw 2098 233 m20 6 lw 3 lw 2111 232 m20 6 lw 3 lw 2125 232 m20 6 lw 3 lw 2138 233 m20 6 lw 3 lw 2152 232 m20 6 lw 3 lw 2166 232 m20 6 lw 3 lw 2179 234 m20 6 lw 3 lw 2193 233 m20 6 lw black 3 lw 295 231 m 1905 X s 295
 269 m -38 Y s 349 250 m -19 Y s 404 250 m -19 Y s 458 250 m -19 Y s 513 250 m -19 Y s 567 269 m -38 Y s 621 250 m -19 Y s 676 250 m -19 Y s 730 250 m -19 Y s 785 250 m -19 Y s 839 269 m -38 Y s 893 250 m -19 Y s 948 250 m -19 Y s 1002 250 m -19 Y s
 1057 250 m -19 Y s 1111 269 m -38 Y s 1166 250 m -19 Y s 1220 250 m -19 Y s 1274 250 m -19 Y s 1329 250 m -19 Y s 1383 269 m -38 Y s 1438 250 m -19 Y s 1492 250 m -19 Y s 1547 250 m -19 Y s 1601 250 m -19 Y s 1655 269 m -38 Y s 1710 250 m -19 Y s
 1764 250 m -19 Y s 1819 250 m -19 Y s 1873 250 m -19 Y s 1928 269 m -38 Y s 1982 250 m -19 Y s 2036 250 m -19 Y s 2091 250 m -19 Y s 2145 250 m -19 Y s 2200 269 m -38 Y s
 gsave  2268 1538 0 0 C 267.173 162.911 t 0 r /Helvetica findfont 71.6807 sf 0 0 m (0.1) show NC gr 
 gsave  2268 1538 0 0 C 231.333 162.911 t 0 r /Symbol findfont 71.6807 sf 0 0 m (-) show NC gr 
 gsave  2268 1538 0 0 C 547.38 162.911 t 0 r /Helvetica findfont 71.6807 sf 0 0 m (0) show NC gr 
 gsave  2268 1538 0 0 C 795.004 162.911 t 0 r /Helvetica findfont 71.6807 sf 0 0 m (0.1) show NC gr 
 gsave  2268 1538 0 0 C 1062.18 162.911 t 0 r /Helvetica findfont 71.6807 sf 0 0 m (0.2) show NC gr 
 gsave  2268 1538 0 0 C 1332.61 162.911 t 0 r /Helvetica findfont 71.6807 sf 0 0 m (0.3) show NC gr 
 gsave  2268 1538 0 0 C 1606.3 162.911 t 0 r /Helvetica findfont 71.6807 sf 0 0 m (0.4) show NC gr 
 gsave  2268 1538 0 0 C 1876.73 162.911 t 0 r /Helvetica findfont 71.6807 sf 0 0 m (0.5) show NC gr 
 gsave  2268 1538 0 0 C 2150.42 162.911 t 0 r /Helvetica findfont 71.6807 sf 0 0 m (0.6) show NC gr 
 gsave  2268 1538 0 0 C 2095.03 19.5493 t 0 r /Helvetica findfont 48.8732 sf 0 0 m (Tile0) show NC gr 
 gsave  2268 1538 0 0 C 2075.48 42.3568 t 0 r /Helvetica findfont 71.6807 sf 0 0 m (f) show NC gr  295 1507 m 1905 X s 295 1468 m 39 Y s 349 1488 m 19 Y s 404 1488 m 19 Y s 458 1488 m 19 Y s 513 1488 m 19 Y s 567 1468 m 39 Y s 621 1488 m 19 Y s 676
 1488 m 19 Y s 730 1488 m 19 Y s 785 1488 m 19 Y s 839 1468 m 39 Y s 893 1488 m 19 Y s 948 1488 m 19 Y s 1002 1488 m 19 Y s 1057 1488 m 19 Y s 1111 1468 m 39 Y s 1166 1488 m 19 Y s 1220 1488 m 19 Y s 1274 1488 m 19 Y s 1329 1488 m 19 Y s 1383 1468 m
 39 Y s 1438 1488 m 19 Y s 1492 1488 m 19 Y s 1547 1488 m 19 Y s 1601 1488 m 19 Y s 1655 1468 m 39 Y s 1710 1488 m 19 Y s 1764 1488 m 19 Y s 1819 1488 m 19 Y s 1873 1488 m 19 Y s 1928 1468 m 39 Y s 1982 1488 m 19 Y s 2036 1488 m 19 Y s 2091 1488 m 19
 Y s 2145 1488 m 19 Y s 2200 1468 m 39 Y s 295 231 m 1276 Y s 351 231 m -56 X s 323 280 m -28 X s 323 330 m -28 X s 323 379 m -28 X s 351 429 m -56 X s 323 478 m -28 X s 323 528 m -28 X s 323 578 m -28 X s 351 627 m -56 X s 323 677 m -28 X s 323 726
 m -28 X s 323 776 m -28 X s 351 825 m -56 X s 323 875 m -28 X s 323 924 m -28 X s 323 974 m -28 X s 351 1023 m -56 X s 323 1073 m -28 X s 323 1123 m -28 X s 323 1172 m -28 X s 351 1222 m -56 X s 323 1271 m -28 X s 323 1321 m -28 X s 323 1370 m -28 X
 s 351 1420 m -56 X s 351 1420 m -56 X s 323 1469 m -28 X s
 gsave  2268 1538 0 0 C 244.366 205.267 t 0 r /Helvetica findfont 71.6807 sf 0 0 m (0) show NC gr 
 gsave  2268 1538 0 0 C 146.62 404.018 t 0 r /Helvetica findfont 71.6807 sf 0 0 m (0.02) show NC gr 
 gsave  2268 1538 0 0 C 146.62 602.769 t 0 r /Helvetica findfont 71.6807 sf 0 0 m (0.04) show NC gr 
 gsave  2268 1538 0 0 C 146.62 801.521 t 0 r /Helvetica findfont 71.6807 sf 0 0 m (0.06) show NC gr 
 gsave  2268 1538 0 0 C 146.62 1000.27 t 0 r /Helvetica findfont 71.6807 sf 0 0 m (0.08) show NC gr 
 gsave  2268 1538 0 0 C 198.751 1195.76 t 0 r /Helvetica findfont 71.6807 sf 0 0 m (0.1) show NC gr 
 gsave  2268 1538 0 0 C 146.62 1394.52 t 0 r /Helvetica findfont 71.6807 sf 0 0 m (0.12) show NC gr 
 gsave  2268 1538 0 0 C 156.394 925.333 t 90 r /Helvetica findfont 71.6807 sf 0 0 m (Normalized entries) show NC gr  2200 231 m 1276 Y s 2143 231 m 57 X s 2171 280 m 29 X s 2171 330 m 29 X s 2171 379 m 29 X s 2143 429 m 57 X s 2171 478 m 29 X s 2171
 528 m 29 X s 2171 578 m 29 X s 2143 627 m 57 X s 2171 677 m 29 X s 2171 726 m 29 X s 2171 776 m 29 X s 2143 825 m 57 X s 2171 875 m 29 X s 2171 924 m 29 X s 2171 974 m 29 X s 2143 1023 m 57 X s 2171 1073 m 29 X s 2171 1123 m 29 X s 2171 1172 m 29 X
 s 2143 1222 m 57 X s 2171 1271 m 29 X s 2171 1321 m 29 X s 2171 1370 m 29 X s 2143 1420 m 57 X s 2143 1420 m 57 X s 2171 1469 m 29 X s 1 0 0 c 6 lw 1 1 1 c 1 0 0 c 3 lw 356 231 m20 6 lw 3 lw 424 231 m20 6 lw 3 lw 438 231 m20 6 lw 3 lw 451 231 m20 6
 lw 3 lw 465 231 m20 6 lw 3 lw 478 231 m20 6 lw 3 lw 492 231 m20 6 lw 3 lw 506 232 m20 6 lw 3 lw 519 232 m20 6 lw 3 lw 533 234 m20 6 lw 3 lw 547 238 m20 6 lw 3 lw 560 263 m20 6 lw 3 lw 574 283 m20 6 lw 3 lw 587 283 m20 6 lw 3 lw 601 295 m20 6 lw 3 lw
 615 314 m20 6 lw 3 lw 628 325 m20 6 lw 3 lw 642 338 m20 6 lw 3 lw 655 350 m20 6 lw 3 lw 669 359 m20 6 lw 3 lw 683 377 m20 6 lw 3 lw 696 381 m20 6 lw 3 lw 710 409 m20 6 lw 3 lw 723 415 m20 6 lw 3 lw 737 417 m20 6 lw 3 lw 751 432 m20 6 lw 3 lw 764 428
 m20 6 lw 3 lw 778 442 m20 6 lw 3 lw 791 455 m20 6 lw 3 lw 805 443 m20 6 lw 3 lw 819 455 m20 6 lw 3 lw 832 451 m20 6 lw 3 lw 846 452 m20 6 lw 3 lw 859 453 m20 6 lw 3 lw 873 457 m20 6 lw 3 lw 887 458 m20 6 lw 3 lw 900 465 m20 6 lw 3 lw 914 451 m20 6
 lw 3 lw 927 451 m20 6 lw 3 lw 941 437 m20 6 lw 3 lw 955 447 m20 6 lw 3 lw 968 449 m20 6 lw 3 lw 982 440 m20 6 lw 3 lw 996 425 m20 6 lw 3 lw 1009 420 m20 6 lw 3 lw 1023 417 m20 6 lw 3 lw 1036 415 m20 6 lw 3 lw 1050 412 m20 6 lw 3 lw 1064 392 m20 6 lw
 3 lw 1077 399 m20 6 lw 3 lw 1091 393 m20 6 lw 3 lw 1104 376 m20 6 lw 3 lw 1118 379 m20 6 lw 3 lw 1132 371 m20 6 lw 3 lw 1145 367 m20 6 lw 3 lw 1159 359 m20 6 lw 3 lw 1172 353 m20 6 lw 3 lw 1186 344 m20 6 lw 3 lw 1200 340 m20 6 lw 3 lw 1213 346 m20 6
 lw 3 lw 1227 325 m20 6 lw 3 lw 1240 326 m20 6 lw 3 lw 1254 321 m20 6 lw 3 lw 1268 317 m20 6 lw 3 lw 1281 316 m20 6 lw 3 lw 1295 310 m20 6 lw 3 lw 1308 306 m20 6 lw 3 lw 1322 302 m20 6 lw 3 lw 1336 298 m20 6 lw 3 lw 1349 298 m20 6 lw 3 lw 1363 298
 m20 6 lw 3 lw 1377 284 m20 6 lw 3 lw 1390 283 m20 6 lw 3 lw 1404 278 m20 6 lw 3 lw 1417 280 m20 6 lw 3 lw 1431 279 m20 6 lw 3 lw 1445 274 m20 6 lw 3 lw 1458 273 m20 6 lw 3 lw 1472 269 m20 6 lw 3 lw 1485 266 m20 6 lw 3 lw 1499 264 m20 6 lw 3 lw 1513
 265 m20 6 lw 3 lw 1526 255 m20 6 lw 3 lw 1540 257 m20 6 lw 3 lw 1553 259 m20 6 lw 3 lw 1567 259 m20 6 lw 3 lw 1581 253 m20 6 lw 3 lw 1594 255 m20 6 lw 3 lw 1608 255 m20 6 lw 3 lw 1621 249 m20 6 lw 3 lw 1635 248 m20 6 lw 3 lw 1649 249 m20 6 lw 3 lw
 1662 245 m20 6 lw 3 lw 1676 246 m20 6 lw 3 lw 1689 244 m20 6 lw 3 lw 1703 244 m20 6 lw 3 lw 1717 246 m20 6 lw 3 lw 1730 242 m20 6 lw 3 lw 1744 242 m20 6 lw 3 lw 1757 238 m20 6 lw 3 lw 1771 241 m20 6 lw 3 lw 1785 240 m20 6 lw 3 lw 1798 241 m20 6 lw 3
 lw 1812 238 m20 6 lw 3 lw 1826 237 m20 6 lw 3 lw 1839 238 m20 6 lw 3 lw 1853 237 m20 6 lw 3 lw 1866 235 m20 6 lw 3 lw 1880 237 m20 6 lw 3 lw 1894 235 m20 6 lw 3 lw 1907 235 m20 6 lw 3 lw 1921 236 m20 6 lw 3 lw 1934 234 m20 6 lw 3 lw 1948 235 m20 6
 lw 3 lw 1962 233 m20 6 lw 3 lw 1975 232 m20 6 lw 3 lw 1989 234 m20 6 lw 3 lw 2002 233 m20 6 lw 3 lw 2016 233 m20 6 lw 3 lw 2030 234 m20 6 lw 3 lw 2043 233 m20 6 lw 3 lw 2057 233 m20 6 lw 3 lw 2070 232 m20 6 lw 3 lw 2084 233 m20 6 lw 3 lw 2098 233
 m20 6 lw 3 lw 2111 233 m20 6 lw 3 lw 2125 232 m20 6 lw 3 lw 2138 232 m20 6 lw 3 lw 2152 232 m20 6 lw 3 lw 2166 232 m20 6 lw 3 lw 2179 233 m20 6 lw 3 lw 2193 231 m20 6 lw black 1 1 1 c black 3 lw 547 231 m20 6 lw 3 lw 560 232 m20 6 lw 3 lw 574 238
 m20 6 lw 3 lw 587 244 m20 6 lw 3 lw 601 251 m20 6 lw 3 lw 615 248 m20 6 lw 3 lw 628 260 m20 6 lw 3 lw 642 262 m20 6 lw 3 lw 655 272 m20 6 lw 3 lw 669 274 m20 6 lw 3 lw 683 288 m20 6 lw 3 lw 696 298 m20 6 lw 3 lw 710 309 m20 6 lw 3 lw 723 306 m20 6
 lw 3 lw 737 320 m20 6 lw 3 lw 751 336 m20 6 lw 3 lw 764 347 m20 6 lw 3 lw 778 364 m20 6 lw 3 lw 791 386 m20 6 lw 3 lw 805 399 m20 6 lw 3 lw 819 390 m20 6 lw 3 lw 832 405 m20 6 lw 3 lw 846 431 m20 6 lw 3 lw 859 443 m20 6 lw 3 lw 873 469 m20 6 lw 3 lw
 887 448 m20 6 lw 3 lw 900 458 m20 6 lw 3 lw 914 443 m20 6 lw 3 lw 927 461 m20 6 lw 3 lw 941 472 m20 6 lw 3 lw 955 468 m20 6 lw 3 lw 968 476 m20 6 lw 3 lw 982 480 m20 6 lw 3 lw 996 495 m20 6 lw 3 lw 1009 477 m20 6 lw 3 lw 1023 484 m20 6 lw 3 lw 1036
 485 m20 6 lw 3 lw 1050 463 m20 6 lw 3 lw 1064 474 m20 6 lw 3 lw 1077 445 m20 6 lw 3 lw 1091 452 m20 6 lw 3 lw 1104 445 m20 6 lw 3 lw 1118 431 m20 6 lw 3 lw 1132 437 m20 6 lw 3 lw 1145 435 m20 6 lw 3 lw 1159 408 m20 6 lw 3 lw 1172 387 m20 6 lw 3 lw
 1186 405 m20 6 lw 3 lw 1200 392 m20 6 lw 3 lw 1213 381 m20 6 lw 3 lw 1227 378 m20 6 lw 3 lw 1240 372 m20 6 lw 3 lw 1254 352 m20 6 lw 3 lw 1268 359 m20 6 lw 3 lw 1281 344 m20 6 lw 3 lw 1295 327 m20 6 lw 3 lw 1308 322 m20 6 lw 3 lw 1322 328 m20 6 lw 3
 lw 1336 318 m20 6 lw 3 lw 1349 309 m20 6 lw 3 lw 1363 314 m20 6 lw 3 lw 1377 309 m20 6 lw 3 lw 1390 310 m20 6 lw 3 lw 1404 293 m20 6 lw 3 lw 1417 292 m20 6 lw 3 lw 1431 281 m20 6 lw 3 lw 1445 283 m20 6 lw 3 lw 1458 283 m20 6 lw 3 lw 1472 268 m20 6
 lw 3 lw 1485 272 m20 6 lw 3 lw 1499 273 m20 6 lw 3 lw 1513 270 m20 6 lw 3 lw 1526 266 m20 6 lw 3 lw 1540 260 m20 6 lw 3 lw 1553 259 m20 6 lw 3 lw 1567 259 m20 6 lw 3 lw 1581 259 m20 6 lw 3 lw 1594 253 m20 6 lw 3 lw 1608 254 m20 6 lw 3 lw 1621 251
 m20 6 lw 3 lw 1635 243 m20 6 lw 3 lw 1649 246 m20 6 lw 3 lw 1662 247 m20 6 lw 3 lw 1676 246 m20 6 lw 3 lw 1689 244 m20 6 lw 3 lw 1703 245 m20 6 lw 3 lw 1717 245 m20 6 lw 3 lw 1730 242 m20 6 lw 3 lw 1744 241 m20 6 lw 3 lw 1757 240 m20 6 lw 3 lw 1771
 237 m20 6 lw 3 lw 1785 236 m20 6 lw 3 lw 1798 240 m20 6 lw 3 lw 1812 240 m20 6 lw 3 lw 1826 235 m20 6 lw 3 lw 1839 234 m20 6 lw 3 lw 1853 240 m20 6 lw 3 lw 1866 234 m20 6 lw 3 lw 1880 235 m20 6 lw 3 lw 1894 234 m20 6 lw 3 lw 1907 236 m20 6 lw 3 lw
 1921 234 m20 6 lw 3 lw 1934 234 m20 6 lw 3 lw 1948 234 m20 6 lw 3 lw 1962 234 m20 6 lw 3 lw 1975 235 m20 6 lw 3 lw 1989 233 m20 6 lw 3 lw 2002 233 m20 6 lw 3 lw 2016 233 m20 6 lw 3 lw 2030 232 m20 6 lw 3 lw 2043 232 m20 6 lw 3 lw 2057 233 m20 6 lw 3
 lw 2070 232 m20 6 lw 3 lw 2084 233 m20 6 lw 3 lw 2098 233 m20 6 lw 3 lw 2111 233 m20 6 lw 3 lw 2125 231 m20 6 lw 3 lw 2138 231 m20 6 lw 3 lw 2152 234 m20 6 lw 3 lw 2166 231 m20 6 lw 3 lw 2179 231 m20 6 lw 3 lw 2193 232 m20 6 lw 0 0.6 0 c 1 1 1 c 0
 0.6 0 c 3 lw 560 231 m20 6 lw 3 lw 574 237 m20 6 lw 3 lw 587 238 m20 6 lw 3 lw 601 241 m20 6 lw 3 lw 615 246 m20 6 lw 3 lw 628 252 m20 6 lw 3 lw 642 258 m20 6 lw 3 lw 655 261 m20 6 lw 3 lw 669 264 m20 6 lw 3 lw 683 273 m20 6 lw 3 lw 696 277 m20 6 lw
 3 lw 710 285 m20 6 lw 3 lw 723 293 m20 6 lw 3 lw 737 305 m20 6 lw 3 lw 751 311 m20 6 lw 3 lw 764 320 m20 6 lw 3 lw 778 326 m20 6 lw 3 lw 791 341 m20 6 lw 3 lw 805 344 m20 6 lw 3 lw 819 361 m20 6 lw 3 lw 832 373 m20 6 lw 3 lw 846 383 m20 6 lw 3 lw
 859 398 m20 6 lw 3 lw 873 405 m20 6 lw 3 lw 887 417 m20 6 lw 3 lw 900 421 m20 6 lw 3 lw 914 446 m20 6 lw 3 lw 927 443 m20 6 lw 3 lw 941 461 m20 6 lw 3 lw 955 466 m20 6 lw 3 lw 968 467 m20 6 lw 3 lw 982 482 m20 6 lw 3 lw 996 481 m20 6 lw 3 lw 1009
 496 m20 6 lw 3 lw 1023 501 m20 6 lw 3 lw 1036 483 m20 6 lw 3 lw 1050 484 m20 6 lw 3 lw 1064 486 m20 6 lw 3 lw 1077 493 m20 6 lw 3 lw 1091 483 m20 6 lw 3 lw 1104 470 m20 6 lw 3 lw 1118 473 m20 6 lw 3 lw 1132 468 m20 6 lw 3 lw 1145 466 m20 6 lw 3 lw
 1159 455 m20 6 lw 3 lw 1172 438 m20 6 lw 3 lw 1186 425 m20 6 lw 3 lw 1200 411 m20 6 lw 3 lw 1213 411 m20 6 lw 3 lw 1227 408 m20 6 lw 3 lw 1240 396 m20 6 lw 3 lw 1254 376 m20 6 lw 3 lw 1268 376 m20 6 lw 3 lw 1281 362 m20 6 lw 3 lw 1295 350 m20 6 lw 3
 lw 1308 357 m20 6 lw 3 lw 1322 334 m20 6 lw 3 lw 1336 328 m20 6 lw 3 lw 1349 324 m20 6 lw 3 lw 1363 320 m20 6 lw 3 lw 1377 317 m20 6 lw 3 lw 1390 307 m20 6 lw 3 lw 1404 299 m20 6 lw 3 lw 1417 297 m20 6 lw 3 lw 1431 289 m20 6 lw 3 lw 1445 280 m20 6
 lw 3 lw 1458 287 m20 6 lw 3 lw 1472 283 m20 6 lw 3 lw 1485 275 m20 6 lw 3 lw 1499 271 m20 6 lw 3 lw 1513 263 m20 6 lw 3 lw 1526 270 m20 6 lw 3 lw 1540 264 m20 6 lw 3 lw 1553 260 m20 6 lw 3 lw 1567 257 m20 6 lw 3 lw 1581 257 m20 6 lw 3 lw 1594 256
 m20 6 lw 3 lw 1608 253 m20 6 lw 3 lw 1621 249 m20 6 lw 3 lw 1635 250 m20 6 lw 3 lw 1649 246 m20 6 lw 3 lw 1662 248 m20 6 lw 3 lw 1676 244 m20 6 lw 3 lw 1689 246 m20 6 lw 3 lw 1703 245 m20 6 lw 3 lw 1717 239 m20 6 lw 3 lw 1730 240 m20 6 lw 3 lw 1744
 239 m20 6 lw 3 lw 1757 241 m20 6 lw 3 lw 1771 236 m20 6 lw 3 lw 1785 236 m20 6 lw 3 lw 1798 237 m20 6 lw 3 lw 1812 237 m20 6 lw 3 lw 1826 234 m20 6 lw 3 lw 1839 237 m20 6 lw 3 lw 1853 236 m20 6 lw 3 lw 1866 235 m20 6 lw 3 lw 1880 235 m20 6 lw 3 lw
 1894 236 m20 6 lw 3 lw 1907 233 m20 6 lw 3 lw 1921 235 m20 6 lw 3 lw 1934 233 m20 6 lw 3 lw 1948 234 m20 6 lw 3 lw 1962 232 m20 6 lw 3 lw 1975 233 m20 6 lw 3 lw 1989 233 m20 6 lw 3 lw 2002 233 m20 6 lw 3 lw 2016 232 m20 6 lw 3 lw 2030 232 m20 6 lw 3
 lw 2043 232 m20 6 lw 3 lw 2057 232 m20 6 lw 3 lw 2070 231 m20 6 lw 3 lw 2084 231 m20 6 lw 3 lw 2098 231 m20 6 lw 3 lw 2111 231 m20 6 lw 3 lw 2125 231 m20 6 lw 3 lw 2138 231 m20 6 lw 3 lw 2152 231 m20 6 lw 3 lw 2166 232 m20 6 lw 3 lw 2179 232 m20 6
 lw 3 lw 2193 231 m20 6 lw black
 gsave  2268 1538 0 0 C 1648.66 1394.52 t 0 r /Helvetica-Bold findfont 48.8732 sf 0 0 m ( < 40 GeV) show NC gr 
 gsave  2268 1538 0 0 C 1573.72 1420.58 t 0 r /Helvetica-Bold findfont 32.5821 sf 0 0 m (truth) show NC gr 
 gsave  2268 1538 0 0 C 1573.72 1368.45 t 0 r /Helvetica-Bold findfont 32.5821 sf 0 0 m (T) show NC gr 
 gsave  2268 1538 0 0 C 1433.61 1394.52 t 0 r /Helvetica-Bold findfont 48.8732 sf 0 0 m (30 < p) show NC gr  0 0 1 c 1275 1413 m 131 X s 3 lw 1341 1413 m20 6 lw black
 gsave  2268 1538 0 0 C 1648.66 1296.77 t 0 r /Helvetica-Bold findfont 48.8732 sf 0 0 m ( < 100 GeV) show NC gr 
 gsave  2268 1538 0 0 C 1573.72 1322.83 t 0 r /Helvetica-Bold findfont 32.5821 sf 0 0 m (truth) show NC gr 
 gsave  2268 1538 0 0 C 1573.72 1270.7 t 0 r /Helvetica-Bold findfont 32.5821 sf 0 0 m (T) show NC gr 
 gsave  2268 1538 0 0 C 1433.61 1296.77 t 0 r /Helvetica-Bold findfont 48.8732 sf 0 0 m (80 < p) show NC gr  1 0 0 c 1275 1317 m 131 X s 3 lw 1341 1317 m20 6 lw black
 gsave  2268 1538 0 0 C 1674.72 1202.28 t 0 r /Helvetica-Bold findfont 48.8732 sf 0 0 m ( < 400 GeV) show NC gr 
 gsave  2268 1538 0 0 C 1599.78 1228.35 t 0 r /Helvetica-Bold findfont 32.5821 sf 0 0 m (truth) show NC gr 
 gsave  2268 1538 0 0 C 1599.78 1176.21 t 0 r /Helvetica-Bold findfont 32.5821 sf 0 0 m (T) show NC gr 
 gsave  2268 1538 0 0 C 1433.61 1202.28 t 0 r /Helvetica-Bold findfont 48.8732 sf 0 0 m (350 < p) show NC gr  1275 1221 m 131 X s 3 lw 1341 1221 m20 6 lw
 gsave  2268 1538 0 0 C 1704.05 1104.53 t 0 r /Helvetica-Bold findfont 48.8732 sf 0 0 m ( < 1200 GeV) show NC gr 
 gsave  2268 1538 0 0 C 1629.11 1130.6 t 0 r /Helvetica-Bold findfont 32.5821 sf 0 0 m (truth) show NC gr 
 gsave  2268 1538 0 0 C 1629.11 1078.47 t 0 r /Helvetica-Bold findfont 32.5821 sf 0 0 m (T) show NC gr 
 gsave  2268 1538 0 0 C 1433.61 1104.53 t 0 r /Helvetica-Bold findfont 48.8732 sf 0 0 m (1000 < p) show NC gr  0 0.6 0 c 1275 1125 m 131 X s 3 lw 1341 1125 m20 6 lw black
 gsave  2268 1538 0 0 C 384.469 1417.32 t 0 r /Helvetica-BoldOblique findfont 61.9061 sf 0 0 m (ATLAS) show NC gr 
 gsave  2268 1538 0 0 C 632.093 1417.32 t 0 r /Helvetica findfont 58.6478 sf 0 0 m (Simulation Internal) show NC gr 
 gsave  2268 1538 0 0 C 746.131 1339.13 t 0 r /Helvetica findfont 58.6478 sf 0 0 m ( = 13 TeV) show NC gr 
 gsave  2268 1538 0 0 C 716.807 1339.13 t 0 r /Helvetica findfont 58.6478 sf 0 0 m (s) show NC gr  697 1372 m 7 -36 d s 3 lw 704 1336 m 6 52 d s 710 1388 m 36 X s
 gsave  2268 1538 0 0 C 384.469 1339.13 t 0 r /Helvetica findfont 58.6478 sf 0 0 m (Pythia Dijet ) show NC gr 
 gsave  2268 1538 0 0 C 384.469 1264.19 t 0 r /Helvetica findfont 58.6478 sf 0 0 m (EM+JES) show NC gr 
 gsave  2268 1538 0 0 C 938.365 1185.99 t 0 r /Helvetica findfont 58.6478 sf 0 0 m (| < 0.6) show NC gr 
 gsave  2268 1538 0 0 C 905.783 1185.99 t 0 r /Symbol findfont 58.6478 sf 0 0 m (h) show NC gr 
 gsave  2268 1538 0 0 C 720.065 1185.99 t 0 r /Helvetica findfont 58.6478 sf 0 0 m (, 0.5 < |) show NC gr 
 gsave  2268 1538 0 0 C 707.032 1169.7 t 0 r /Helvetica findfont 39.0986 sf 0 0 m (t) show NC gr 
 gsave  2268 1538 0 0 C 671.192 1185.99 t 0 r /Helvetica-Oblique findfont 58.6478 sf 0 0 m (k) show NC gr 
 gsave  2268 1538 0 0 C 430.084 1185.99 t 0 r /Helvetica findfont 58.6478 sf 0 0 m (=0.4 anti\255) show NC gr 
 gsave  2268 1538 0 0 C 384.469 1185.99 t 0 r /Helvetica-Oblique findfont 58.6478 sf 0 0 m (R) show NC gr 
 gr  gr showpage
end
%%EOF
