%!PS-Adobe-2.0 EPSF-2.0
%%BoundingBox:  0 0 567 384
%%Title: Tile0_Tile0/Distribution_Tile0_eta_8.eps: c1
%%Creator: ROOT Version 6.22/08
%%CreationDate: Tue Aug  3 22:33:29 2021
%%DocumentNeededResources: ProcSet (FontSetInit)
%%EndComments
%%BeginProlog
80 dict begin
/s {stroke} def /l {lineto} def /m {moveto} def /t {translate} def
/r {rotate} def /rl {roll}  def /R {repeat} def
/d {rlineto} def /rm {rmoveto} def /gr {grestore} def /f {eofill} def
/c {setrgbcolor} def /black {0 setgray} def /sd {setdash} def
/cl {closepath} def /sf {scalefont setfont} def /lw {setlinewidth} def
/box {m dup 0 exch d exch 0 d 0 exch neg d cl} def
/NC{systemdict begin initclip end}def/C{NC box clip newpath}def
/bl {box s} def /bf {gsave box gsave f grestore 1 lw [] 0 sd s grestore} def /Y { 0 exch d} def /X { 0 d} def 
/K {{pop pop 0 moveto} exch kshow} bind def
/ita {/ang 15 def gsave [1 0 ang dup sin exch cos div 1 0 0] concat} def 
/mp {newpath /y exch def /x exch def} def
/side {[w .77 mul w .23 mul] .385 w mul sd w 0 l currentpoint t -144 r} def
/mr {mp x y w2 0 360 arc} def /m24 {mr s} def /m20 {mr f} def
/mb {mp x y w2 add m w2 neg 0 d 0 w neg d w 0 d 0 w d cl} def
/mt {mp x y w2 add m w2 neg w neg d w 0 d cl} def
/w4 {w 4 div} def
/w6 {w 6 div} def
/w8 {w 8 div} def
/m21 {mb f} def /m25 {mb s} def /m22 {mt f} def /m26{mt s} def
/m23 {mp x y w2 sub m w2 w d w neg 0 d cl f} def
/m27 {mp x y w2 add m w3 neg w2 neg d w3 w2 neg d w3 w2 d cl s} def
/m28 {mp x w2 sub y w2 sub w3 add m w3 0 d  0 w3 neg d w3 0 d 0 w3 d w3 0 d  0 w3 d w3 neg 0 d 0 w3 d w3 neg 0 d 0 w3 neg d w3 neg 0 d cl s } def
/m29 {mp gsave x w2 sub y w2 add w3 sub m currentpoint t 4 {side} repeat cl fill gr} def
/m30 {mp gsave x w2 sub y w2 add w3 sub m currentpoint t 4 {side} repeat cl s gr} def
/m31 {mp x y w2 sub m 0 w d x w2 sub y m w 0 d x w2 .707 mul sub y w2 .707 mul add m w 1.44 div w 1.44 div neg d x w2 .707 mul sub y w2 .707 mul sub m w 1.44 div w 1.44 div d s} def
/m32 {mp x y w2 sub m w2 w d w neg 0 d cl s} def
/m33 {mp x y w2 add m w3 neg w2 neg d w3 w2 neg d w3 w2 d cl f} def
/m34 {mp x w2 sub y w2 sub w3 add m w3 0 d  0 w3 neg d w3 0 d 0 w3 d w3 0 d  0 w3 d w3 neg 0 d 0 w3 d w3 neg 0 d 0 w3 neg d w3 neg 0 d cl f } def
/m35 {mp x y w2 add m w2 neg w2 neg d w2 w2 neg d w2 w2 d w2 neg w2 d x y w2 sub m 0 w d x w2 sub y m w 0 d s} def
/m36 {mb x w2 sub y w2 add m w w neg d x w2 sub y w2 sub m w w d s} def
/m37 {mp x y m w4 neg w2 d w4 neg w2 neg d w2 0 d  w4 neg w2 neg d w2 0 d w4 neg w2 d w2 0 d w4 neg w2 d w4 neg w2 neg d cl s} def
/m38 {mp x w4 sub y w2 add m w4 neg w4 neg d 0 w2 neg d w4 w4 neg d w2 0 d w4 w4 d 0 w2 d w4 neg w4 d w2 neg 0 d x y w2 sub m 0 w d x w2 sub y m w 0 d cl s} def
/m39 {mp x y m w4 neg w2 d w4 neg w2 neg d w2 0 d  w4 neg w2 neg d w2 0 d w4 neg w2 d w2 0 d w4 neg w2 d w4 neg w2 neg d cl f} def
/m40 {mp x y m w4 w2 d w4 w4 neg d w2 neg w4 neg d w2 w4 neg d w4 neg w4 neg d w4 neg w2 d w4 neg w2 neg d w4 neg w4 d w2 w4 d w2 neg w4 d w4 w4 d w4 w2 neg d cl s} def
/m41 {mp x y m w4 w2 d w4 w4 neg d w2 neg w4 neg d w2 w4 neg d w4 neg w4 neg d w4 neg w2 d w4 neg w2 neg d w4 neg w4 d w2 w4 d w2 neg w4 d w4 w4 d w4 w2 neg d cl f} def
/m42 {mp x y w2 add m w8 neg w2 -3 4 div mul d w2 -3 4 div mul w8 neg d w2 3 4 div mul w8 neg d w8 w2 -3 4 div mul d w8 w2 3 4 div mul d w2 3 4 div mul w8 d w2 -3 4 div mul w8 d w8 neg w2 3 4 div mul d cl s} def
/m43 {mp x y w2 add m w8 neg w2 -3 4 div mul d w2 -3 4 div mul w8 neg d w2 3 4 div mul w8 neg d w8 w2 -3 4 div mul d w8 w2 3 4 div mul d w2 3 4 div mul w8 d w2 -3 4 div mul w8 d w8 neg w2 3 4 div mul d cl f} def
/m44 {mp x y m w6 neg w2 d w2 2 3 div mul 0 d w6 neg w2 neg d w2 w6 d 0 w2 -2 3 div mul d w2 neg w6 d w6 w2 neg d w2 -2 3 div mul 0 d w6 w2 d w2 neg w6 neg d 0 w2 2 3 div mul d w2 w6 neg d cl s} def
/m45 {mp x y m w6 neg w2 d w2 2 3 div mul 0 d w6 neg w2 neg d w2 w6 d 0 w2 -2 3 div mul d w2 neg w6 d w6 w2 neg d w2 -2 3 div mul 0 d w6 w2 d w2 neg w6 neg d 0 w2 2 3 div mul d w2 w6 neg d cl f} def
/m46 {mp x y w4 add m w4 neg w4 d w4 neg w4 neg d  w4 w4 neg d w4 neg w4 neg d w4 w4 neg d w4 w4 d w4 w4 neg d w4 w4 d w4 neg w4 d w4 w4 d w4 neg w4 d w4 neg w4 neg d cl s} def
/m47 {mp x y w4 add m w4 neg w4 d w4 neg w4 neg d w4 w4 neg d w4 neg w4 neg d  w4 w4 neg d w4 w4 d w4 w4 neg d w4 w4 d w4 neg w4 d w4 w4 d w4 neg w4 d w4 neg w4 neg d cl f} def
/m48 {mp x y w4 add m w4 neg w4 d w4 neg w4 neg d w4 w4 neg d  w4 neg w4 neg d w4 w4 neg d w4 w4 d w4 w4 neg d w4 w4 d w4 neg w4 d w4 w4 d w4 neg w4 d w4 neg w4 neg d  w4 w4 neg d w4 neg w4 neg d w4 neg w4 d w4 w4 d cl f} def
/m49 {mp x w2 sub w3 add y w2 sub w3 add m  0 w3 neg d w3 0 d 0 w3 d w3 0 d 0 w3 d w3 neg 0 d 0 w3 d w3 neg 0 d 0 w3 neg d w3 neg 0 d 0 w3 neg d w3 0 d 0 w3 d w3 0 d 0 w3 neg d w3 neg 0 d cl f } def
/m2 {mp x y w2 sub m 0 w d x w2 sub y m w 0 d s} def
/m5 {mp x w2 .707 mul sub y w2 .707 mul sub m w 1.44 div w 1.44 div d x w2 .707 mul sub y w2 .707 mul add m w 1.44 div w 1.44 div neg d s} def
%%IncludeResource: ProcSet (FontSetInit)
%%IncludeResource: font Times-Roman
%%IncludeResource: font Times-Italic
%%IncludeResource: font Times-Bold
%%IncludeResource: font Times-BoldItalic
%%IncludeResource: font Helvetica
%%IncludeResource: font Helvetica-Oblique
%%IncludeResource: font Helvetica-Bold
%%IncludeResource: font Helvetica-BoldOblique
%%IncludeResource: font Courier
%%IncludeResource: font Courier-Oblique
%%IncludeResource: font Courier-Bold
%%IncludeResource: font Courier-BoldOblique
%%IncludeResource: font Symbol
%%IncludeResource: font ZapfDingbats
/reEncode {exch findfont dup length dict begin {1 index /FID eq  {pop pop} {def} ifelse } forall /Encoding exch def currentdict end dup /FontName get exch definefont pop } def [/Times-Bold /Times-Italic /Times-BoldItalic /Helvetica /Helvetica-Oblique
 /Helvetica-Bold /Helvetica-BoldOblique /Courier /Courier-Oblique /Courier-Bold /Courier-BoldOblique /Times-Roman /AvantGarde-Book /AvantGarde-BookOblique /AvantGarde-Demi /AvantGarde-DemiOblique /Bookman-Demi /Bookman-DemiItalic /Bookman-Light
 /Bookman-LightItalic /Helvetica-Narrow /Helvetica-Narrow-Bold /Helvetica-Narrow-BoldOblique /Helvetica-Narrow-Oblique /NewCenturySchlbk-Roman /NewCenturySchlbk-Bold /NewCenturySchlbk-BoldItalic /NewCenturySchlbk-Italic /Palatino-Bold
 /Palatino-BoldItalic /Palatino-Italic /Palatino-Roman ] {ISOLatin1Encoding reEncode } forall
%%EndProlog
%%BeginSetup
%%EndSetup
newpath  gsave  .25 .25 scale  gsave  0 0 t 1 0 0 c[  ] 0 sd 3 lw 1 1 1 c 2268 1538 0 0 bf black 1 1 1 c 1905 1276 295 231 bf black 1905 1276 295 231 bl 1 1 1 c 1905 1276 295 231 bf black 1905 1276 295 231 bl 0 0 1 c 6 lw 1 1 1 c 0 0 1 c 3 lw /w 31
 def /w2 {w 2 div} def /w3 {w 3 div} def 302 231 m20 6 lw 3 lw 315 232 m20 6 lw 3 lw 329 233 m20 6 lw 3 lw 342 233 m20 6 lw 3 lw 356 231 m20 6 lw 3 lw 370 231 m20 6 lw 3 lw 383 236 m20 6 lw 3 lw 397 237 m20 6 lw 3 lw 410 236 m20 6 lw 3 lw 424 236 m20
 6 lw 3 lw 438 237 m20 6 lw 3 lw 451 242 m20 6 lw 3 lw 465 244 m20 6 lw 3 lw 478 248 m20 6 lw 3 lw 492 249 m20 6 lw 3 lw 506 258 m20 6 lw 3 lw 519 268 m20 6 lw 3 lw 533 284 m20 6 lw 3 lw 547 355 m20 6 lw 560 519 m 2 Y s 560 547 m 3 Y s 3 lw 560 534
 m20 6 lw 574 638 m 5 Y s 574 669 m 6 Y s 3 lw 574 656 m20 6 lw 3 lw 587 441 m20 6 lw 3 lw 601 408 m20 6 lw 3 lw 615 396 m20 6 lw 3 lw 628 401 m20 6 lw 3 lw 642 383 m20 6 lw 3 lw 655 392 m20 6 lw 3 lw 669 407 m20 6 lw 3 lw 683 381 m20 6 lw 3 lw 696
 416 m20 6 lw 3 lw 710 391 m20 6 lw 3 lw 723 401 m20 6 lw 3 lw 737 388 m20 6 lw 3 lw 751 385 m20 6 lw 3 lw 764 382 m20 6 lw 3 lw 778 390 m20 6 lw 3 lw 791 391 m20 6 lw 3 lw 805 370 m20 6 lw 3 lw 819 375 m20 6 lw 3 lw 832 366 m20 6 lw 3 lw 846 363 m20
 6 lw 3 lw 859 370 m20 6 lw 3 lw 873 348 m20 6 lw 3 lw 887 340 m20 6 lw 3 lw 900 350 m20 6 lw 3 lw 914 322 m20 6 lw 3 lw 927 358 m20 6 lw 3 lw 941 342 m20 6 lw 3 lw 955 324 m20 6 lw 3 lw 968 336 m20 6 lw 3 lw 982 319 m20 6 lw 3 lw 996 315 m20 6 lw 3
 lw 1009 330 m20 6 lw 3 lw 1023 315 m20 6 lw 3 lw 1036 330 m20 6 lw 3 lw 1050 318 m20 6 lw 3 lw 1064 299 m20 6 lw 3 lw 1077 303 m20 6 lw 3 lw 1091 285 m20 6 lw 3 lw 1104 290 m20 6 lw 3 lw 1118 303 m20 6 lw 3 lw 1132 299 m20 6 lw 3 lw 1145 284 m20 6
 lw 3 lw 1159 285 m20 6 lw 3 lw 1172 284 m20 6 lw 3 lw 1186 281 m20 6 lw 3 lw 1200 272 m20 6 lw 3 lw 1213 283 m20 6 lw 3 lw 1227 269 m20 6 lw 3 lw 1240 275 m20 6 lw 3 lw 1254 275 m20 6 lw 3 lw 1268 268 m20 6 lw 3 lw 1281 267 m20 6 lw 3 lw 1295 271
 m20 6 lw 3 lw 1308 263 m20 6 lw 3 lw 1322 268 m20 6 lw 3 lw 1336 265 m20 6 lw 3 lw 1349 271 m20 6 lw 3 lw 1363 254 m20 6 lw 3 lw 1377 257 m20 6 lw 3 lw 1390 254 m20 6 lw 3 lw 1404 261 m20 6 lw 3 lw 1417 257 m20 6 lw 3 lw 1431 258 m20 6 lw 3 lw 1445
 252 m20 6 lw 3 lw 1458 256 m20 6 lw 3 lw 1472 253 m20 6 lw 3 lw 1485 246 m20 6 lw 3 lw 1499 248 m20 6 lw 3 lw 1513 253 m20 6 lw 3 lw 1526 246 m20 6 lw 3 lw 1540 242 m20 6 lw 3 lw 1553 245 m20 6 lw 3 lw 1567 240 m20 6 lw 3 lw 1581 243 m20 6 lw 3 lw
 1594 236 m20 6 lw 3 lw 1608 246 m20 6 lw 3 lw 1621 238 m20 6 lw 3 lw 1635 240 m20 6 lw 3 lw 1649 244 m20 6 lw 3 lw 1662 240 m20 6 lw 3 lw 1676 244 m20 6 lw 3 lw 1689 241 m20 6 lw 3 lw 1703 242 m20 6 lw 3 lw 1717 240 m20 6 lw 3 lw 1730 240 m20 6 lw 3
 lw 1744 236 m20 6 lw 3 lw 1757 241 m20 6 lw 3 lw 1771 236 m20 6 lw 3 lw 1785 238 m20 6 lw 3 lw 1798 236 m20 6 lw 3 lw 1812 236 m20 6 lw 3 lw 1826 240 m20 6 lw 3 lw 1839 236 m20 6 lw 3 lw 1853 239 m20 6 lw 3 lw 1866 236 m20 6 lw 3 lw 1880 233 m20 6
 lw 3 lw 1894 239 m20 6 lw 3 lw 1907 238 m20 6 lw 3 lw 1921 234 m20 6 lw 3 lw 1934 234 m20 6 lw 3 lw 1948 233 m20 6 lw 3 lw 1962 234 m20 6 lw 3 lw 1975 235 m20 6 lw 3 lw 1989 234 m20 6 lw 3 lw 2002 231 m20 6 lw 3 lw 2016 233 m20 6 lw 3 lw 2030 231
 m20 6 lw 3 lw 2043 231 m20 6 lw 3 lw 2057 234 m20 6 lw 3 lw 2070 233 m20 6 lw 3 lw 2084 236 m20 6 lw 3 lw 2098 235 m20 6 lw 3 lw 2111 232 m20 6 lw 3 lw 2125 233 m20 6 lw 3 lw 2138 233 m20 6 lw 3 lw 2152 231 m20 6 lw 3 lw 2166 231 m20 6 lw 3 lw 2179
 231 m20 6 lw 3 lw 2193 231 m20 6 lw black 3 lw 295 231 m 1905 X s 295 269 m -38 Y s 349 250 m -19 Y s 404 250 m -19 Y s 458 250 m -19 Y s 513 250 m -19 Y s 567 269 m -38 Y s 621 250 m -19 Y s 676 250 m -19 Y s 730 250 m -19 Y s 785 250 m -19 Y s 839
 269 m -38 Y s 893 250 m -19 Y s 948 250 m -19 Y s 1002 250 m -19 Y s 1057 250 m -19 Y s 1111 269 m -38 Y s 1166 250 m -19 Y s 1220 250 m -19 Y s 1274 250 m -19 Y s 1329 250 m -19 Y s 1383 269 m -38 Y s 1438 250 m -19 Y s 1492 250 m -19 Y s 1547 250
 m -19 Y s 1601 250 m -19 Y s 1655 269 m -38 Y s 1710 250 m -19 Y s 1764 250 m -19 Y s 1819 250 m -19 Y s 1873 250 m -19 Y s 1928 269 m -38 Y s 1982 250 m -19 Y s 2036 250 m -19 Y s 2091 250 m -19 Y s 2145 250 m -19 Y s 2200 269 m -38 Y s
 gsave  2268 1538 0 0 C 267.173 162.911 t 0 r /Helvetica findfont 71.6807 sf 0 0 m (0.1) show NC gr 
 gsave  2268 1538 0 0 C 231.333 162.911 t 0 r /Symbol findfont 71.6807 sf 0 0 m (-) show NC gr 
 gsave  2268 1538 0 0 C 547.38 162.911 t 0 r /Helvetica findfont 71.6807 sf 0 0 m (0) show NC gr 
 gsave  2268 1538 0 0 C 795.004 162.911 t 0 r /Helvetica findfont 71.6807 sf 0 0 m (0.1) show NC gr 
 gsave  2268 1538 0 0 C 1062.18 162.911 t 0 r /Helvetica findfont 71.6807 sf 0 0 m (0.2) show NC gr 
 gsave  2268 1538 0 0 C 1332.61 162.911 t 0 r /Helvetica findfont 71.6807 sf 0 0 m (0.3) show NC gr 
 gsave  2268 1538 0 0 C 1606.3 162.911 t 0 r /Helvetica findfont 71.6807 sf 0 0 m (0.4) show NC gr 
 gsave  2268 1538 0 0 C 1876.73 162.911 t 0 r /Helvetica findfont 71.6807 sf 0 0 m (0.5) show NC gr 
 gsave  2268 1538 0 0 C 2150.42 162.911 t 0 r /Helvetica findfont 71.6807 sf 0 0 m (0.6) show NC gr 
 gsave  2268 1538 0 0 C 2095.03 19.5493 t 0 r /Helvetica findfont 48.8732 sf 0 0 m (Tile0) show NC gr 
 gsave  2268 1538 0 0 C 2075.48 42.3568 t 0 r /Helvetica findfont 71.6807 sf 0 0 m (f) show NC gr  295 1507 m 1905 X s 295 1468 m 39 Y s 349 1488 m 19 Y s 404 1488 m 19 Y s 458 1488 m 19 Y s 513 1488 m 19 Y s 567 1468 m 39 Y s 621 1488 m 19 Y s 676
 1488 m 19 Y s 730 1488 m 19 Y s 785 1488 m 19 Y s 839 1468 m 39 Y s 893 1488 m 19 Y s 948 1488 m 19 Y s 1002 1488 m 19 Y s 1057 1488 m 19 Y s 1111 1468 m 39 Y s 1166 1488 m 19 Y s 1220 1488 m 19 Y s 1274 1488 m 19 Y s 1329 1488 m 19 Y s 1383 1468 m
 39 Y s 1438 1488 m 19 Y s 1492 1488 m 19 Y s 1547 1488 m 19 Y s 1601 1488 m 19 Y s 1655 1468 m 39 Y s 1710 1488 m 19 Y s 1764 1488 m 19 Y s 1819 1488 m 19 Y s 1873 1488 m 19 Y s 1928 1468 m 39 Y s 1982 1488 m 19 Y s 2036 1488 m 19 Y s 2091 1488 m 19
 Y s 2145 1488 m 19 Y s 2200 1468 m 39 Y s 295 231 m 1276 Y s 351 231 m -56 X s 323 268 m -28 X s 323 306 m -28 X s 323 343 m -28 X s 351 381 m -56 X s 323 419 m -28 X s 323 456 m -28 X s 323 494 m -28 X s 351 531 m -56 X s 323 569 m -28 X s 323 606
 m -28 X s 323 644 m -28 X s 351 682 m -56 X s 323 719 m -28 X s 323 757 m -28 X s 323 794 m -28 X s 351 832 m -56 X s 323 869 m -28 X s 323 907 m -28 X s 323 945 m -28 X s 351 982 m -56 X s 323 1020 m -28 X s 323 1057 m -28 X s 323 1095 m -28 X s
 351 1132 m -56 X s 323 1170 m -28 X s 323 1208 m -28 X s 323 1245 m -28 X s 351 1283 m -56 X s 323 1320 m -28 X s 323 1358 m -28 X s 323 1395 m -28 X s 351 1433 m -56 X s 351 1433 m -56 X s 323 1471 m -28 X s
 gsave  2268 1538 0 0 C 244.366 205.267 t 0 r /Helvetica findfont 71.6807 sf 0 0 m (0) show NC gr 
 gsave  2268 1538 0 0 C 146.62 355.145 t 0 r /Helvetica findfont 71.6807 sf 0 0 m (0.02) show NC gr 
 gsave  2268 1538 0 0 C 146.62 508.281 t 0 r /Helvetica findfont 71.6807 sf 0 0 m (0.04) show NC gr 
 gsave  2268 1538 0 0 C 146.62 658.159 t 0 r /Helvetica findfont 71.6807 sf 0 0 m (0.06) show NC gr 
 gsave  2268 1538 0 0 C 146.62 808.037 t 0 r /Helvetica findfont 71.6807 sf 0 0 m (0.08) show NC gr 
 gsave  2268 1538 0 0 C 198.751 957.915 t 0 r /Helvetica findfont 71.6807 sf 0 0 m (0.1) show NC gr 
 gsave  2268 1538 0 0 C 146.62 1107.79 t 0 r /Helvetica findfont 71.6807 sf 0 0 m (0.12) show NC gr 
 gsave  2268 1538 0 0 C 146.62 1257.67 t 0 r /Helvetica findfont 71.6807 sf 0 0 m (0.14) show NC gr 
 gsave  2268 1538 0 0 C 146.62 1407.55 t 0 r /Helvetica findfont 71.6807 sf 0 0 m (0.16) show NC gr 
 gsave  2268 1538 0 0 C 156.394 925.333 t 90 r /Helvetica findfont 71.6807 sf 0 0 m (Normalized entries) show NC gr  2200 231 m 1276 Y s 2143 231 m 57 X s 2171 268 m 29 X s 2171 306 m 29 X s 2171 343 m 29 X s 2143 381 m 57 X s 2171 419 m 29 X s 2171
 456 m 29 X s 2171 494 m 29 X s 2143 531 m 57 X s 2171 569 m 29 X s 2171 606 m 29 X s 2171 644 m 29 X s 2143 682 m 57 X s 2171 719 m 29 X s 2171 757 m 29 X s 2171 794 m 29 X s 2143 832 m 57 X s 2171 869 m 29 X s 2171 907 m 29 X s 2171 945 m 29 X s
 2143 982 m 57 X s 2171 1020 m 29 X s 2171 1057 m 29 X s 2171 1095 m 29 X s 2143 1132 m 57 X s 2171 1170 m 29 X s 2171 1208 m 29 X s 2171 1245 m 29 X s 2143 1283 m 57 X s 2171 1320 m 29 X s 2171 1358 m 29 X s 2171 1395 m 29 X s 2143 1433 m 57 X s
 2143 1433 m 57 X s 2171 1471 m 29 X s 1 0 0 c 6 lw 1 1 1 c 1 0 0 c 3 lw 397 231 m20 6 lw 3 lw 438 231 m20 6 lw 3 lw 451 231 m20 6 lw 3 lw 465 231 m20 6 lw 3 lw 478 231 m20 6 lw 3 lw 492 231 m20 6 lw 3 lw 506 232 m20 6 lw 3 lw 519 234 m20 6 lw 3 lw
 533 235 m20 6 lw 3 lw 547 240 m20 6 lw 3 lw 560 268 m20 6 lw 3 lw 574 301 m20 6 lw 3 lw 587 288 m20 6 lw 3 lw 601 307 m20 6 lw 3 lw 615 317 m20 6 lw 3 lw 628 331 m20 6 lw 3 lw 642 349 m20 6 lw 3 lw 655 352 m20 6 lw 3 lw 669 360 m20 6 lw 3 lw 683 372
 m20 6 lw 3 lw 696 380 m20 6 lw 3 lw 710 384 m20 6 lw 3 lw 723 392 m20 6 lw 3 lw 737 398 m20 6 lw 3 lw 751 407 m20 6 lw 3 lw 764 412 m20 6 lw 3 lw 778 418 m20 6 lw 3 lw 791 410 m20 6 lw 3 lw 805 411 m20 6 lw 3 lw 819 408 m20 6 lw 3 lw 832 404 m20 6
 lw 3 lw 846 401 m20 6 lw 3 lw 859 398 m20 6 lw 3 lw 873 394 m20 6 lw 3 lw 887 405 m20 6 lw 3 lw 900 395 m20 6 lw 3 lw 914 389 m20 6 lw 3 lw 927 388 m20 6 lw 3 lw 941 380 m20 6 lw 3 lw 955 375 m20 6 lw 3 lw 968 369 m20 6 lw 3 lw 982 369 m20 6 lw 3 lw
 996 363 m20 6 lw 3 lw 1009 359 m20 6 lw 3 lw 1023 358 m20 6 lw 3 lw 1036 350 m20 6 lw 3 lw 1050 346 m20 6 lw 3 lw 1064 343 m20 6 lw 3 lw 1077 337 m20 6 lw 3 lw 1091 335 m20 6 lw 3 lw 1104 326 m20 6 lw 3 lw 1118 323 m20 6 lw 3 lw 1132 318 m20 6 lw 3
 lw 1145 309 m20 6 lw 3 lw 1159 314 m20 6 lw 3 lw 1172 311 m20 6 lw 3 lw 1186 301 m20 6 lw 3 lw 1200 307 m20 6 lw 3 lw 1213 305 m20 6 lw 3 lw 1227 297 m20 6 lw 3 lw 1240 299 m20 6 lw 3 lw 1254 288 m20 6 lw 3 lw 1268 284 m20 6 lw 3 lw 1281 284 m20 6
 lw 3 lw 1295 282 m20 6 lw 3 lw 1308 276 m20 6 lw 3 lw 1322 281 m20 6 lw 3 lw 1336 275 m20 6 lw 3 lw 1349 274 m20 6 lw 3 lw 1363 270 m20 6 lw 3 lw 1377 269 m20 6 lw 3 lw 1390 264 m20 6 lw 3 lw 1404 266 m20 6 lw 3 lw 1417 263 m20 6 lw 3 lw 1431 260
 m20 6 lw 3 lw 1445 259 m20 6 lw 3 lw 1458 261 m20 6 lw 3 lw 1472 256 m20 6 lw 3 lw 1485 256 m20 6 lw 3 lw 1499 256 m20 6 lw 3 lw 1513 256 m20 6 lw 3 lw 1526 251 m20 6 lw 3 lw 1540 252 m20 6 lw 3 lw 1553 249 m20 6 lw 3 lw 1567 252 m20 6 lw 3 lw 1581
 249 m20 6 lw 3 lw 1594 246 m20 6 lw 3 lw 1608 246 m20 6 lw 3 lw 1621 245 m20 6 lw 3 lw 1635 243 m20 6 lw 3 lw 1649 243 m20 6 lw 3 lw 1662 243 m20 6 lw 3 lw 1676 241 m20 6 lw 3 lw 1689 242 m20 6 lw 3 lw 1703 242 m20 6 lw 3 lw 1717 240 m20 6 lw 3 lw
 1730 239 m20 6 lw 3 lw 1744 240 m20 6 lw 3 lw 1757 238 m20 6 lw 3 lw 1771 236 m20 6 lw 3 lw 1785 237 m20 6 lw 3 lw 1798 238 m20 6 lw 3 lw 1812 237 m20 6 lw 3 lw 1826 237 m20 6 lw 3 lw 1839 237 m20 6 lw 3 lw 1853 237 m20 6 lw 3 lw 1866 235 m20 6 lw 3
 lw 1880 237 m20 6 lw 3 lw 1894 235 m20 6 lw 3 lw 1907 235 m20 6 lw 3 lw 1921 234 m20 6 lw 3 lw 1934 234 m20 6 lw 3 lw 1948 233 m20 6 lw 3 lw 1962 233 m20 6 lw 3 lw 1975 234 m20 6 lw 3 lw 1989 234 m20 6 lw 3 lw 2002 235 m20 6 lw 3 lw 2016 232 m20 6
 lw 3 lw 2030 233 m20 6 lw 3 lw 2043 233 m20 6 lw 3 lw 2057 233 m20 6 lw 3 lw 2070 234 m20 6 lw 3 lw 2084 233 m20 6 lw 3 lw 2098 232 m20 6 lw 3 lw 2111 233 m20 6 lw 3 lw 2125 232 m20 6 lw 3 lw 2138 233 m20 6 lw 3 lw 2152 232 m20 6 lw 3 lw 2166 232
 m20 6 lw 3 lw 2179 232 m20 6 lw 3 lw 2193 232 m20 6 lw black 1 1 1 c black 3 lw 547 231 m20 6 lw 3 lw 560 231 m20 6 lw 3 lw 574 240 m20 6 lw 3 lw 587 241 m20 6 lw 3 lw 601 245 m20 6 lw 3 lw 615 249 m20 6 lw 3 lw 628 256 m20 6 lw 3 lw 642 264 m20 6
 lw 3 lw 655 269 m20 6 lw 3 lw 669 276 m20 6 lw 3 lw 683 283 m20 6 lw 3 lw 696 298 m20 6 lw 3 lw 710 308 m20 6 lw 3 lw 723 310 m20 6 lw 3 lw 737 319 m20 6 lw 3 lw 751 326 m20 6 lw 3 lw 764 329 m20 6 lw 3 lw 778 346 m20 6 lw 3 lw 791 357 m20 6 lw 3 lw
 805 360 m20 6 lw 3 lw 819 361 m20 6 lw 3 lw 832 365 m20 6 lw 3 lw 846 383 m20 6 lw 3 lw 859 397 m20 6 lw 3 lw 873 403 m20 6 lw 3 lw 887 398 m20 6 lw 3 lw 900 409 m20 6 lw 3 lw 914 424 m20 6 lw 3 lw 927 411 m20 6 lw 3 lw 941 407 m20 6 lw 3 lw 955 410
 m20 6 lw 3 lw 968 414 m20 6 lw 3 lw 982 425 m20 6 lw 3 lw 996 411 m20 6 lw 3 lw 1009 408 m20 6 lw 3 lw 1023 400 m20 6 lw 3 lw 1036 402 m20 6 lw 3 lw 1050 401 m20 6 lw 3 lw 1064 403 m20 6 lw 3 lw 1077 390 m20 6 lw 3 lw 1091 393 m20 6 lw 3 lw 1104 378
 m20 6 lw 3 lw 1118 374 m20 6 lw 3 lw 1132 366 m20 6 lw 3 lw 1145 369 m20 6 lw 3 lw 1159 350 m20 6 lw 3 lw 1172 351 m20 6 lw 3 lw 1186 350 m20 6 lw 3 lw 1200 332 m20 6 lw 3 lw 1213 345 m20 6 lw 3 lw 1227 336 m20 6 lw 3 lw 1240 324 m20 6 lw 3 lw 1254
 322 m20 6 lw 3 lw 1268 301 m20 6 lw 3 lw 1281 309 m20 6 lw 3 lw 1295 304 m20 6 lw 3 lw 1308 302 m20 6 lw 3 lw 1322 297 m20 6 lw 3 lw 1336 290 m20 6 lw 3 lw 1349 294 m20 6 lw 3 lw 1363 288 m20 6 lw 3 lw 1377 285 m20 6 lw 3 lw 1390 279 m20 6 lw 3 lw
 1404 275 m20 6 lw 3 lw 1417 274 m20 6 lw 3 lw 1431 268 m20 6 lw 3 lw 1445 274 m20 6 lw 3 lw 1458 264 m20 6 lw 3 lw 1472 267 m20 6 lw 3 lw 1485 267 m20 6 lw 3 lw 1499 264 m20 6 lw 3 lw 1513 261 m20 6 lw 3 lw 1526 260 m20 6 lw 3 lw 1540 253 m20 6 lw 3
 lw 1553 255 m20 6 lw 3 lw 1567 251 m20 6 lw 3 lw 1581 252 m20 6 lw 3 lw 1594 247 m20 6 lw 3 lw 1608 255 m20 6 lw 3 lw 1621 248 m20 6 lw 3 lw 1635 246 m20 6 lw 3 lw 1649 246 m20 6 lw 3 lw 1662 243 m20 6 lw 3 lw 1676 244 m20 6 lw 3 lw 1689 241 m20 6
 lw 3 lw 1703 242 m20 6 lw 3 lw 1717 239 m20 6 lw 3 lw 1730 240 m20 6 lw 3 lw 1744 243 m20 6 lw 3 lw 1757 239 m20 6 lw 3 lw 1771 240 m20 6 lw 3 lw 1785 238 m20 6 lw 3 lw 1798 236 m20 6 lw 3 lw 1812 238 m20 6 lw 3 lw 1826 237 m20 6 lw 3 lw 1839 238
 m20 6 lw 3 lw 1853 237 m20 6 lw 3 lw 1866 235 m20 6 lw 3 lw 1880 236 m20 6 lw 3 lw 1894 235 m20 6 lw 3 lw 1907 235 m20 6 lw 3 lw 1921 234 m20 6 lw 3 lw 1934 235 m20 6 lw 3 lw 1948 233 m20 6 lw 3 lw 1962 235 m20 6 lw 3 lw 1975 234 m20 6 lw 3 lw 1989
 233 m20 6 lw 3 lw 2002 235 m20 6 lw 3 lw 2016 233 m20 6 lw 3 lw 2030 232 m20 6 lw 3 lw 2043 233 m20 6 lw 3 lw 2057 233 m20 6 lw 3 lw 2070 233 m20 6 lw 3 lw 2084 232 m20 6 lw 3 lw 2098 233 m20 6 lw 3 lw 2111 232 m20 6 lw 3 lw 2125 234 m20 6 lw 3 lw
 2138 232 m20 6 lw 3 lw 2152 233 m20 6 lw 3 lw 2166 232 m20 6 lw 3 lw 2179 231 m20 6 lw 3 lw 2193 231 m20 6 lw 0 0.6 0 c 1 1 1 c 0 0.6 0 c 3 lw 560 231 m20 6 lw 3 lw 574 238 m20 6 lw 3 lw 587 238 m20 6 lw 3 lw 601 242 m20 6 lw 3 lw 615 247 m20 6 lw 3
 lw 628 247 m20 6 lw 3 lw 642 253 m20 6 lw 3 lw 655 259 m20 6 lw 3 lw 669 260 m20 6 lw 3 lw 683 266 m20 6 lw 3 lw 696 274 m20 6 lw 3 lw 710 272 m20 6 lw 3 lw 723 284 m20 6 lw 3 lw 737 290 m20 6 lw 3 lw 751 296 m20 6 lw 3 lw 764 301 m20 6 lw 3 lw 778
 307 m20 6 lw 3 lw 791 320 m20 6 lw 3 lw 805 327 m20 6 lw 3 lw 819 341 m20 6 lw 3 lw 832 345 m20 6 lw 3 lw 846 342 m20 6 lw 3 lw 859 356 m20 6 lw 3 lw 873 360 m20 6 lw 3 lw 887 367 m20 6 lw 3 lw 900 381 m20 6 lw 3 lw 914 385 m20 6 lw 3 lw 927 385 m20
 6 lw 3 lw 941 403 m20 6 lw 3 lw 955 407 m20 6 lw 3 lw 968 398 m20 6 lw 3 lw 982 416 m20 6 lw 3 lw 996 409 m20 6 lw 3 lw 1009 421 m20 6 lw 3 lw 1023 409 m20 6 lw 3 lw 1036 416 m20 6 lw 3 lw 1050 413 m20 6 lw 3 lw 1064 409 m20 6 lw 3 lw 1077 412 m20 6
 lw 3 lw 1091 395 m20 6 lw 3 lw 1104 407 m20 6 lw 3 lw 1118 397 m20 6 lw 3 lw 1132 394 m20 6 lw 3 lw 1145 382 m20 6 lw 3 lw 1159 388 m20 6 lw 3 lw 1172 373 m20 6 lw 3 lw 1186 366 m20 6 lw 3 lw 1200 360 m20 6 lw 3 lw 1213 354 m20 6 lw 3 lw 1227 359
 m20 6 lw 3 lw 1240 342 m20 6 lw 3 lw 1254 338 m20 6 lw 3 lw 1268 334 m20 6 lw 3 lw 1281 326 m20 6 lw 3 lw 1295 328 m20 6 lw 3 lw 1308 323 m20 6 lw 3 lw 1322 317 m20 6 lw 3 lw 1336 304 m20 6 lw 3 lw 1349 306 m20 6 lw 3 lw 1363 303 m20 6 lw 3 lw 1377
 300 m20 6 lw 3 lw 1390 298 m20 6 lw 3 lw 1404 288 m20 6 lw 3 lw 1417 284 m20 6 lw 3 lw 1431 283 m20 6 lw 3 lw 1445 280 m20 6 lw 3 lw 1458 279 m20 6 lw 3 lw 1472 277 m20 6 lw 3 lw 1485 270 m20 6 lw 3 lw 1499 267 m20 6 lw 3 lw 1513 265 m20 6 lw 3 lw
 1526 267 m20 6 lw 3 lw 1540 260 m20 6 lw 3 lw 1553 260 m20 6 lw 3 lw 1567 259 m20 6 lw 3 lw 1581 254 m20 6 lw 3 lw 1594 258 m20 6 lw 3 lw 1608 256 m20 6 lw 3 lw 1621 250 m20 6 lw 3 lw 1635 250 m20 6 lw 3 lw 1649 249 m20 6 lw 3 lw 1662 244 m20 6 lw 3
 lw 1676 247 m20 6 lw 3 lw 1689 247 m20 6 lw 3 lw 1703 244 m20 6 lw 3 lw 1717 244 m20 6 lw 3 lw 1730 241 m20 6 lw 3 lw 1744 240 m20 6 lw 3 lw 1757 243 m20 6 lw 3 lw 1771 239 m20 6 lw 3 lw 1785 238 m20 6 lw 3 lw 1798 239 m20 6 lw 3 lw 1812 239 m20 6
 lw 3 lw 1826 236 m20 6 lw 3 lw 1839 237 m20 6 lw 3 lw 1853 237 m20 6 lw 3 lw 1866 237 m20 6 lw 3 lw 1880 237 m20 6 lw 3 lw 1894 236 m20 6 lw 3 lw 1907 234 m20 6 lw 3 lw 1921 235 m20 6 lw 3 lw 1934 234 m20 6 lw 3 lw 1948 234 m20 6 lw 3 lw 1962 233
 m20 6 lw 3 lw 1975 234 m20 6 lw 3 lw 1989 234 m20 6 lw 3 lw 2002 233 m20 6 lw 3 lw 2016 233 m20 6 lw 3 lw 2030 234 m20 6 lw 3 lw 2043 234 m20 6 lw 3 lw 2057 233 m20 6 lw 3 lw 2070 233 m20 6 lw 3 lw 2084 233 m20 6 lw 3 lw 2098 232 m20 6 lw 3 lw 2111
 232 m20 6 lw 3 lw 2125 233 m20 6 lw 3 lw 2138 231 m20 6 lw 3 lw 2152 232 m20 6 lw 3 lw 2166 232 m20 6 lw 3 lw 2179 231 m20 6 lw 3 lw 2193 232 m20 6 lw black
 gsave  2268 1538 0 0 C 1648.66 1394.52 t 0 r /Helvetica-Bold findfont 48.8732 sf 0 0 m ( < 40 GeV) show NC gr 
 gsave  2268 1538 0 0 C 1573.72 1420.58 t 0 r /Helvetica-Bold findfont 32.5821 sf 0 0 m (truth) show NC gr 
 gsave  2268 1538 0 0 C 1573.72 1368.45 t 0 r /Helvetica-Bold findfont 32.5821 sf 0 0 m (T) show NC gr 
 gsave  2268 1538 0 0 C 1433.61 1394.52 t 0 r /Helvetica-Bold findfont 48.8732 sf 0 0 m (30 < p) show NC gr  0 0 1 c 1275 1413 m 131 X s 3 lw 1341 1413 m20 6 lw black
 gsave  2268 1538 0 0 C 1648.66 1296.77 t 0 r /Helvetica-Bold findfont 48.8732 sf 0 0 m ( < 100 GeV) show NC gr 
 gsave  2268 1538 0 0 C 1573.72 1322.83 t 0 r /Helvetica-Bold findfont 32.5821 sf 0 0 m (truth) show NC gr 
 gsave  2268 1538 0 0 C 1573.72 1270.7 t 0 r /Helvetica-Bold findfont 32.5821 sf 0 0 m (T) show NC gr 
 gsave  2268 1538 0 0 C 1433.61 1296.77 t 0 r /Helvetica-Bold findfont 48.8732 sf 0 0 m (80 < p) show NC gr  1 0 0 c 1275 1317 m 131 X s 3 lw 1341 1317 m20 6 lw black
 gsave  2268 1538 0 0 C 1674.72 1202.28 t 0 r /Helvetica-Bold findfont 48.8732 sf 0 0 m ( < 400 GeV) show NC gr 
 gsave  2268 1538 0 0 C 1599.78 1228.35 t 0 r /Helvetica-Bold findfont 32.5821 sf 0 0 m (truth) show NC gr 
 gsave  2268 1538 0 0 C 1599.78 1176.21 t 0 r /Helvetica-Bold findfont 32.5821 sf 0 0 m (T) show NC gr 
 gsave  2268 1538 0 0 C 1433.61 1202.28 t 0 r /Helvetica-Bold findfont 48.8732 sf 0 0 m (350 < p) show NC gr  1275 1221 m 131 X s 3 lw 1341 1221 m20 6 lw
 gsave  2268 1538 0 0 C 1704.05 1104.53 t 0 r /Helvetica-Bold findfont 48.8732 sf 0 0 m ( < 1200 GeV) show NC gr 
 gsave  2268 1538 0 0 C 1629.11 1130.6 t 0 r /Helvetica-Bold findfont 32.5821 sf 0 0 m (truth) show NC gr 
 gsave  2268 1538 0 0 C 1629.11 1078.47 t 0 r /Helvetica-Bold findfont 32.5821 sf 0 0 m (T) show NC gr 
 gsave  2268 1538 0 0 C 1433.61 1104.53 t 0 r /Helvetica-Bold findfont 48.8732 sf 0 0 m (1000 < p) show NC gr  0 0.6 0 c 1275 1125 m 131 X s 3 lw 1341 1125 m20 6 lw black
 gsave  2268 1538 0 0 C 384.469 1417.32 t 0 r /Helvetica-BoldOblique findfont 61.9061 sf 0 0 m (ATLAS) show NC gr 
 gsave  2268 1538 0 0 C 632.093 1417.32 t 0 r /Helvetica findfont 58.6478 sf 0 0 m (Simulation Internal) show NC gr 
 gsave  2268 1538 0 0 C 746.131 1339.13 t 0 r /Helvetica findfont 58.6478 sf 0 0 m ( = 13 TeV) show NC gr 
 gsave  2268 1538 0 0 C 716.807 1339.13 t 0 r /Helvetica findfont 58.6478 sf 0 0 m (s) show NC gr  697 1372 m 7 -36 d s 3 lw 704 1336 m 6 52 d s 710 1388 m 36 X s
 gsave  2268 1538 0 0 C 384.469 1339.13 t 0 r /Helvetica findfont 58.6478 sf 0 0 m (Pythia Dijet ) show NC gr 
 gsave  2268 1538 0 0 C 384.469 1264.19 t 0 r /Helvetica findfont 58.6478 sf 0 0 m (EM+JES) show NC gr 
 gsave  2268 1538 0 0 C 938.365 1185.99 t 0 r /Helvetica findfont 58.6478 sf 0 0 m (| < 0.9) show NC gr 
 gsave  2268 1538 0 0 C 905.783 1185.99 t 0 r /Symbol findfont 58.6478 sf 0 0 m (h) show NC gr 
 gsave  2268 1538 0 0 C 720.065 1185.99 t 0 r /Helvetica findfont 58.6478 sf 0 0 m (, 0.8 < |) show NC gr 
 gsave  2268 1538 0 0 C 707.032 1169.7 t 0 r /Helvetica findfont 39.0986 sf 0 0 m (t) show NC gr 
 gsave  2268 1538 0 0 C 671.192 1185.99 t 0 r /Helvetica-Oblique findfont 58.6478 sf 0 0 m (k) show NC gr 
 gsave  2268 1538 0 0 C 430.084 1185.99 t 0 r /Helvetica findfont 58.6478 sf 0 0 m (=0.4 anti\255) show NC gr 
 gsave  2268 1538 0 0 C 384.469 1185.99 t 0 r /Helvetica-Oblique findfont 58.6478 sf 0 0 m (R) show NC gr 
 gr  gr showpage
end
%%EOF
