%!PS-Adobe-2.0 EPSF-2.0
%%BoundingBox:  0 0 567 384
%%Title: Tile0_Tile0/Distribution_Tile0_eta_15.eps: c1_n2
%%Creator: ROOT Version 6.22/08
%%CreationDate: Tue Aug  3 22:33:31 2021
%%DocumentNeededResources: ProcSet (FontSetInit)
%%EndComments
%%BeginProlog
80 dict begin
/s {stroke} def /l {lineto} def /m {moveto} def /t {translate} def
/r {rotate} def /rl {roll}  def /R {repeat} def
/d {rlineto} def /rm {rmoveto} def /gr {grestore} def /f {eofill} def
/c {setrgbcolor} def /black {0 setgray} def /sd {setdash} def
/cl {closepath} def /sf {scalefont setfont} def /lw {setlinewidth} def
/box {m dup 0 exch d exch 0 d 0 exch neg d cl} def
/NC{systemdict begin initclip end}def/C{NC box clip newpath}def
/bl {box s} def /bf {gsave box gsave f grestore 1 lw [] 0 sd s grestore} def /Y { 0 exch d} def /X { 0 d} def 
/K {{pop pop 0 moveto} exch kshow} bind def
/ita {/ang 15 def gsave [1 0 ang dup sin exch cos div 1 0 0] concat} def 
/mp {newpath /y exch def /x exch def} def
/side {[w .77 mul w .23 mul] .385 w mul sd w 0 l currentpoint t -144 r} def
/mr {mp x y w2 0 360 arc} def /m24 {mr s} def /m20 {mr f} def
/mb {mp x y w2 add m w2 neg 0 d 0 w neg d w 0 d 0 w d cl} def
/mt {mp x y w2 add m w2 neg w neg d w 0 d cl} def
/w4 {w 4 div} def
/w6 {w 6 div} def
/w8 {w 8 div} def
/m21 {mb f} def /m25 {mb s} def /m22 {mt f} def /m26{mt s} def
/m23 {mp x y w2 sub m w2 w d w neg 0 d cl f} def
/m27 {mp x y w2 add m w3 neg w2 neg d w3 w2 neg d w3 w2 d cl s} def
/m28 {mp x w2 sub y w2 sub w3 add m w3 0 d  0 w3 neg d w3 0 d 0 w3 d w3 0 d  0 w3 d w3 neg 0 d 0 w3 d w3 neg 0 d 0 w3 neg d w3 neg 0 d cl s } def
/m29 {mp gsave x w2 sub y w2 add w3 sub m currentpoint t 4 {side} repeat cl fill gr} def
/m30 {mp gsave x w2 sub y w2 add w3 sub m currentpoint t 4 {side} repeat cl s gr} def
/m31 {mp x y w2 sub m 0 w d x w2 sub y m w 0 d x w2 .707 mul sub y w2 .707 mul add m w 1.44 div w 1.44 div neg d x w2 .707 mul sub y w2 .707 mul sub m w 1.44 div w 1.44 div d s} def
/m32 {mp x y w2 sub m w2 w d w neg 0 d cl s} def
/m33 {mp x y w2 add m w3 neg w2 neg d w3 w2 neg d w3 w2 d cl f} def
/m34 {mp x w2 sub y w2 sub w3 add m w3 0 d  0 w3 neg d w3 0 d 0 w3 d w3 0 d  0 w3 d w3 neg 0 d 0 w3 d w3 neg 0 d 0 w3 neg d w3 neg 0 d cl f } def
/m35 {mp x y w2 add m w2 neg w2 neg d w2 w2 neg d w2 w2 d w2 neg w2 d x y w2 sub m 0 w d x w2 sub y m w 0 d s} def
/m36 {mb x w2 sub y w2 add m w w neg d x w2 sub y w2 sub m w w d s} def
/m37 {mp x y m w4 neg w2 d w4 neg w2 neg d w2 0 d  w4 neg w2 neg d w2 0 d w4 neg w2 d w2 0 d w4 neg w2 d w4 neg w2 neg d cl s} def
/m38 {mp x w4 sub y w2 add m w4 neg w4 neg d 0 w2 neg d w4 w4 neg d w2 0 d w4 w4 d 0 w2 d w4 neg w4 d w2 neg 0 d x y w2 sub m 0 w d x w2 sub y m w 0 d cl s} def
/m39 {mp x y m w4 neg w2 d w4 neg w2 neg d w2 0 d  w4 neg w2 neg d w2 0 d w4 neg w2 d w2 0 d w4 neg w2 d w4 neg w2 neg d cl f} def
/m40 {mp x y m w4 w2 d w4 w4 neg d w2 neg w4 neg d w2 w4 neg d w4 neg w4 neg d w4 neg w2 d w4 neg w2 neg d w4 neg w4 d w2 w4 d w2 neg w4 d w4 w4 d w4 w2 neg d cl s} def
/m41 {mp x y m w4 w2 d w4 w4 neg d w2 neg w4 neg d w2 w4 neg d w4 neg w4 neg d w4 neg w2 d w4 neg w2 neg d w4 neg w4 d w2 w4 d w2 neg w4 d w4 w4 d w4 w2 neg d cl f} def
/m42 {mp x y w2 add m w8 neg w2 -3 4 div mul d w2 -3 4 div mul w8 neg d w2 3 4 div mul w8 neg d w8 w2 -3 4 div mul d w8 w2 3 4 div mul d w2 3 4 div mul w8 d w2 -3 4 div mul w8 d w8 neg w2 3 4 div mul d cl s} def
/m43 {mp x y w2 add m w8 neg w2 -3 4 div mul d w2 -3 4 div mul w8 neg d w2 3 4 div mul w8 neg d w8 w2 -3 4 div mul d w8 w2 3 4 div mul d w2 3 4 div mul w8 d w2 -3 4 div mul w8 d w8 neg w2 3 4 div mul d cl f} def
/m44 {mp x y m w6 neg w2 d w2 2 3 div mul 0 d w6 neg w2 neg d w2 w6 d 0 w2 -2 3 div mul d w2 neg w6 d w6 w2 neg d w2 -2 3 div mul 0 d w6 w2 d w2 neg w6 neg d 0 w2 2 3 div mul d w2 w6 neg d cl s} def
/m45 {mp x y m w6 neg w2 d w2 2 3 div mul 0 d w6 neg w2 neg d w2 w6 d 0 w2 -2 3 div mul d w2 neg w6 d w6 w2 neg d w2 -2 3 div mul 0 d w6 w2 d w2 neg w6 neg d 0 w2 2 3 div mul d w2 w6 neg d cl f} def
/m46 {mp x y w4 add m w4 neg w4 d w4 neg w4 neg d  w4 w4 neg d w4 neg w4 neg d w4 w4 neg d w4 w4 d w4 w4 neg d w4 w4 d w4 neg w4 d w4 w4 d w4 neg w4 d w4 neg w4 neg d cl s} def
/m47 {mp x y w4 add m w4 neg w4 d w4 neg w4 neg d w4 w4 neg d w4 neg w4 neg d  w4 w4 neg d w4 w4 d w4 w4 neg d w4 w4 d w4 neg w4 d w4 w4 d w4 neg w4 d w4 neg w4 neg d cl f} def
/m48 {mp x y w4 add m w4 neg w4 d w4 neg w4 neg d w4 w4 neg d  w4 neg w4 neg d w4 w4 neg d w4 w4 d w4 w4 neg d w4 w4 d w4 neg w4 d w4 w4 d w4 neg w4 d w4 neg w4 neg d  w4 w4 neg d w4 neg w4 neg d w4 neg w4 d w4 w4 d cl f} def
/m49 {mp x w2 sub w3 add y w2 sub w3 add m  0 w3 neg d w3 0 d 0 w3 d w3 0 d 0 w3 d w3 neg 0 d 0 w3 d w3 neg 0 d 0 w3 neg d w3 neg 0 d 0 w3 neg d w3 0 d 0 w3 d w3 0 d 0 w3 neg d w3 neg 0 d cl f } def
/m2 {mp x y w2 sub m 0 w d x w2 sub y m w 0 d s} def
/m5 {mp x w2 .707 mul sub y w2 .707 mul sub m w 1.44 div w 1.44 div d x w2 .707 mul sub y w2 .707 mul add m w 1.44 div w 1.44 div neg d s} def
%%IncludeResource: ProcSet (FontSetInit)
%%IncludeResource: font Times-Roman
%%IncludeResource: font Times-Italic
%%IncludeResource: font Times-Bold
%%IncludeResource: font Times-BoldItalic
%%IncludeResource: font Helvetica
%%IncludeResource: font Helvetica-Oblique
%%IncludeResource: font Helvetica-Bold
%%IncludeResource: font Helvetica-BoldOblique
%%IncludeResource: font Courier
%%IncludeResource: font Courier-Oblique
%%IncludeResource: font Courier-Bold
%%IncludeResource: font Courier-BoldOblique
%%IncludeResource: font Symbol
%%IncludeResource: font ZapfDingbats
/reEncode {exch findfont dup length dict begin {1 index /FID eq  {pop pop} {def} ifelse } forall /Encoding exch def currentdict end dup /FontName get exch definefont pop } def [/Times-Bold /Times-Italic /Times-BoldItalic /Helvetica /Helvetica-Oblique
 /Helvetica-Bold /Helvetica-BoldOblique /Courier /Courier-Oblique /Courier-Bold /Courier-BoldOblique /Times-Roman /AvantGarde-Book /AvantGarde-BookOblique /AvantGarde-Demi /AvantGarde-DemiOblique /Bookman-Demi /Bookman-DemiItalic /Bookman-Light
 /Bookman-LightItalic /Helvetica-Narrow /Helvetica-Narrow-Bold /Helvetica-Narrow-BoldOblique /Helvetica-Narrow-Oblique /NewCenturySchlbk-Roman /NewCenturySchlbk-Bold /NewCenturySchlbk-BoldItalic /NewCenturySchlbk-Italic /Palatino-Bold
 /Palatino-BoldItalic /Palatino-Italic /Palatino-Roman ] {ISOLatin1Encoding reEncode } forall
%%EndProlog
%%BeginSetup
%%EndSetup
newpath  gsave  .25 .25 scale  gsave  0 0 t 1 0 0 c[  ] 0 sd 3 lw 1 1 1 c 2268 1538 0 0 bf black 1 1 1 c 1905 1276 295 231 bf black 1905 1276 295 231 bl 1 1 1 c 1905 1276 295 231 bf black 1905 1276 295 231 bl 0 0 1 c 6 lw 1 1 1 c 0 0 1 c 3 lw /w 31
 def /w2 {w 2 div} def /w3 {w 3 div} def 302 231 m20 6 lw 3 lw 315 231 m20 6 lw 3 lw 329 231 m20 6 lw 3 lw 342 231 m20 6 lw 3 lw 356 231 m20 6 lw 3 lw 370 231 m20 6 lw 3 lw 383 232 m20 6 lw 3 lw 397 231 m20 6 lw 3 lw 410 231 m20 6 lw 3 lw 424 233 m20
 6 lw 3 lw 438 234 m20 6 lw 3 lw 451 235 m20 6 lw 3 lw 465 236 m20 6 lw 3 lw 478 239 m20 6 lw 3 lw 492 236 m20 6 lw 3 lw 506 242 m20 6 lw 3 lw 519 246 m20 6 lw 3 lw 533 248 m20 6 lw 3 lw 547 277 m20 6 lw 3 lw 560 508 m20 6 lw 3 lw 574 656 m20 6 lw 3
 lw 587 368 m20 6 lw 3 lw 601 322 m20 6 lw 3 lw 615 319 m20 6 lw 3 lw 628 327 m20 6 lw 3 lw 642 338 m20 6 lw 3 lw 655 318 m20 6 lw 3 lw 669 314 m20 6 lw 3 lw 683 311 m20 6 lw 3 lw 696 308 m20 6 lw 3 lw 710 311 m20 6 lw 3 lw 723 302 m20 6 lw 3 lw 737
 307 m20 6 lw 3 lw 751 290 m20 6 lw 3 lw 764 292 m20 6 lw 3 lw 778 290 m20 6 lw 3 lw 791 287 m20 6 lw 3 lw 805 281 m20 6 lw 3 lw 819 275 m20 6 lw 3 lw 832 275 m20 6 lw 3 lw 846 272 m20 6 lw 3 lw 859 271 m20 6 lw 3 lw 873 262 m20 6 lw 3 lw 887 267 m20
 6 lw 3 lw 900 262 m20 6 lw 3 lw 914 261 m20 6 lw 3 lw 927 261 m20 6 lw 3 lw 941 259 m20 6 lw 3 lw 955 258 m20 6 lw 3 lw 968 254 m20 6 lw 3 lw 982 252 m20 6 lw 3 lw 996 249 m20 6 lw 3 lw 1009 253 m20 6 lw 3 lw 1023 250 m20 6 lw 3 lw 1036 249 m20 6 lw
 3 lw 1050 249 m20 6 lw 3 lw 1064 248 m20 6 lw 3 lw 1077 247 m20 6 lw 3 lw 1091 248 m20 6 lw 3 lw 1104 245 m20 6 lw 3 lw 1118 244 m20 6 lw 3 lw 1132 241 m20 6 lw 3 lw 1145 241 m20 6 lw 3 lw 1159 242 m20 6 lw 3 lw 1172 242 m20 6 lw 3 lw 1186 238 m20 6
 lw 3 lw 1200 240 m20 6 lw 3 lw 1213 242 m20 6 lw 3 lw 1227 236 m20 6 lw 3 lw 1240 239 m20 6 lw 3 lw 1254 238 m20 6 lw 3 lw 1268 238 m20 6 lw 3 lw 1281 235 m20 6 lw 3 lw 1295 238 m20 6 lw 3 lw 1308 236 m20 6 lw 3 lw 1322 236 m20 6 lw 3 lw 1336 236
 m20 6 lw 3 lw 1349 236 m20 6 lw 3 lw 1363 234 m20 6 lw 3 lw 1377 235 m20 6 lw 3 lw 1390 236 m20 6 lw 3 lw 1404 235 m20 6 lw 3 lw 1417 235 m20 6 lw 3 lw 1431 235 m20 6 lw 3 lw 1445 234 m20 6 lw 3 lw 1458 234 m20 6 lw 3 lw 1472 233 m20 6 lw 3 lw 1485
 236 m20 6 lw 3 lw 1499 234 m20 6 lw 3 lw 1513 232 m20 6 lw 3 lw 1526 232 m20 6 lw 3 lw 1540 234 m20 6 lw 3 lw 1553 235 m20 6 lw 3 lw 1567 233 m20 6 lw 3 lw 1581 233 m20 6 lw 3 lw 1594 233 m20 6 lw 3 lw 1608 233 m20 6 lw 3 lw 1621 232 m20 6 lw 3 lw
 1635 234 m20 6 lw 3 lw 1649 232 m20 6 lw 3 lw 1662 232 m20 6 lw 3 lw 1676 232 m20 6 lw 3 lw 1689 232 m20 6 lw 3 lw 1703 232 m20 6 lw 3 lw 1717 231 m20 6 lw 3 lw 1730 232 m20 6 lw 3 lw 1744 231 m20 6 lw 3 lw 1757 232 m20 6 lw 3 lw 1771 233 m20 6 lw 3
 lw 1785 231 m20 6 lw 3 lw 1798 232 m20 6 lw 3 lw 1812 232 m20 6 lw 3 lw 1826 231 m20 6 lw 3 lw 1839 231 m20 6 lw 3 lw 1853 231 m20 6 lw 3 lw 1866 232 m20 6 lw 3 lw 1880 231 m20 6 lw 3 lw 1894 233 m20 6 lw 3 lw 1907 231 m20 6 lw 3 lw 1921 231 m20 6
 lw 3 lw 1934 232 m20 6 lw 3 lw 1948 231 m20 6 lw 3 lw 1962 231 m20 6 lw 3 lw 1975 231 m20 6 lw 3 lw 1989 231 m20 6 lw 3 lw 2002 231 m20 6 lw 3 lw 2016 231 m20 6 lw 3 lw 2030 231 m20 6 lw 3 lw 2043 231 m20 6 lw 3 lw 2057 231 m20 6 lw 3 lw 2070 231
 m20 6 lw 3 lw 2084 231 m20 6 lw 3 lw 2098 231 m20 6 lw 3 lw 2111 231 m20 6 lw 3 lw 2125 231 m20 6 lw 3 lw 2138 231 m20 6 lw 3 lw 2152 231 m20 6 lw 3 lw 2166 231 m20 6 lw 3 lw 2179 231 m20 6 lw 3 lw 2193 231 m20 6 lw black 3 lw 295 231 m 1905 X s 295
 269 m -38 Y s 349 250 m -19 Y s 404 250 m -19 Y s 458 250 m -19 Y s 513 250 m -19 Y s 567 269 m -38 Y s 621 250 m -19 Y s 676 250 m -19 Y s 730 250 m -19 Y s 785 250 m -19 Y s 839 269 m -38 Y s 893 250 m -19 Y s 948 250 m -19 Y s 1002 250 m -19 Y s
 1057 250 m -19 Y s 1111 269 m -38 Y s 1166 250 m -19 Y s 1220 250 m -19 Y s 1274 250 m -19 Y s 1329 250 m -19 Y s 1383 269 m -38 Y s 1438 250 m -19 Y s 1492 250 m -19 Y s 1547 250 m -19 Y s 1601 250 m -19 Y s 1655 269 m -38 Y s 1710 250 m -19 Y s
 1764 250 m -19 Y s 1819 250 m -19 Y s 1873 250 m -19 Y s 1928 269 m -38 Y s 1982 250 m -19 Y s 2036 250 m -19 Y s 2091 250 m -19 Y s 2145 250 m -19 Y s 2200 269 m -38 Y s
 gsave  2268 1538 0 0 C 267.173 162.911 t 0 r /Helvetica findfont 71.6807 sf 0 0 m (0.1) show NC gr 
 gsave  2268 1538 0 0 C 231.333 162.911 t 0 r /Symbol findfont 71.6807 sf 0 0 m (-) show NC gr 
 gsave  2268 1538 0 0 C 547.38 162.911 t 0 r /Helvetica findfont 71.6807 sf 0 0 m (0) show NC gr 
 gsave  2268 1538 0 0 C 795.004 162.911 t 0 r /Helvetica findfont 71.6807 sf 0 0 m (0.1) show NC gr 
 gsave  2268 1538 0 0 C 1062.18 162.911 t 0 r /Helvetica findfont 71.6807 sf 0 0 m (0.2) show NC gr 
 gsave  2268 1538 0 0 C 1332.61 162.911 t 0 r /Helvetica findfont 71.6807 sf 0 0 m (0.3) show NC gr 
 gsave  2268 1538 0 0 C 1606.3 162.911 t 0 r /Helvetica findfont 71.6807 sf 0 0 m (0.4) show NC gr 
 gsave  2268 1538 0 0 C 1876.73 162.911 t 0 r /Helvetica findfont 71.6807 sf 0 0 m (0.5) show NC gr 
 gsave  2268 1538 0 0 C 2150.42 162.911 t 0 r /Helvetica findfont 71.6807 sf 0 0 m (0.6) show NC gr 
 gsave  2268 1538 0 0 C 2095.03 19.5493 t 0 r /Helvetica findfont 48.8732 sf 0 0 m (Tile0) show NC gr 
 gsave  2268 1538 0 0 C 2075.48 42.3568 t 0 r /Helvetica findfont 71.6807 sf 0 0 m (f) show NC gr  295 1507 m 1905 X s 295 1468 m 39 Y s 349 1488 m 19 Y s 404 1488 m 19 Y s 458 1488 m 19 Y s 513 1488 m 19 Y s 567 1468 m 39 Y s 621 1488 m 19 Y s 676
 1488 m 19 Y s 730 1488 m 19 Y s 785 1488 m 19 Y s 839 1468 m 39 Y s 893 1488 m 19 Y s 948 1488 m 19 Y s 1002 1488 m 19 Y s 1057 1488 m 19 Y s 1111 1468 m 39 Y s 1166 1488 m 19 Y s 1220 1488 m 19 Y s 1274 1488 m 19 Y s 1329 1488 m 19 Y s 1383 1468 m
 39 Y s 1438 1488 m 19 Y s 1492 1488 m 19 Y s 1547 1488 m 19 Y s 1601 1488 m 19 Y s 1655 1468 m 39 Y s 1710 1488 m 19 Y s 1764 1488 m 19 Y s 1819 1488 m 19 Y s 1873 1488 m 19 Y s 1928 1468 m 39 Y s 1982 1488 m 19 Y s 2036 1488 m 19 Y s 2091 1488 m 19
 Y s 2145 1488 m 19 Y s 2200 1468 m 39 Y s 295 231 m 1276 Y s 351 231 m -56 X s 323 261 m -28 X s 323 291 m -28 X s 323 322 m -28 X s 323 352 m -28 X s 351 382 m -56 X s 323 412 m -28 X s 323 443 m -28 X s 323 473 m -28 X s 323 503 m -28 X s 351 534
 m -56 X s 323 564 m -28 X s 323 594 m -28 X s 323 624 m -28 X s 323 655 m -28 X s 351 685 m -56 X s 323 715 m -28 X s 323 746 m -28 X s 323 776 m -28 X s 323 806 m -28 X s 351 836 m -56 X s 323 867 m -28 X s 323 897 m -28 X s 323 927 m -28 X s 323
 958 m -28 X s 351 988 m -56 X s 323 1018 m -28 X s 323 1048 m -28 X s 323 1079 m -28 X s 323 1109 m -28 X s 351 1139 m -56 X s 323 1170 m -28 X s 323 1200 m -28 X s 323 1230 m -28 X s 323 1260 m -28 X s 351 1291 m -56 X s 323 1321 m -28 X s 323 1351
 m -28 X s 323 1382 m -28 X s 323 1412 m -28 X s 351 1442 m -56 X s 351 1442 m -56 X s 323 1472 m -28 X s 323 1503 m -28 X s
 gsave  2268 1538 0 0 C 244.366 205.267 t 0 r /Helvetica findfont 71.6807 sf 0 0 m (0) show NC gr 
 gsave  2268 1538 0 0 C 146.62 358.403 t 0 r /Helvetica findfont 71.6807 sf 0 0 m (0.05) show NC gr 
 gsave  2268 1538 0 0 C 198.751 508.281 t 0 r /Helvetica findfont 71.6807 sf 0 0 m (0.1) show NC gr 
 gsave  2268 1538 0 0 C 146.62 661.417 t 0 r /Helvetica findfont 71.6807 sf 0 0 m (0.15) show NC gr 
 gsave  2268 1538 0 0 C 188.976 811.295 t 0 r /Helvetica findfont 71.6807 sf 0 0 m (0.2) show NC gr 
 gsave  2268 1538 0 0 C 146.62 964.431 t 0 r /Helvetica findfont 71.6807 sf 0 0 m (0.25) show NC gr 
 gsave  2268 1538 0 0 C 188.976 1114.31 t 0 r /Helvetica findfont 71.6807 sf 0 0 m (0.3) show NC gr 
 gsave  2268 1538 0 0 C 146.62 1267.44 t 0 r /Helvetica findfont 71.6807 sf 0 0 m (0.35) show NC gr 
 gsave  2268 1538 0 0 C 185.718 1417.32 t 0 r /Helvetica findfont 71.6807 sf 0 0 m (0.4) show NC gr 
 gsave  2268 1538 0 0 C 156.394 925.333 t 90 r /Helvetica findfont 71.6807 sf 0 0 m (Normalized entries) show NC gr  2200 231 m 1276 Y s 2143 231 m 57 X s 2171 261 m 29 X s 2171 291 m 29 X s 2171 322 m 29 X s 2171 352 m 29 X s 2143 382 m 57 X s 2171
 412 m 29 X s 2171 443 m 29 X s 2171 473 m 29 X s 2171 503 m 29 X s 2143 534 m 57 X s 2171 564 m 29 X s 2171 594 m 29 X s 2171 624 m 29 X s 2171 655 m 29 X s 2143 685 m 57 X s 2171 715 m 29 X s 2171 746 m 29 X s 2171 776 m 29 X s 2171 806 m 29 X s
 2143 836 m 57 X s 2171 867 m 29 X s 2171 897 m 29 X s 2171 927 m 29 X s 2171 958 m 29 X s 2143 988 m 57 X s 2171 1018 m 29 X s 2171 1048 m 29 X s 2171 1079 m 29 X s 2171 1109 m 29 X s 2143 1139 m 57 X s 2171 1170 m 29 X s 2171 1200 m 29 X s 2171
 1230 m 29 X s 2171 1260 m 29 X s 2143 1291 m 57 X s 2171 1321 m 29 X s 2171 1351 m 29 X s 2171 1382 m 29 X s 2171 1412 m 29 X s 2143 1442 m 57 X s 2143 1442 m 57 X s 2171 1472 m 29 X s 2171 1503 m 29 X s 1 0 0 c 6 lw 1 1 1 c 1 0 0 c 3 lw 329 231 m20
 6 lw 3 lw 342 231 m20 6 lw 3 lw 397 231 m20 6 lw 3 lw 424 231 m20 6 lw 3 lw 438 231 m20 6 lw 3 lw 451 231 m20 6 lw 3 lw 465 231 m20 6 lw 3 lw 478 231 m20 6 lw 3 lw 492 231 m20 6 lw 3 lw 506 231 m20 6 lw 3 lw 519 231 m20 6 lw 3 lw 533 232 m20 6 lw 3
 lw 547 236 m20 6 lw 3 lw 560 280 m20 6 lw 3 lw 574 357 m20 6 lw 3 lw 587 320 m20 6 lw 3 lw 601 336 m20 6 lw 3 lw 615 352 m20 6 lw 3 lw 628 350 m20 6 lw 3 lw 642 353 m20 6 lw 3 lw 655 359 m20 6 lw 3 lw 669 362 m20 6 lw 3 lw 683 355 m20 6 lw 3 lw 696
 348 m20 6 lw 3 lw 710 348 m20 6 lw 3 lw 723 339 m20 6 lw 3 lw 737 335 m20 6 lw 3 lw 751 326 m20 6 lw 3 lw 764 323 m20 6 lw 3 lw 778 312 m20 6 lw 3 lw 791 305 m20 6 lw 3 lw 805 304 m20 6 lw 3 lw 819 298 m20 6 lw 3 lw 832 296 m20 6 lw 3 lw 846 289 m20
 6 lw 3 lw 859 285 m20 6 lw 3 lw 873 282 m20 6 lw 3 lw 887 278 m20 6 lw 3 lw 900 276 m20 6 lw 3 lw 914 269 m20 6 lw 3 lw 927 269 m20 6 lw 3 lw 941 267 m20 6 lw 3 lw 955 266 m20 6 lw 3 lw 968 261 m20 6 lw 3 lw 982 260 m20 6 lw 3 lw 996 257 m20 6 lw 3
 lw 1009 253 m20 6 lw 3 lw 1023 254 m20 6 lw 3 lw 1036 252 m20 6 lw 3 lw 1050 253 m20 6 lw 3 lw 1064 250 m20 6 lw 3 lw 1077 249 m20 6 lw 3 lw 1091 247 m20 6 lw 3 lw 1104 247 m20 6 lw 3 lw 1118 245 m20 6 lw 3 lw 1132 244 m20 6 lw 3 lw 1145 243 m20 6
 lw 3 lw 1159 244 m20 6 lw 3 lw 1172 243 m20 6 lw 3 lw 1186 242 m20 6 lw 3 lw 1200 240 m20 6 lw 3 lw 1213 240 m20 6 lw 3 lw 1227 240 m20 6 lw 3 lw 1240 240 m20 6 lw 3 lw 1254 238 m20 6 lw 3 lw 1268 237 m20 6 lw 3 lw 1281 237 m20 6 lw 3 lw 1295 237
 m20 6 lw 3 lw 1308 238 m20 6 lw 3 lw 1322 237 m20 6 lw 3 lw 1336 236 m20 6 lw 3 lw 1349 235 m20 6 lw 3 lw 1363 236 m20 6 lw 3 lw 1377 236 m20 6 lw 3 lw 1390 236 m20 6 lw 3 lw 1404 234 m20 6 lw 3 lw 1417 235 m20 6 lw 3 lw 1431 235 m20 6 lw 3 lw 1445
 234 m20 6 lw 3 lw 1458 234 m20 6 lw 3 lw 1472 235 m20 6 lw 3 lw 1485 234 m20 6 lw 3 lw 1499 234 m20 6 lw 3 lw 1513 234 m20 6 lw 3 lw 1526 233 m20 6 lw 3 lw 1540 233 m20 6 lw 3 lw 1553 233 m20 6 lw 3 lw 1567 232 m20 6 lw 3 lw 1581 233 m20 6 lw 3 lw
 1594 233 m20 6 lw 3 lw 1608 233 m20 6 lw 3 lw 1621 233 m20 6 lw 3 lw 1635 232 m20 6 lw 3 lw 1649 232 m20 6 lw 3 lw 1662 232 m20 6 lw 3 lw 1676 232 m20 6 lw 3 lw 1689 232 m20 6 lw 3 lw 1703 232 m20 6 lw 3 lw 1717 232 m20 6 lw 3 lw 1730 232 m20 6 lw 3
 lw 1744 232 m20 6 lw 3 lw 1757 231 m20 6 lw 3 lw 1771 232 m20 6 lw 3 lw 1785 232 m20 6 lw 3 lw 1798 231 m20 6 lw 3 lw 1812 232 m20 6 lw 3 lw 1826 232 m20 6 lw 3 lw 1839 231 m20 6 lw 3 lw 1853 231 m20 6 lw 3 lw 1866 231 m20 6 lw 3 lw 1880 232 m20 6
 lw 3 lw 1894 231 m20 6 lw 3 lw 1907 231 m20 6 lw 3 lw 1921 231 m20 6 lw 3 lw 1934 231 m20 6 lw 3 lw 1948 231 m20 6 lw 3 lw 1962 231 m20 6 lw 3 lw 1975 231 m20 6 lw 3 lw 1989 231 m20 6 lw 3 lw 2002 231 m20 6 lw 3 lw 2016 231 m20 6 lw 3 lw 2030 231
 m20 6 lw 3 lw 2043 231 m20 6 lw 3 lw 2057 231 m20 6 lw 3 lw 2070 231 m20 6 lw 3 lw 2084 231 m20 6 lw 3 lw 2098 231 m20 6 lw 3 lw 2111 231 m20 6 lw 3 lw 2125 231 m20 6 lw 3 lw 2138 231 m20 6 lw 3 lw 2152 231 m20 6 lw 3 lw 2166 231 m20 6 lw 3 lw 2179
 231 m20 6 lw 3 lw 2193 231 m20 6 lw black 1 1 1 c black 3 lw 547 231 m20 6 lw 3 lw 560 233 m20 6 lw 3 lw 574 245 m20 6 lw 3 lw 587 259 m20 6 lw 3 lw 601 267 m20 6 lw 3 lw 615 282 m20 6 lw 3 lw 628 294 m20 6 lw 3 lw 642 314 m20 6 lw 3 lw 655 314 m20
 6 lw 3 lw 669 328 m20 6 lw 3 lw 683 339 m20 6 lw 3 lw 696 349 m20 6 lw 3 lw 710 343 m20 6 lw 3 lw 723 336 m20 6 lw 3 lw 737 348 m20 6 lw 3 lw 751 341 m20 6 lw 3 lw 764 344 m20 6 lw 3 lw 778 328 m20 6 lw 3 lw 791 331 m20 6 lw 3 lw 805 324 m20 6 lw 3
 lw 819 325 m20 6 lw 3 lw 832 321 m20 6 lw 3 lw 846 313 m20 6 lw 3 lw 859 310 m20 6 lw 3 lw 873 309 m20 6 lw 3 lw 887 296 m20 6 lw 3 lw 900 295 m20 6 lw 3 lw 914 293 m20 6 lw 3 lw 927 284 m20 6 lw 3 lw 941 289 m20 6 lw 3 lw 955 277 m20 6 lw 3 lw 968
 274 m20 6 lw 3 lw 982 274 m20 6 lw 3 lw 996 271 m20 6 lw 3 lw 1009 268 m20 6 lw 3 lw 1023 266 m20 6 lw 3 lw 1036 258 m20 6 lw 3 lw 1050 262 m20 6 lw 3 lw 1064 257 m20 6 lw 3 lw 1077 254 m20 6 lw 3 lw 1091 253 m20 6 lw 3 lw 1104 255 m20 6 lw 3 lw
 1118 253 m20 6 lw 3 lw 1132 251 m20 6 lw 3 lw 1145 252 m20 6 lw 3 lw 1159 249 m20 6 lw 3 lw 1172 247 m20 6 lw 3 lw 1186 245 m20 6 lw 3 lw 1200 245 m20 6 lw 3 lw 1213 242 m20 6 lw 3 lw 1227 246 m20 6 lw 3 lw 1240 242 m20 6 lw 3 lw 1254 242 m20 6 lw 3
 lw 1268 243 m20 6 lw 3 lw 1281 242 m20 6 lw 3 lw 1295 239 m20 6 lw 3 lw 1308 239 m20 6 lw 3 lw 1322 238 m20 6 lw 3 lw 1336 238 m20 6 lw 3 lw 1349 238 m20 6 lw 3 lw 1363 237 m20 6 lw 3 lw 1377 236 m20 6 lw 3 lw 1390 236 m20 6 lw 3 lw 1404 237 m20 6
 lw 3 lw 1417 238 m20 6 lw 3 lw 1431 236 m20 6 lw 3 lw 1445 235 m20 6 lw 3 lw 1458 235 m20 6 lw 3 lw 1472 237 m20 6 lw 3 lw 1485 233 m20 6 lw 3 lw 1499 235 m20 6 lw 3 lw 1513 235 m20 6 lw 3 lw 1526 234 m20 6 lw 3 lw 1540 236 m20 6 lw 3 lw 1553 234
 m20 6 lw 3 lw 1567 233 m20 6 lw 3 lw 1581 233 m20 6 lw 3 lw 1594 233 m20 6 lw 3 lw 1608 234 m20 6 lw 3 lw 1621 233 m20 6 lw 3 lw 1635 233 m20 6 lw 3 lw 1649 232 m20 6 lw 3 lw 1662 232 m20 6 lw 3 lw 1676 232 m20 6 lw 3 lw 1689 233 m20 6 lw 3 lw 1703
 233 m20 6 lw 3 lw 1717 233 m20 6 lw 3 lw 1730 233 m20 6 lw 3 lw 1744 231 m20 6 lw 3 lw 1757 231 m20 6 lw 3 lw 1771 232 m20 6 lw 3 lw 1785 232 m20 6 lw 3 lw 1798 231 m20 6 lw 3 lw 1812 232 m20 6 lw 3 lw 1826 232 m20 6 lw 3 lw 1839 231 m20 6 lw 3 lw
 1853 232 m20 6 lw 3 lw 1866 231 m20 6 lw 3 lw 1880 231 m20 6 lw 3 lw 1894 232 m20 6 lw 3 lw 1907 231 m20 6 lw 3 lw 1921 232 m20 6 lw 3 lw 1934 232 m20 6 lw 3 lw 1948 231 m20 6 lw 3 lw 1962 231 m20 6 lw 3 lw 1975 231 m20 6 lw 3 lw 1989 231 m20 6 lw 3
 lw 2002 231 m20 6 lw 3 lw 2016 231 m20 6 lw 3 lw 2030 231 m20 6 lw 3 lw 2043 231 m20 6 lw 3 lw 2057 231 m20 6 lw 3 lw 2070 231 m20 6 lw 3 lw 2084 231 m20 6 lw 3 lw 2098 231 m20 6 lw 3 lw 2111 232 m20 6 lw 3 lw 2125 231 m20 6 lw 3 lw 2138 232 m20 6
 lw 3 lw 2152 231 m20 6 lw 3 lw 2166 231 m20 6 lw 3 lw 2179 231 m20 6 lw 3 lw 2193 231 m20 6 lw 0 0.6 0 c 1 1 1 c 0 0.6 0 c 3 lw 560 231 m20 6 lw 3 lw 574 239 m20 6 lw 3 lw 587 245 m20 6 lw 3 lw 601 253 m20 6 lw 3 lw 615 256 m20 6 lw 3 lw 628 266 m20
 6 lw 3 lw 642 276 m20 6 lw 3 lw 655 284 m20 6 lw 3 lw 669 286 m20 6 lw 3 lw 683 301 m20 6 lw 3 lw 696 308 m20 6 lw 3 lw 710 309 m20 6 lw 3 lw 723 327 m20 6 lw 3 lw 737 326 m20 6 lw 3 lw 751 328 m20 6 lw 3 lw 764 323 m20 6 lw 3 lw 778 333 m20 6 lw 3
 lw 791 319 m20 6 lw 3 lw 805 329 m20 6 lw 3 lw 819 322 m20 6 lw 3 lw 832 319 m20 6 lw 3 lw 846 324 m20 6 lw 3 lw 859 316 m20 6 lw 3 lw 873 319 m20 6 lw 3 lw 887 310 m20 6 lw 3 lw 900 303 m20 6 lw 3 lw 914 301 m20 6 lw 3 lw 927 298 m20 6 lw 3 lw 941
 303 m20 6 lw 3 lw 955 292 m20 6 lw 3 lw 968 289 m20 6 lw 3 lw 982 291 m20 6 lw 3 lw 996 288 m20 6 lw 3 lw 1009 285 m20 6 lw 3 lw 1023 278 m20 6 lw 3 lw 1036 270 m20 6 lw 3 lw 1050 279 m20 6 lw 3 lw 1064 277 m20 6 lw 3 lw 1077 270 m20 6 lw 3 lw 1091
 269 m20 6 lw 3 lw 1104 266 m20 6 lw 3 lw 1118 259 m20 6 lw 3 lw 1132 258 m20 6 lw 3 lw 1145 257 m20 6 lw 3 lw 1159 254 m20 6 lw 3 lw 1172 253 m20 6 lw 3 lw 1186 252 m20 6 lw 3 lw 1200 252 m20 6 lw 3 lw 1213 247 m20 6 lw 3 lw 1227 247 m20 6 lw 3 lw
 1240 247 m20 6 lw 3 lw 1254 249 m20 6 lw 3 lw 1268 247 m20 6 lw 3 lw 1281 244 m20 6 lw 3 lw 1295 241 m20 6 lw 3 lw 1308 244 m20 6 lw 3 lw 1322 245 m20 6 lw 3 lw 1336 242 m20 6 lw 3 lw 1349 241 m20 6 lw 3 lw 1363 239 m20 6 lw 3 lw 1377 240 m20 6 lw 3
 lw 1390 240 m20 6 lw 3 lw 1404 238 m20 6 lw 3 lw 1417 237 m20 6 lw 3 lw 1431 239 m20 6 lw 3 lw 1445 237 m20 6 lw 3 lw 1458 236 m20 6 lw 3 lw 1472 236 m20 6 lw 3 lw 1485 237 m20 6 lw 3 lw 1499 235 m20 6 lw 3 lw 1513 234 m20 6 lw 3 lw 1526 235 m20 6
 lw 3 lw 1540 234 m20 6 lw 3 lw 1553 235 m20 6 lw 3 lw 1567 235 m20 6 lw 3 lw 1581 234 m20 6 lw 3 lw 1594 234 m20 6 lw 3 lw 1608 233 m20 6 lw 3 lw 1621 233 m20 6 lw 3 lw 1635 233 m20 6 lw 3 lw 1649 233 m20 6 lw 3 lw 1662 233 m20 6 lw 3 lw 1676 233
 m20 6 lw 3 lw 1689 233 m20 6 lw 3 lw 1703 232 m20 6 lw 3 lw 1717 233 m20 6 lw 3 lw 1730 232 m20 6 lw 3 lw 1744 233 m20 6 lw 3 lw 1757 233 m20 6 lw 3 lw 1771 233 m20 6 lw 3 lw 1785 233 m20 6 lw 3 lw 1798 232 m20 6 lw 3 lw 1812 232 m20 6 lw 3 lw 1826
 232 m20 6 lw 3 lw 1839 233 m20 6 lw 3 lw 1853 231 m20 6 lw 3 lw 1866 232 m20 6 lw 3 lw 1880 232 m20 6 lw 3 lw 1894 232 m20 6 lw 3 lw 1907 232 m20 6 lw 3 lw 1921 231 m20 6 lw 3 lw 1934 232 m20 6 lw 3 lw 1948 231 m20 6 lw 3 lw 1962 231 m20 6 lw 3 lw
 1975 231 m20 6 lw 3 lw 1989 232 m20 6 lw 3 lw 2002 232 m20 6 lw 3 lw 2016 231 m20 6 lw 3 lw 2030 231 m20 6 lw 3 lw 2043 232 m20 6 lw 3 lw 2057 231 m20 6 lw 3 lw 2070 231 m20 6 lw 3 lw 2084 231 m20 6 lw 3 lw 2098 231 m20 6 lw 3 lw 2111 231 m20 6 lw 3
 lw 2125 231 m20 6 lw 3 lw 2138 231 m20 6 lw 3 lw 2152 231 m20 6 lw 3 lw 2166 231 m20 6 lw 3 lw 2179 231 m20 6 lw 3 lw 2193 231 m20 6 lw black
 gsave  2268 1538 0 0 C 1648.66 1394.52 t 0 r /Helvetica-Bold findfont 48.8732 sf 0 0 m ( < 40 GeV) show NC gr 
 gsave  2268 1538 0 0 C 1573.72 1420.58 t 0 r /Helvetica-Bold findfont 32.5821 sf 0 0 m (truth) show NC gr 
 gsave  2268 1538 0 0 C 1573.72 1368.45 t 0 r /Helvetica-Bold findfont 32.5821 sf 0 0 m (T) show NC gr 
 gsave  2268 1538 0 0 C 1433.61 1394.52 t 0 r /Helvetica-Bold findfont 48.8732 sf 0 0 m (30 < p) show NC gr  0 0 1 c 1275 1413 m 131 X s 3 lw 1341 1413 m20 6 lw black
 gsave  2268 1538 0 0 C 1648.66 1296.77 t 0 r /Helvetica-Bold findfont 48.8732 sf 0 0 m ( < 100 GeV) show NC gr 
 gsave  2268 1538 0 0 C 1573.72 1322.83 t 0 r /Helvetica-Bold findfont 32.5821 sf 0 0 m (truth) show NC gr 
 gsave  2268 1538 0 0 C 1573.72 1270.7 t 0 r /Helvetica-Bold findfont 32.5821 sf 0 0 m (T) show NC gr 
 gsave  2268 1538 0 0 C 1433.61 1296.77 t 0 r /Helvetica-Bold findfont 48.8732 sf 0 0 m (80 < p) show NC gr  1 0 0 c 1275 1317 m 131 X s 3 lw 1341 1317 m20 6 lw black
 gsave  2268 1538 0 0 C 1674.72 1202.28 t 0 r /Helvetica-Bold findfont 48.8732 sf 0 0 m ( < 400 GeV) show NC gr 
 gsave  2268 1538 0 0 C 1599.78 1228.35 t 0 r /Helvetica-Bold findfont 32.5821 sf 0 0 m (truth) show NC gr 
 gsave  2268 1538 0 0 C 1599.78 1176.21 t 0 r /Helvetica-Bold findfont 32.5821 sf 0 0 m (T) show NC gr 
 gsave  2268 1538 0 0 C 1433.61 1202.28 t 0 r /Helvetica-Bold findfont 48.8732 sf 0 0 m (350 < p) show NC gr  1275 1221 m 131 X s 3 lw 1341 1221 m20 6 lw
 gsave  2268 1538 0 0 C 1704.05 1104.53 t 0 r /Helvetica-Bold findfont 48.8732 sf 0 0 m ( < 1200 GeV) show NC gr 
 gsave  2268 1538 0 0 C 1629.11 1130.6 t 0 r /Helvetica-Bold findfont 32.5821 sf 0 0 m (truth) show NC gr 
 gsave  2268 1538 0 0 C 1629.11 1078.47 t 0 r /Helvetica-Bold findfont 32.5821 sf 0 0 m (T) show NC gr 
 gsave  2268 1538 0 0 C 1433.61 1104.53 t 0 r /Helvetica-Bold findfont 48.8732 sf 0 0 m (1000 < p) show NC gr  0 0.6 0 c 1275 1125 m 131 X s 3 lw 1341 1125 m20 6 lw black
 gsave  2268 1538 0 0 C 384.469 1417.32 t 0 r /Helvetica-BoldOblique findfont 61.9061 sf 0 0 m (ATLAS) show NC gr 
 gsave  2268 1538 0 0 C 632.093 1417.32 t 0 r /Helvetica findfont 58.6478 sf 0 0 m (Simulation Internal) show NC gr 
 gsave  2268 1538 0 0 C 746.131 1339.13 t 0 r /Helvetica findfont 58.6478 sf 0 0 m ( = 13 TeV) show NC gr 
 gsave  2268 1538 0 0 C 716.807 1339.13 t 0 r /Helvetica findfont 58.6478 sf 0 0 m (s) show NC gr  697 1372 m 7 -36 d s 3 lw 704 1336 m 6 52 d s 710 1388 m 36 X s
 gsave  2268 1538 0 0 C 384.469 1339.13 t 0 r /Helvetica findfont 58.6478 sf 0 0 m (Pythia Dijet ) show NC gr 
 gsave  2268 1538 0 0 C 384.469 1264.19 t 0 r /Helvetica findfont 58.6478 sf 0 0 m (EM+JES) show NC gr 
 gsave  2268 1538 0 0 C 938.365 1185.99 t 0 r /Helvetica findfont 58.6478 sf 0 0 m (| < 1.6) show NC gr 
 gsave  2268 1538 0 0 C 905.783 1185.99 t 0 r /Symbol findfont 58.6478 sf 0 0 m (h) show NC gr 
 gsave  2268 1538 0 0 C 720.065 1185.99 t 0 r /Helvetica findfont 58.6478 sf 0 0 m (, 1.5 < |) show NC gr 
 gsave  2268 1538 0 0 C 707.032 1169.7 t 0 r /Helvetica findfont 39.0986 sf 0 0 m (t) show NC gr 
 gsave  2268 1538 0 0 C 671.192 1185.99 t 0 r /Helvetica-Oblique findfont 58.6478 sf 0 0 m (k) show NC gr 
 gsave  2268 1538 0 0 C 430.084 1185.99 t 0 r /Helvetica findfont 58.6478 sf 0 0 m (=0.4 anti\255) show NC gr 
 gsave  2268 1538 0 0 C 384.469 1185.99 t 0 r /Helvetica-Oblique findfont 58.6478 sf 0 0 m (R) show NC gr 
 gr  gr showpage
end
%%EOF
