%!PS-Adobe-2.0 EPSF-2.0
%%BoundingBox:  0 0 567 384
%%Title: Tile0_Tile0/Distribution_Tile0_eta_2.eps: c1
%%Creator: ROOT Version 6.22/08
%%CreationDate: Tue Aug  3 22:33:27 2021
%%DocumentNeededResources: ProcSet (FontSetInit)
%%EndComments
%%BeginProlog
80 dict begin
/s {stroke} def /l {lineto} def /m {moveto} def /t {translate} def
/r {rotate} def /rl {roll}  def /R {repeat} def
/d {rlineto} def /rm {rmoveto} def /gr {grestore} def /f {eofill} def
/c {setrgbcolor} def /black {0 setgray} def /sd {setdash} def
/cl {closepath} def /sf {scalefont setfont} def /lw {setlinewidth} def
/box {m dup 0 exch d exch 0 d 0 exch neg d cl} def
/NC{systemdict begin initclip end}def/C{NC box clip newpath}def
/bl {box s} def /bf {gsave box gsave f grestore 1 lw [] 0 sd s grestore} def /Y { 0 exch d} def /X { 0 d} def 
/K {{pop pop 0 moveto} exch kshow} bind def
/ita {/ang 15 def gsave [1 0 ang dup sin exch cos div 1 0 0] concat} def 
/mp {newpath /y exch def /x exch def} def
/side {[w .77 mul w .23 mul] .385 w mul sd w 0 l currentpoint t -144 r} def
/mr {mp x y w2 0 360 arc} def /m24 {mr s} def /m20 {mr f} def
/mb {mp x y w2 add m w2 neg 0 d 0 w neg d w 0 d 0 w d cl} def
/mt {mp x y w2 add m w2 neg w neg d w 0 d cl} def
/w4 {w 4 div} def
/w6 {w 6 div} def
/w8 {w 8 div} def
/m21 {mb f} def /m25 {mb s} def /m22 {mt f} def /m26{mt s} def
/m23 {mp x y w2 sub m w2 w d w neg 0 d cl f} def
/m27 {mp x y w2 add m w3 neg w2 neg d w3 w2 neg d w3 w2 d cl s} def
/m28 {mp x w2 sub y w2 sub w3 add m w3 0 d  0 w3 neg d w3 0 d 0 w3 d w3 0 d  0 w3 d w3 neg 0 d 0 w3 d w3 neg 0 d 0 w3 neg d w3 neg 0 d cl s } def
/m29 {mp gsave x w2 sub y w2 add w3 sub m currentpoint t 4 {side} repeat cl fill gr} def
/m30 {mp gsave x w2 sub y w2 add w3 sub m currentpoint t 4 {side} repeat cl s gr} def
/m31 {mp x y w2 sub m 0 w d x w2 sub y m w 0 d x w2 .707 mul sub y w2 .707 mul add m w 1.44 div w 1.44 div neg d x w2 .707 mul sub y w2 .707 mul sub m w 1.44 div w 1.44 div d s} def
/m32 {mp x y w2 sub m w2 w d w neg 0 d cl s} def
/m33 {mp x y w2 add m w3 neg w2 neg d w3 w2 neg d w3 w2 d cl f} def
/m34 {mp x w2 sub y w2 sub w3 add m w3 0 d  0 w3 neg d w3 0 d 0 w3 d w3 0 d  0 w3 d w3 neg 0 d 0 w3 d w3 neg 0 d 0 w3 neg d w3 neg 0 d cl f } def
/m35 {mp x y w2 add m w2 neg w2 neg d w2 w2 neg d w2 w2 d w2 neg w2 d x y w2 sub m 0 w d x w2 sub y m w 0 d s} def
/m36 {mb x w2 sub y w2 add m w w neg d x w2 sub y w2 sub m w w d s} def
/m37 {mp x y m w4 neg w2 d w4 neg w2 neg d w2 0 d  w4 neg w2 neg d w2 0 d w4 neg w2 d w2 0 d w4 neg w2 d w4 neg w2 neg d cl s} def
/m38 {mp x w4 sub y w2 add m w4 neg w4 neg d 0 w2 neg d w4 w4 neg d w2 0 d w4 w4 d 0 w2 d w4 neg w4 d w2 neg 0 d x y w2 sub m 0 w d x w2 sub y m w 0 d cl s} def
/m39 {mp x y m w4 neg w2 d w4 neg w2 neg d w2 0 d  w4 neg w2 neg d w2 0 d w4 neg w2 d w2 0 d w4 neg w2 d w4 neg w2 neg d cl f} def
/m40 {mp x y m w4 w2 d w4 w4 neg d w2 neg w4 neg d w2 w4 neg d w4 neg w4 neg d w4 neg w2 d w4 neg w2 neg d w4 neg w4 d w2 w4 d w2 neg w4 d w4 w4 d w4 w2 neg d cl s} def
/m41 {mp x y m w4 w2 d w4 w4 neg d w2 neg w4 neg d w2 w4 neg d w4 neg w4 neg d w4 neg w2 d w4 neg w2 neg d w4 neg w4 d w2 w4 d w2 neg w4 d w4 w4 d w4 w2 neg d cl f} def
/m42 {mp x y w2 add m w8 neg w2 -3 4 div mul d w2 -3 4 div mul w8 neg d w2 3 4 div mul w8 neg d w8 w2 -3 4 div mul d w8 w2 3 4 div mul d w2 3 4 div mul w8 d w2 -3 4 div mul w8 d w8 neg w2 3 4 div mul d cl s} def
/m43 {mp x y w2 add m w8 neg w2 -3 4 div mul d w2 -3 4 div mul w8 neg d w2 3 4 div mul w8 neg d w8 w2 -3 4 div mul d w8 w2 3 4 div mul d w2 3 4 div mul w8 d w2 -3 4 div mul w8 d w8 neg w2 3 4 div mul d cl f} def
/m44 {mp x y m w6 neg w2 d w2 2 3 div mul 0 d w6 neg w2 neg d w2 w6 d 0 w2 -2 3 div mul d w2 neg w6 d w6 w2 neg d w2 -2 3 div mul 0 d w6 w2 d w2 neg w6 neg d 0 w2 2 3 div mul d w2 w6 neg d cl s} def
/m45 {mp x y m w6 neg w2 d w2 2 3 div mul 0 d w6 neg w2 neg d w2 w6 d 0 w2 -2 3 div mul d w2 neg w6 d w6 w2 neg d w2 -2 3 div mul 0 d w6 w2 d w2 neg w6 neg d 0 w2 2 3 div mul d w2 w6 neg d cl f} def
/m46 {mp x y w4 add m w4 neg w4 d w4 neg w4 neg d  w4 w4 neg d w4 neg w4 neg d w4 w4 neg d w4 w4 d w4 w4 neg d w4 w4 d w4 neg w4 d w4 w4 d w4 neg w4 d w4 neg w4 neg d cl s} def
/m47 {mp x y w4 add m w4 neg w4 d w4 neg w4 neg d w4 w4 neg d w4 neg w4 neg d  w4 w4 neg d w4 w4 d w4 w4 neg d w4 w4 d w4 neg w4 d w4 w4 d w4 neg w4 d w4 neg w4 neg d cl f} def
/m48 {mp x y w4 add m w4 neg w4 d w4 neg w4 neg d w4 w4 neg d  w4 neg w4 neg d w4 w4 neg d w4 w4 d w4 w4 neg d w4 w4 d w4 neg w4 d w4 w4 d w4 neg w4 d w4 neg w4 neg d  w4 w4 neg d w4 neg w4 neg d w4 neg w4 d w4 w4 d cl f} def
/m49 {mp x w2 sub w3 add y w2 sub w3 add m  0 w3 neg d w3 0 d 0 w3 d w3 0 d 0 w3 d w3 neg 0 d 0 w3 d w3 neg 0 d 0 w3 neg d w3 neg 0 d 0 w3 neg d w3 0 d 0 w3 d w3 0 d 0 w3 neg d w3 neg 0 d cl f } def
/m2 {mp x y w2 sub m 0 w d x w2 sub y m w 0 d s} def
/m5 {mp x w2 .707 mul sub y w2 .707 mul sub m w 1.44 div w 1.44 div d x w2 .707 mul sub y w2 .707 mul add m w 1.44 div w 1.44 div neg d s} def
%%IncludeResource: ProcSet (FontSetInit)
%%IncludeResource: font Times-Roman
%%IncludeResource: font Times-Italic
%%IncludeResource: font Times-Bold
%%IncludeResource: font Times-BoldItalic
%%IncludeResource: font Helvetica
%%IncludeResource: font Helvetica-Oblique
%%IncludeResource: font Helvetica-Bold
%%IncludeResource: font Helvetica-BoldOblique
%%IncludeResource: font Courier
%%IncludeResource: font Courier-Oblique
%%IncludeResource: font Courier-Bold
%%IncludeResource: font Courier-BoldOblique
%%IncludeResource: font Symbol
%%IncludeResource: font ZapfDingbats
/reEncode {exch findfont dup length dict begin {1 index /FID eq  {pop pop} {def} ifelse } forall /Encoding exch def currentdict end dup /FontName get exch definefont pop } def [/Times-Bold /Times-Italic /Times-BoldItalic /Helvetica /Helvetica-Oblique
 /Helvetica-Bold /Helvetica-BoldOblique /Courier /Courier-Oblique /Courier-Bold /Courier-BoldOblique /Times-Roman /AvantGarde-Book /AvantGarde-BookOblique /AvantGarde-Demi /AvantGarde-DemiOblique /Bookman-Demi /Bookman-DemiItalic /Bookman-Light
 /Bookman-LightItalic /Helvetica-Narrow /Helvetica-Narrow-Bold /Helvetica-Narrow-BoldOblique /Helvetica-Narrow-Oblique /NewCenturySchlbk-Roman /NewCenturySchlbk-Bold /NewCenturySchlbk-BoldItalic /NewCenturySchlbk-Italic /Palatino-Bold
 /Palatino-BoldItalic /Palatino-Italic /Palatino-Roman ] {ISOLatin1Encoding reEncode } forall
%%EndProlog
%%BeginSetup
%%EndSetup
newpath  gsave  .25 .25 scale  gsave  0 0 t 1 0 0 c[  ] 0 sd 3 lw 1 1 1 c 2268 1538 0 0 bf black 1 1 1 c 1905 1276 295 231 bf black 1905 1276 295 231 bl 1 1 1 c 1905 1276 295 231 bf black 1905 1276 295 231 bl 0 0 1 c 6 lw 1 1 1 c 0 0 1 c 3 lw /w 31
 def /w2 {w 2 div} def /w3 {w 3 div} def 302 232 m20 6 lw 3 lw 315 232 m20 6 lw 3 lw 329 233 m20 6 lw 3 lw 342 232 m20 6 lw 3 lw 356 234 m20 6 lw 3 lw 370 234 m20 6 lw 3 lw 383 235 m20 6 lw 3 lw 397 234 m20 6 lw 3 lw 410 235 m20 6 lw 3 lw 424 246 m20
 6 lw 3 lw 438 234 m20 6 lw 3 lw 451 238 m20 6 lw 3 lw 465 247 m20 6 lw 3 lw 478 253 m20 6 lw 3 lw 492 243 m20 6 lw 3 lw 506 251 m20 6 lw 3 lw 519 249 m20 6 lw 3 lw 533 271 m20 6 lw 3 lw 547 297 m20 6 lw 560 444 m 1 Y s 560 471 m 1 Y s 3 lw 560 458
 m20 6 lw 574 636 m 7 Y s 574 669 m 7 Y s 3 lw 574 656 m20 6 lw 3 lw 587 410 m20 6 lw 3 lw 601 364 m20 6 lw 3 lw 615 374 m20 6 lw 3 lw 628 371 m20 6 lw 3 lw 642 403 m20 6 lw 655 410 m s 655 436 m 1 Y s 3 lw 655 423 m20 6 lw 669 413 m s 669 439 m s 3
 lw 669 426 m20 6 lw 3 lw 683 416 m20 6 lw 3 lw 696 413 m20 6 lw 3 lw 710 409 m20 6 lw 3 lw 723 406 m20 6 lw 737 408 m 1 Y s 737 435 m s 3 lw 737 422 m20 6 lw 751 406 m s 751 432 m s 3 lw 751 419 m20 6 lw 764 418 m 1 Y s 764 445 m s 3 lw 764 432 m20
 6 lw 3 lw 778 391 m20 6 lw 791 408 m s 791 434 m s 3 lw 791 421 m20 6 lw 805 423 m 1 Y s 805 450 m 1 Y s 3 lw 805 437 m20 6 lw 819 416 m 1 Y s 819 443 m s 3 lw 819 430 m20 6 lw 832 415 m 1 Y s 832 442 m s 3 lw 832 429 m20 6 lw 3 lw 846 395 m20 6 lw
 859 405 m s 859 431 m s 3 lw 859 418 m20 6 lw 3 lw 873 414 m20 6 lw 3 lw 887 379 m20 6 lw 900 421 m s 900 447 m 1 Y s 3 lw 900 434 m20 6 lw 3 lw 914 404 m20 6 lw 3 lw 927 385 m20 6 lw 3 lw 941 381 m20 6 lw 3 lw 955 394 m20 6 lw 3 lw 968 391 m20 6 lw
 3 lw 982 364 m20 6 lw 3 lw 996 366 m20 6 lw 3 lw 1009 373 m20 6 lw 3 lw 1023 356 m20 6 lw 3 lw 1036 354 m20 6 lw 3 lw 1050 376 m20 6 lw 3 lw 1064 335 m20 6 lw 3 lw 1077 339 m20 6 lw 3 lw 1091 354 m20 6 lw 3 lw 1104 350 m20 6 lw 3 lw 1118 342 m20 6
 lw 3 lw 1132 360 m20 6 lw 3 lw 1145 322 m20 6 lw 3 lw 1159 325 m20 6 lw 3 lw 1172 318 m20 6 lw 3 lw 1186 310 m20 6 lw 3 lw 1200 311 m20 6 lw 3 lw 1213 298 m20 6 lw 3 lw 1227 303 m20 6 lw 3 lw 1240 311 m20 6 lw 3 lw 1254 309 m20 6 lw 3 lw 1268 308
 m20 6 lw 3 lw 1281 306 m20 6 lw 3 lw 1295 290 m20 6 lw 3 lw 1308 286 m20 6 lw 3 lw 1322 295 m20 6 lw 3 lw 1336 284 m20 6 lw 3 lw 1349 300 m20 6 lw 3 lw 1363 274 m20 6 lw 3 lw 1377 273 m20 6 lw 3 lw 1390 281 m20 6 lw 3 lw 1404 276 m20 6 lw 3 lw 1417
 268 m20 6 lw 3 lw 1431 266 m20 6 lw 3 lw 1445 255 m20 6 lw 3 lw 1458 268 m20 6 lw 3 lw 1472 268 m20 6 lw 3 lw 1485 259 m20 6 lw 3 lw 1499 259 m20 6 lw 3 lw 1513 260 m20 6 lw 3 lw 1526 256 m20 6 lw 3 lw 1540 249 m20 6 lw 3 lw 1553 253 m20 6 lw 3 lw
 1567 253 m20 6 lw 3 lw 1581 253 m20 6 lw 3 lw 1594 256 m20 6 lw 3 lw 1608 244 m20 6 lw 3 lw 1621 255 m20 6 lw 3 lw 1635 243 m20 6 lw 3 lw 1649 248 m20 6 lw 3 lw 1662 244 m20 6 lw 3 lw 1676 245 m20 6 lw 3 lw 1689 243 m20 6 lw 3 lw 1703 244 m20 6 lw 3
 lw 1717 251 m20 6 lw 3 lw 1730 242 m20 6 lw 3 lw 1744 239 m20 6 lw 3 lw 1757 245 m20 6 lw 3 lw 1771 246 m20 6 lw 3 lw 1785 239 m20 6 lw 3 lw 1798 242 m20 6 lw 3 lw 1812 239 m20 6 lw 3 lw 1826 238 m20 6 lw 3 lw 1839 243 m20 6 lw 3 lw 1853 240 m20 6
 lw 3 lw 1866 237 m20 6 lw 3 lw 1880 236 m20 6 lw 3 lw 1894 236 m20 6 lw 3 lw 1907 241 m20 6 lw 3 lw 1921 233 m20 6 lw 3 lw 1934 234 m20 6 lw 3 lw 1948 240 m20 6 lw 3 lw 1962 236 m20 6 lw 3 lw 1975 234 m20 6 lw 3 lw 1989 233 m20 6 lw 3 lw 2002 233
 m20 6 lw 3 lw 2016 233 m20 6 lw 3 lw 2030 234 m20 6 lw 3 lw 2043 236 m20 6 lw 3 lw 2057 236 m20 6 lw 3 lw 2070 232 m20 6 lw 3 lw 2084 234 m20 6 lw 3 lw 2098 231 m20 6 lw 3 lw 2111 232 m20 6 lw 3 lw 2125 234 m20 6 lw 3 lw 2138 234 m20 6 lw 3 lw 2152
 232 m20 6 lw 3 lw 2166 232 m20 6 lw 3 lw 2179 232 m20 6 lw 3 lw 2193 232 m20 6 lw black 3 lw 295 231 m 1905 X s 295 269 m -38 Y s 349 250 m -19 Y s 404 250 m -19 Y s 458 250 m -19 Y s 513 250 m -19 Y s 567 269 m -38 Y s 621 250 m -19 Y s 676 250 m
 -19 Y s 730 250 m -19 Y s 785 250 m -19 Y s 839 269 m -38 Y s 893 250 m -19 Y s 948 250 m -19 Y s 1002 250 m -19 Y s 1057 250 m -19 Y s 1111 269 m -38 Y s 1166 250 m -19 Y s 1220 250 m -19 Y s 1274 250 m -19 Y s 1329 250 m -19 Y s 1383 269 m -38 Y s
 1438 250 m -19 Y s 1492 250 m -19 Y s 1547 250 m -19 Y s 1601 250 m -19 Y s 1655 269 m -38 Y s 1710 250 m -19 Y s 1764 250 m -19 Y s 1819 250 m -19 Y s 1873 250 m -19 Y s 1928 269 m -38 Y s 1982 250 m -19 Y s 2036 250 m -19 Y s 2091 250 m -19 Y s
 2145 250 m -19 Y s 2200 269 m -38 Y s
 gsave  2268 1538 0 0 C 267.173 162.911 t 0 r /Helvetica findfont 71.6807 sf 0 0 m (0.1) show NC gr 
 gsave  2268 1538 0 0 C 231.333 162.911 t 0 r /Symbol findfont 71.6807 sf 0 0 m (-) show NC gr 
 gsave  2268 1538 0 0 C 547.38 162.911 t 0 r /Helvetica findfont 71.6807 sf 0 0 m (0) show NC gr 
 gsave  2268 1538 0 0 C 795.004 162.911 t 0 r /Helvetica findfont 71.6807 sf 0 0 m (0.1) show NC gr 
 gsave  2268 1538 0 0 C 1062.18 162.911 t 0 r /Helvetica findfont 71.6807 sf 0 0 m (0.2) show NC gr 
 gsave  2268 1538 0 0 C 1332.61 162.911 t 0 r /Helvetica findfont 71.6807 sf 0 0 m (0.3) show NC gr 
 gsave  2268 1538 0 0 C 1606.3 162.911 t 0 r /Helvetica findfont 71.6807 sf 0 0 m (0.4) show NC gr 
 gsave  2268 1538 0 0 C 1876.73 162.911 t 0 r /Helvetica findfont 71.6807 sf 0 0 m (0.5) show NC gr 
 gsave  2268 1538 0 0 C 2150.42 162.911 t 0 r /Helvetica findfont 71.6807 sf 0 0 m (0.6) show NC gr 
 gsave  2268 1538 0 0 C 2095.03 19.5493 t 0 r /Helvetica findfont 48.8732 sf 0 0 m (Tile0) show NC gr 
 gsave  2268 1538 0 0 C 2075.48 42.3568 t 0 r /Helvetica findfont 71.6807 sf 0 0 m (f) show NC gr  295 1507 m 1905 X s 295 1468 m 39 Y s 349 1488 m 19 Y s 404 1488 m 19 Y s 458 1488 m 19 Y s 513 1488 m 19 Y s 567 1468 m 39 Y s 621 1488 m 19 Y s 676
 1488 m 19 Y s 730 1488 m 19 Y s 785 1488 m 19 Y s 839 1468 m 39 Y s 893 1488 m 19 Y s 948 1488 m 19 Y s 1002 1488 m 19 Y s 1057 1488 m 19 Y s 1111 1468 m 39 Y s 1166 1488 m 19 Y s 1220 1488 m 19 Y s 1274 1488 m 19 Y s 1329 1488 m 19 Y s 1383 1468 m
 39 Y s 1438 1488 m 19 Y s 1492 1488 m 19 Y s 1547 1488 m 19 Y s 1601 1488 m 19 Y s 1655 1468 m 39 Y s 1710 1488 m 19 Y s 1764 1488 m 19 Y s 1819 1488 m 19 Y s 1873 1488 m 19 Y s 1928 1468 m 39 Y s 1982 1488 m 19 Y s 2036 1488 m 19 Y s 2091 1488 m 19
 Y s 2145 1488 m 19 Y s 2200 1468 m 39 Y s 295 231 m 1276 Y s 351 231 m -56 X s 323 279 m -28 X s 323 327 m -28 X s 323 375 m -28 X s 351 423 m -56 X s 323 471 m -28 X s 323 519 m -28 X s 323 567 m -28 X s 351 615 m -56 X s 323 663 m -28 X s 323 711
 m -28 X s 323 759 m -28 X s 351 807 m -56 X s 323 855 m -28 X s 323 903 m -28 X s 323 951 m -28 X s 351 999 m -56 X s 323 1047 m -28 X s 323 1095 m -28 X s 323 1143 m -28 X s 351 1191 m -56 X s 323 1239 m -28 X s 323 1287 m -28 X s 323 1335 m -28 X
 s 351 1383 m -56 X s 351 1383 m -56 X s 323 1431 m -28 X s 323 1479 m -28 X s
 gsave  2268 1538 0 0 C 244.366 205.267 t 0 r /Helvetica findfont 71.6807 sf 0 0 m (0) show NC gr 
 gsave  2268 1538 0 0 C 146.62 397.502 t 0 r /Helvetica findfont 71.6807 sf 0 0 m (0.02) show NC gr 
 gsave  2268 1538 0 0 C 146.62 589.737 t 0 r /Helvetica findfont 71.6807 sf 0 0 m (0.04) show NC gr 
 gsave  2268 1538 0 0 C 146.62 781.971 t 0 r /Helvetica findfont 71.6807 sf 0 0 m (0.06) show NC gr 
 gsave  2268 1538 0 0 C 146.62 974.206 t 0 r /Helvetica findfont 71.6807 sf 0 0 m (0.08) show NC gr 
 gsave  2268 1538 0 0 C 198.751 1166.44 t 0 r /Helvetica findfont 71.6807 sf 0 0 m (0.1) show NC gr 
 gsave  2268 1538 0 0 C 146.62 1358.67 t 0 r /Helvetica findfont 71.6807 sf 0 0 m (0.12) show NC gr 
 gsave  2268 1538 0 0 C 156.394 925.333 t 90 r /Helvetica findfont 71.6807 sf 0 0 m (Normalized entries) show NC gr  2200 231 m 1276 Y s 2143 231 m 57 X s 2171 279 m 29 X s 2171 327 m 29 X s 2171 375 m 29 X s 2143 423 m 57 X s 2171 471 m 29 X s 2171
 519 m 29 X s 2171 567 m 29 X s 2143 615 m 57 X s 2171 663 m 29 X s 2171 711 m 29 X s 2171 759 m 29 X s 2143 807 m 57 X s 2171 855 m 29 X s 2171 903 m 29 X s 2171 951 m 29 X s 2143 999 m 57 X s 2171 1047 m 29 X s 2171 1095 m 29 X s 2171 1143 m 29 X s
 2143 1191 m 57 X s 2171 1239 m 29 X s 2171 1287 m 29 X s 2171 1335 m 29 X s 2143 1383 m 57 X s 2143 1383 m 57 X s 2171 1431 m 29 X s 2171 1479 m 29 X s 1 0 0 c 6 lw 1 1 1 c 1 0 0 c 3 lw 383 231 m20 6 lw 3 lw 397 231 m20 6 lw 3 lw 424 231 m20 6 lw 3
 lw 438 231 m20 6 lw 3 lw 451 231 m20 6 lw 3 lw 465 231 m20 6 lw 3 lw 478 231 m20 6 lw 3 lw 492 231 m20 6 lw 3 lw 506 232 m20 6 lw 3 lw 519 232 m20 6 lw 3 lw 533 234 m20 6 lw 3 lw 547 236 m20 6 lw 3 lw 560 251 m20 6 lw 3 lw 574 275 m20 6 lw 3 lw 587
 268 m20 6 lw 3 lw 601 288 m20 6 lw 3 lw 615 308 m20 6 lw 3 lw 628 315 m20 6 lw 3 lw 642 318 m20 6 lw 3 lw 655 339 m20 6 lw 3 lw 669 340 m20 6 lw 3 lw 683 357 m20 6 lw 3 lw 696 365 m20 6 lw 3 lw 710 370 m20 6 lw 3 lw 723 373 m20 6 lw 3 lw 737 400 m20
 6 lw 3 lw 751 414 m20 6 lw 3 lw 764 408 m20 6 lw 3 lw 778 415 m20 6 lw 3 lw 791 434 m20 6 lw 3 lw 805 430 m20 6 lw 3 lw 819 435 m20 6 lw 3 lw 832 439 m20 6 lw 3 lw 846 452 m20 6 lw 3 lw 859 438 m20 6 lw 3 lw 873 451 m20 6 lw 3 lw 887 440 m20 6 lw 3
 lw 900 456 m20 6 lw 3 lw 914 447 m20 6 lw 3 lw 927 440 m20 6 lw 3 lw 941 438 m20 6 lw 3 lw 955 434 m20 6 lw 3 lw 968 445 m20 6 lw 3 lw 982 428 m20 6 lw 3 lw 996 425 m20 6 lw 3 lw 1009 427 m20 6 lw 3 lw 1023 416 m20 6 lw 3 lw 1036 410 m20 6 lw 3 lw
 1050 403 m20 6 lw 3 lw 1064 400 m20 6 lw 3 lw 1077 394 m20 6 lw 3 lw 1091 392 m20 6 lw 3 lw 1104 381 m20 6 lw 3 lw 1118 378 m20 6 lw 3 lw 1132 374 m20 6 lw 3 lw 1145 367 m20 6 lw 3 lw 1159 363 m20 6 lw 3 lw 1172 356 m20 6 lw 3 lw 1186 351 m20 6 lw 3
 lw 1200 346 m20 6 lw 3 lw 1213 342 m20 6 lw 3 lw 1227 333 m20 6 lw 3 lw 1240 325 m20 6 lw 3 lw 1254 328 m20 6 lw 3 lw 1268 328 m20 6 lw 3 lw 1281 321 m20 6 lw 3 lw 1295 319 m20 6 lw 3 lw 1308 311 m20 6 lw 3 lw 1322 310 m20 6 lw 3 lw 1336 304 m20 6
 lw 3 lw 1349 302 m20 6 lw 3 lw 1363 296 m20 6 lw 3 lw 1377 289 m20 6 lw 3 lw 1390 287 m20 6 lw 3 lw 1404 290 m20 6 lw 3 lw 1417 280 m20 6 lw 3 lw 1431 280 m20 6 lw 3 lw 1445 277 m20 6 lw 3 lw 1458 276 m20 6 lw 3 lw 1472 271 m20 6 lw 3 lw 1485 274
 m20 6 lw 3 lw 1499 267 m20 6 lw 3 lw 1513 266 m20 6 lw 3 lw 1526 259 m20 6 lw 3 lw 1540 262 m20 6 lw 3 lw 1553 259 m20 6 lw 3 lw 1567 260 m20 6 lw 3 lw 1581 255 m20 6 lw 3 lw 1594 253 m20 6 lw 3 lw 1608 249 m20 6 lw 3 lw 1621 250 m20 6 lw 3 lw 1635
 253 m20 6 lw 3 lw 1649 252 m20 6 lw 3 lw 1662 250 m20 6 lw 3 lw 1676 249 m20 6 lw 3 lw 1689 247 m20 6 lw 3 lw 1703 247 m20 6 lw 3 lw 1717 245 m20 6 lw 3 lw 1730 242 m20 6 lw 3 lw 1744 241 m20 6 lw 3 lw 1757 243 m20 6 lw 3 lw 1771 242 m20 6 lw 3 lw
 1785 240 m20 6 lw 3 lw 1798 239 m20 6 lw 3 lw 1812 237 m20 6 lw 3 lw 1826 240 m20 6 lw 3 lw 1839 240 m20 6 lw 3 lw 1853 236 m20 6 lw 3 lw 1866 236 m20 6 lw 3 lw 1880 237 m20 6 lw 3 lw 1894 237 m20 6 lw 3 lw 1907 236 m20 6 lw 3 lw 1921 235 m20 6 lw 3
 lw 1934 236 m20 6 lw 3 lw 1948 234 m20 6 lw 3 lw 1962 235 m20 6 lw 3 lw 1975 235 m20 6 lw 3 lw 1989 235 m20 6 lw 3 lw 2002 233 m20 6 lw 3 lw 2016 234 m20 6 lw 3 lw 2030 232 m20 6 lw 3 lw 2043 233 m20 6 lw 3 lw 2057 233 m20 6 lw 3 lw 2070 232 m20 6
 lw 3 lw 2084 232 m20 6 lw 3 lw 2098 233 m20 6 lw 3 lw 2111 233 m20 6 lw 3 lw 2125 232 m20 6 lw 3 lw 2138 232 m20 6 lw 3 lw 2152 232 m20 6 lw 3 lw 2166 232 m20 6 lw 3 lw 2179 232 m20 6 lw 3 lw 2193 231 m20 6 lw black 1 1 1 c black 3 lw 506 231 m20 6
 lw 3 lw 560 231 m20 6 lw 3 lw 574 235 m20 6 lw 3 lw 587 240 m20 6 lw 3 lw 601 245 m20 6 lw 3 lw 615 248 m20 6 lw 3 lw 628 255 m20 6 lw 3 lw 642 267 m20 6 lw 3 lw 655 262 m20 6 lw 3 lw 669 274 m20 6 lw 3 lw 683 282 m20 6 lw 3 lw 696 280 m20 6 lw 3 lw
 710 297 m20 6 lw 3 lw 723 304 m20 6 lw 3 lw 737 311 m20 6 lw 3 lw 751 323 m20 6 lw 3 lw 764 338 m20 6 lw 3 lw 778 350 m20 6 lw 3 lw 791 356 m20 6 lw 3 lw 805 372 m20 6 lw 3 lw 819 378 m20 6 lw 3 lw 832 396 m20 6 lw 3 lw 846 412 m20 6 lw 3 lw 859 426
 m20 6 lw 3 lw 873 448 m20 6 lw 3 lw 887 433 m20 6 lw 3 lw 900 444 m20 6 lw 3 lw 914 445 m20 6 lw 3 lw 927 469 m20 6 lw 3 lw 941 468 m20 6 lw 3 lw 955 456 m20 6 lw 3 lw 968 466 m20 6 lw 3 lw 982 474 m20 6 lw 3 lw 996 483 m20 6 lw 3 lw 1009 475 m20 6
 lw 3 lw 1023 483 m20 6 lw 3 lw 1036 458 m20 6 lw 3 lw 1050 485 m20 6 lw 3 lw 1064 478 m20 6 lw 3 lw 1077 458 m20 6 lw 3 lw 1091 450 m20 6 lw 3 lw 1104 432 m20 6 lw 3 lw 1118 443 m20 6 lw 3 lw 1132 439 m20 6 lw 3 lw 1145 420 m20 6 lw 3 lw 1159 425
 m20 6 lw 3 lw 1172 410 m20 6 lw 3 lw 1186 408 m20 6 lw 3 lw 1200 378 m20 6 lw 3 lw 1213 384 m20 6 lw 3 lw 1227 381 m20 6 lw 3 lw 1240 374 m20 6 lw 3 lw 1254 363 m20 6 lw 3 lw 1268 358 m20 6 lw 3 lw 1281 348 m20 6 lw 3 lw 1295 343 m20 6 lw 3 lw 1308
 339 m20 6 lw 3 lw 1322 320 m20 6 lw 3 lw 1336 316 m20 6 lw 3 lw 1349 315 m20 6 lw 3 lw 1363 310 m20 6 lw 3 lw 1377 297 m20 6 lw 3 lw 1390 297 m20 6 lw 3 lw 1404 301 m20 6 lw 3 lw 1417 295 m20 6 lw 3 lw 1431 292 m20 6 lw 3 lw 1445 281 m20 6 lw 3 lw
 1458 286 m20 6 lw 3 lw 1472 274 m20 6 lw 3 lw 1485 271 m20 6 lw 3 lw 1499 264 m20 6 lw 3 lw 1513 268 m20 6 lw 3 lw 1526 265 m20 6 lw 3 lw 1540 257 m20 6 lw 3 lw 1553 259 m20 6 lw 3 lw 1567 259 m20 6 lw 3 lw 1581 255 m20 6 lw 3 lw 1594 254 m20 6 lw 3
 lw 1608 248 m20 6 lw 3 lw 1621 249 m20 6 lw 3 lw 1635 245 m20 6 lw 3 lw 1649 244 m20 6 lw 3 lw 1662 242 m20 6 lw 3 lw 1676 243 m20 6 lw 3 lw 1689 244 m20 6 lw 3 lw 1703 240 m20 6 lw 3 lw 1717 242 m20 6 lw 3 lw 1730 239 m20 6 lw 3 lw 1744 238 m20 6
 lw 3 lw 1757 239 m20 6 lw 3 lw 1771 238 m20 6 lw 3 lw 1785 237 m20 6 lw 3 lw 1798 237 m20 6 lw 3 lw 1812 236 m20 6 lw 3 lw 1826 237 m20 6 lw 3 lw 1839 234 m20 6 lw 3 lw 1853 234 m20 6 lw 3 lw 1866 234 m20 6 lw 3 lw 1880 235 m20 6 lw 3 lw 1894 234
 m20 6 lw 3 lw 1907 232 m20 6 lw 3 lw 1921 234 m20 6 lw 3 lw 1934 233 m20 6 lw 3 lw 1948 234 m20 6 lw 3 lw 1962 232 m20 6 lw 3 lw 1975 232 m20 6 lw 3 lw 1989 232 m20 6 lw 3 lw 2002 237 m20 6 lw 3 lw 2016 232 m20 6 lw 3 lw 2030 234 m20 6 lw 3 lw 2043
 233 m20 6 lw 3 lw 2057 232 m20 6 lw 3 lw 2070 231 m20 6 lw 3 lw 2084 231 m20 6 lw 3 lw 2098 231 m20 6 lw 3 lw 2111 232 m20 6 lw 3 lw 2125 232 m20 6 lw 3 lw 2138 231 m20 6 lw 3 lw 2152 232 m20 6 lw 3 lw 2166 231 m20 6 lw 3 lw 2179 231 m20 6 lw 3 lw
 2193 231 m20 6 lw 0 0.6 0 c 1 1 1 c 0 0.6 0 c 3 lw 574 233 m20 6 lw 3 lw 587 237 m20 6 lw 3 lw 601 241 m20 6 lw 3 lw 615 245 m20 6 lw 3 lw 628 250 m20 6 lw 3 lw 642 254 m20 6 lw 3 lw 655 258 m20 6 lw 3 lw 669 266 m20 6 lw 3 lw 683 270 m20 6 lw 3 lw
 696 285 m20 6 lw 3 lw 710 283 m20 6 lw 3 lw 723 290 m20 6 lw 3 lw 737 299 m20 6 lw 3 lw 751 311 m20 6 lw 3 lw 764 316 m20 6 lw 3 lw 778 330 m20 6 lw 3 lw 791 345 m20 6 lw 3 lw 805 343 m20 6 lw 3 lw 819 360 m20 6 lw 3 lw 832 365 m20 6 lw 3 lw 846 375
 m20 6 lw 3 lw 859 388 m20 6 lw 3 lw 873 408 m20 6 lw 3 lw 887 410 m20 6 lw 3 lw 900 417 m20 6 lw 3 lw 914 444 m20 6 lw 3 lw 927 456 m20 6 lw 3 lw 941 455 m20 6 lw 3 lw 955 470 m20 6 lw 3 lw 968 479 m20 6 lw 3 lw 982 483 m20 6 lw 3 lw 996 481 m20 6
 lw 3 lw 1009 500 m20 6 lw 3 lw 1023 500 m20 6 lw 3 lw 1036 490 m20 6 lw 3 lw 1050 488 m20 6 lw 3 lw 1064 489 m20 6 lw 3 lw 1077 480 m20 6 lw 3 lw 1091 468 m20 6 lw 3 lw 1104 479 m20 6 lw 3 lw 1118 476 m20 6 lw 3 lw 1132 452 m20 6 lw 3 lw 1145 448
 m20 6 lw 3 lw 1159 440 m20 6 lw 3 lw 1172 434 m20 6 lw 3 lw 1186 411 m20 6 lw 3 lw 1200 411 m20 6 lw 3 lw 1213 411 m20 6 lw 3 lw 1227 403 m20 6 lw 3 lw 1240 387 m20 6 lw 3 lw 1254 373 m20 6 lw 3 lw 1268 367 m20 6 lw 3 lw 1281 362 m20 6 lw 3 lw 1295
 354 m20 6 lw 3 lw 1308 343 m20 6 lw 3 lw 1322 336 m20 6 lw 3 lw 1336 324 m20 6 lw 3 lw 1349 319 m20 6 lw 3 lw 1363 313 m20 6 lw 3 lw 1377 309 m20 6 lw 3 lw 1390 298 m20 6 lw 3 lw 1404 289 m20 6 lw 3 lw 1417 293 m20 6 lw 3 lw 1431 292 m20 6 lw 3 lw
 1445 280 m20 6 lw 3 lw 1458 275 m20 6 lw 3 lw 1472 273 m20 6 lw 3 lw 1485 270 m20 6 lw 3 lw 1499 265 m20 6 lw 3 lw 1513 262 m20 6 lw 3 lw 1526 261 m20 6 lw 3 lw 1540 259 m20 6 lw 3 lw 1553 256 m20 6 lw 3 lw 1567 253 m20 6 lw 3 lw 1581 253 m20 6 lw 3
 lw 1594 250 m20 6 lw 3 lw 1608 249 m20 6 lw 3 lw 1621 245 m20 6 lw 3 lw 1635 246 m20 6 lw 3 lw 1649 244 m20 6 lw 3 lw 1662 243 m20 6 lw 3 lw 1676 241 m20 6 lw 3 lw 1689 242 m20 6 lw 3 lw 1703 239 m20 6 lw 3 lw 1717 239 m20 6 lw 3 lw 1730 240 m20 6
 lw 3 lw 1744 237 m20 6 lw 3 lw 1757 236 m20 6 lw 3 lw 1771 238 m20 6 lw 3 lw 1785 235 m20 6 lw 3 lw 1798 234 m20 6 lw 3 lw 1812 235 m20 6 lw 3 lw 1826 235 m20 6 lw 3 lw 1839 235 m20 6 lw 3 lw 1853 236 m20 6 lw 3 lw 1866 235 m20 6 lw 3 lw 1880 234
 m20 6 lw 3 lw 1894 233 m20 6 lw 3 lw 1907 233 m20 6 lw 3 lw 1921 232 m20 6 lw 3 lw 1934 232 m20 6 lw 3 lw 1948 232 m20 6 lw 3 lw 1962 232 m20 6 lw 3 lw 1975 231 m20 6 lw 3 lw 1989 232 m20 6 lw 3 lw 2002 232 m20 6 lw 3 lw 2016 231 m20 6 lw 3 lw 2030
 232 m20 6 lw 3 lw 2043 232 m20 6 lw 3 lw 2057 232 m20 6 lw 3 lw 2070 232 m20 6 lw 3 lw 2084 232 m20 6 lw 3 lw 2098 231 m20 6 lw 3 lw 2111 231 m20 6 lw 3 lw 2125 231 m20 6 lw 3 lw 2138 231 m20 6 lw 3 lw 2152 231 m20 6 lw 3 lw 2166 231 m20 6 lw 3 lw
 2179 231 m20 6 lw 3 lw 2193 231 m20 6 lw black
 gsave  2268 1538 0 0 C 1648.66 1394.52 t 0 r /Helvetica-Bold findfont 48.8732 sf 0 0 m ( < 40 GeV) show NC gr 
 gsave  2268 1538 0 0 C 1573.72 1420.58 t 0 r /Helvetica-Bold findfont 32.5821 sf 0 0 m (truth) show NC gr 
 gsave  2268 1538 0 0 C 1573.72 1368.45 t 0 r /Helvetica-Bold findfont 32.5821 sf 0 0 m (T) show NC gr 
 gsave  2268 1538 0 0 C 1433.61 1394.52 t 0 r /Helvetica-Bold findfont 48.8732 sf 0 0 m (30 < p) show NC gr  0 0 1 c 1275 1413 m 131 X s 3 lw 1341 1413 m20 6 lw black
 gsave  2268 1538 0 0 C 1648.66 1296.77 t 0 r /Helvetica-Bold findfont 48.8732 sf 0 0 m ( < 100 GeV) show NC gr 
 gsave  2268 1538 0 0 C 1573.72 1322.83 t 0 r /Helvetica-Bold findfont 32.5821 sf 0 0 m (truth) show NC gr 
 gsave  2268 1538 0 0 C 1573.72 1270.7 t 0 r /Helvetica-Bold findfont 32.5821 sf 0 0 m (T) show NC gr 
 gsave  2268 1538 0 0 C 1433.61 1296.77 t 0 r /Helvetica-Bold findfont 48.8732 sf 0 0 m (80 < p) show NC gr  1 0 0 c 1275 1317 m 131 X s 3 lw 1341 1317 m20 6 lw black
 gsave  2268 1538 0 0 C 1674.72 1202.28 t 0 r /Helvetica-Bold findfont 48.8732 sf 0 0 m ( < 400 GeV) show NC gr 
 gsave  2268 1538 0 0 C 1599.78 1228.35 t 0 r /Helvetica-Bold findfont 32.5821 sf 0 0 m (truth) show NC gr 
 gsave  2268 1538 0 0 C 1599.78 1176.21 t 0 r /Helvetica-Bold findfont 32.5821 sf 0 0 m (T) show NC gr 
 gsave  2268 1538 0 0 C 1433.61 1202.28 t 0 r /Helvetica-Bold findfont 48.8732 sf 0 0 m (350 < p) show NC gr  1275 1221 m 131 X s 3 lw 1341 1221 m20 6 lw
 gsave  2268 1538 0 0 C 1704.05 1104.53 t 0 r /Helvetica-Bold findfont 48.8732 sf 0 0 m ( < 1200 GeV) show NC gr 
 gsave  2268 1538 0 0 C 1629.11 1130.6 t 0 r /Helvetica-Bold findfont 32.5821 sf 0 0 m (truth) show NC gr 
 gsave  2268 1538 0 0 C 1629.11 1078.47 t 0 r /Helvetica-Bold findfont 32.5821 sf 0 0 m (T) show NC gr 
 gsave  2268 1538 0 0 C 1433.61 1104.53 t 0 r /Helvetica-Bold findfont 48.8732 sf 0 0 m (1000 < p) show NC gr  0 0.6 0 c 1275 1125 m 131 X s 3 lw 1341 1125 m20 6 lw black
 gsave  2268 1538 0 0 C 384.469 1417.32 t 0 r /Helvetica-BoldOblique findfont 61.9061 sf 0 0 m (ATLAS) show NC gr 
 gsave  2268 1538 0 0 C 632.093 1417.32 t 0 r /Helvetica findfont 58.6478 sf 0 0 m (Simulation Internal) show NC gr 
 gsave  2268 1538 0 0 C 746.131 1339.13 t 0 r /Helvetica findfont 58.6478 sf 0 0 m ( = 13 TeV) show NC gr 
 gsave  2268 1538 0 0 C 716.807 1339.13 t 0 r /Helvetica findfont 58.6478 sf 0 0 m (s) show NC gr  697 1372 m 7 -36 d s 3 lw 704 1336 m 6 52 d s 710 1388 m 36 X s
 gsave  2268 1538 0 0 C 384.469 1339.13 t 0 r /Helvetica findfont 58.6478 sf 0 0 m (Pythia Dijet ) show NC gr 
 gsave  2268 1538 0 0 C 384.469 1264.19 t 0 r /Helvetica findfont 58.6478 sf 0 0 m (EM+JES) show NC gr 
 gsave  2268 1538 0 0 C 938.365 1185.99 t 0 r /Helvetica findfont 58.6478 sf 0 0 m (| < 0.3) show NC gr 
 gsave  2268 1538 0 0 C 905.783 1185.99 t 0 r /Symbol findfont 58.6478 sf 0 0 m (h) show NC gr 
 gsave  2268 1538 0 0 C 720.065 1185.99 t 0 r /Helvetica findfont 58.6478 sf 0 0 m (, 0.2 < |) show NC gr 
 gsave  2268 1538 0 0 C 707.032 1169.7 t 0 r /Helvetica findfont 39.0986 sf 0 0 m (t) show NC gr 
 gsave  2268 1538 0 0 C 671.192 1185.99 t 0 r /Helvetica-Oblique findfont 58.6478 sf 0 0 m (k) show NC gr 
 gsave  2268 1538 0 0 C 430.084 1185.99 t 0 r /Helvetica findfont 58.6478 sf 0 0 m (=0.4 anti\255) show NC gr 
 gsave  2268 1538 0 0 C 384.469 1185.99 t 0 r /Helvetica-Oblique findfont 58.6478 sf 0 0 m (R) show NC gr 
 gr  gr showpage
end
%%EOF
