%!PS-Adobe-2.0 EPSF-2.0
%%BoundingBox:  0 0 567 384
%%Title: Tile0_Tile0/Distribution_Tile0_eta_13.eps: c1_n2
%%Creator: ROOT Version 6.22/08
%%CreationDate: Tue Aug  3 22:33:30 2021
%%DocumentNeededResources: ProcSet (FontSetInit)
%%EndComments
%%BeginProlog
80 dict begin
/s {stroke} def /l {lineto} def /m {moveto} def /t {translate} def
/r {rotate} def /rl {roll}  def /R {repeat} def
/d {rlineto} def /rm {rmoveto} def /gr {grestore} def /f {eofill} def
/c {setrgbcolor} def /black {0 setgray} def /sd {setdash} def
/cl {closepath} def /sf {scalefont setfont} def /lw {setlinewidth} def
/box {m dup 0 exch d exch 0 d 0 exch neg d cl} def
/NC{systemdict begin initclip end}def/C{NC box clip newpath}def
/bl {box s} def /bf {gsave box gsave f grestore 1 lw [] 0 sd s grestore} def /Y { 0 exch d} def /X { 0 d} def 
/K {{pop pop 0 moveto} exch kshow} bind def
/ita {/ang 15 def gsave [1 0 ang dup sin exch cos div 1 0 0] concat} def 
/mp {newpath /y exch def /x exch def} def
/side {[w .77 mul w .23 mul] .385 w mul sd w 0 l currentpoint t -144 r} def
/mr {mp x y w2 0 360 arc} def /m24 {mr s} def /m20 {mr f} def
/mb {mp x y w2 add m w2 neg 0 d 0 w neg d w 0 d 0 w d cl} def
/mt {mp x y w2 add m w2 neg w neg d w 0 d cl} def
/w4 {w 4 div} def
/w6 {w 6 div} def
/w8 {w 8 div} def
/m21 {mb f} def /m25 {mb s} def /m22 {mt f} def /m26{mt s} def
/m23 {mp x y w2 sub m w2 w d w neg 0 d cl f} def
/m27 {mp x y w2 add m w3 neg w2 neg d w3 w2 neg d w3 w2 d cl s} def
/m28 {mp x w2 sub y w2 sub w3 add m w3 0 d  0 w3 neg d w3 0 d 0 w3 d w3 0 d  0 w3 d w3 neg 0 d 0 w3 d w3 neg 0 d 0 w3 neg d w3 neg 0 d cl s } def
/m29 {mp gsave x w2 sub y w2 add w3 sub m currentpoint t 4 {side} repeat cl fill gr} def
/m30 {mp gsave x w2 sub y w2 add w3 sub m currentpoint t 4 {side} repeat cl s gr} def
/m31 {mp x y w2 sub m 0 w d x w2 sub y m w 0 d x w2 .707 mul sub y w2 .707 mul add m w 1.44 div w 1.44 div neg d x w2 .707 mul sub y w2 .707 mul sub m w 1.44 div w 1.44 div d s} def
/m32 {mp x y w2 sub m w2 w d w neg 0 d cl s} def
/m33 {mp x y w2 add m w3 neg w2 neg d w3 w2 neg d w3 w2 d cl f} def
/m34 {mp x w2 sub y w2 sub w3 add m w3 0 d  0 w3 neg d w3 0 d 0 w3 d w3 0 d  0 w3 d w3 neg 0 d 0 w3 d w3 neg 0 d 0 w3 neg d w3 neg 0 d cl f } def
/m35 {mp x y w2 add m w2 neg w2 neg d w2 w2 neg d w2 w2 d w2 neg w2 d x y w2 sub m 0 w d x w2 sub y m w 0 d s} def
/m36 {mb x w2 sub y w2 add m w w neg d x w2 sub y w2 sub m w w d s} def
/m37 {mp x y m w4 neg w2 d w4 neg w2 neg d w2 0 d  w4 neg w2 neg d w2 0 d w4 neg w2 d w2 0 d w4 neg w2 d w4 neg w2 neg d cl s} def
/m38 {mp x w4 sub y w2 add m w4 neg w4 neg d 0 w2 neg d w4 w4 neg d w2 0 d w4 w4 d 0 w2 d w4 neg w4 d w2 neg 0 d x y w2 sub m 0 w d x w2 sub y m w 0 d cl s} def
/m39 {mp x y m w4 neg w2 d w4 neg w2 neg d w2 0 d  w4 neg w2 neg d w2 0 d w4 neg w2 d w2 0 d w4 neg w2 d w4 neg w2 neg d cl f} def
/m40 {mp x y m w4 w2 d w4 w4 neg d w2 neg w4 neg d w2 w4 neg d w4 neg w4 neg d w4 neg w2 d w4 neg w2 neg d w4 neg w4 d w2 w4 d w2 neg w4 d w4 w4 d w4 w2 neg d cl s} def
/m41 {mp x y m w4 w2 d w4 w4 neg d w2 neg w4 neg d w2 w4 neg d w4 neg w4 neg d w4 neg w2 d w4 neg w2 neg d w4 neg w4 d w2 w4 d w2 neg w4 d w4 w4 d w4 w2 neg d cl f} def
/m42 {mp x y w2 add m w8 neg w2 -3 4 div mul d w2 -3 4 div mul w8 neg d w2 3 4 div mul w8 neg d w8 w2 -3 4 div mul d w8 w2 3 4 div mul d w2 3 4 div mul w8 d w2 -3 4 div mul w8 d w8 neg w2 3 4 div mul d cl s} def
/m43 {mp x y w2 add m w8 neg w2 -3 4 div mul d w2 -3 4 div mul w8 neg d w2 3 4 div mul w8 neg d w8 w2 -3 4 div mul d w8 w2 3 4 div mul d w2 3 4 div mul w8 d w2 -3 4 div mul w8 d w8 neg w2 3 4 div mul d cl f} def
/m44 {mp x y m w6 neg w2 d w2 2 3 div mul 0 d w6 neg w2 neg d w2 w6 d 0 w2 -2 3 div mul d w2 neg w6 d w6 w2 neg d w2 -2 3 div mul 0 d w6 w2 d w2 neg w6 neg d 0 w2 2 3 div mul d w2 w6 neg d cl s} def
/m45 {mp x y m w6 neg w2 d w2 2 3 div mul 0 d w6 neg w2 neg d w2 w6 d 0 w2 -2 3 div mul d w2 neg w6 d w6 w2 neg d w2 -2 3 div mul 0 d w6 w2 d w2 neg w6 neg d 0 w2 2 3 div mul d w2 w6 neg d cl f} def
/m46 {mp x y w4 add m w4 neg w4 d w4 neg w4 neg d  w4 w4 neg d w4 neg w4 neg d w4 w4 neg d w4 w4 d w4 w4 neg d w4 w4 d w4 neg w4 d w4 w4 d w4 neg w4 d w4 neg w4 neg d cl s} def
/m47 {mp x y w4 add m w4 neg w4 d w4 neg w4 neg d w4 w4 neg d w4 neg w4 neg d  w4 w4 neg d w4 w4 d w4 w4 neg d w4 w4 d w4 neg w4 d w4 w4 d w4 neg w4 d w4 neg w4 neg d cl f} def
/m48 {mp x y w4 add m w4 neg w4 d w4 neg w4 neg d w4 w4 neg d  w4 neg w4 neg d w4 w4 neg d w4 w4 d w4 w4 neg d w4 w4 d w4 neg w4 d w4 w4 d w4 neg w4 d w4 neg w4 neg d  w4 w4 neg d w4 neg w4 neg d w4 neg w4 d w4 w4 d cl f} def
/m49 {mp x w2 sub w3 add y w2 sub w3 add m  0 w3 neg d w3 0 d 0 w3 d w3 0 d 0 w3 d w3 neg 0 d 0 w3 d w3 neg 0 d 0 w3 neg d w3 neg 0 d 0 w3 neg d w3 0 d 0 w3 d w3 0 d 0 w3 neg d w3 neg 0 d cl f } def
/m2 {mp x y w2 sub m 0 w d x w2 sub y m w 0 d s} def
/m5 {mp x w2 .707 mul sub y w2 .707 mul sub m w 1.44 div w 1.44 div d x w2 .707 mul sub y w2 .707 mul add m w 1.44 div w 1.44 div neg d s} def
%%IncludeResource: ProcSet (FontSetInit)
%%IncludeResource: font Times-Roman
%%IncludeResource: font Times-Italic
%%IncludeResource: font Times-Bold
%%IncludeResource: font Times-BoldItalic
%%IncludeResource: font Helvetica
%%IncludeResource: font Helvetica-Oblique
%%IncludeResource: font Helvetica-Bold
%%IncludeResource: font Helvetica-BoldOblique
%%IncludeResource: font Courier
%%IncludeResource: font Courier-Oblique
%%IncludeResource: font Courier-Bold
%%IncludeResource: font Courier-BoldOblique
%%IncludeResource: font Symbol
%%IncludeResource: font ZapfDingbats
/reEncode {exch findfont dup length dict begin {1 index /FID eq  {pop pop} {def} ifelse } forall /Encoding exch def currentdict end dup /FontName get exch definefont pop } def [/Times-Bold /Times-Italic /Times-BoldItalic /Helvetica /Helvetica-Oblique
 /Helvetica-Bold /Helvetica-BoldOblique /Courier /Courier-Oblique /Courier-Bold /Courier-BoldOblique /Times-Roman /AvantGarde-Book /AvantGarde-BookOblique /AvantGarde-Demi /AvantGarde-DemiOblique /Bookman-Demi /Bookman-DemiItalic /Bookman-Light
 /Bookman-LightItalic /Helvetica-Narrow /Helvetica-Narrow-Bold /Helvetica-Narrow-BoldOblique /Helvetica-Narrow-Oblique /NewCenturySchlbk-Roman /NewCenturySchlbk-Bold /NewCenturySchlbk-BoldItalic /NewCenturySchlbk-Italic /Palatino-Bold
 /Palatino-BoldItalic /Palatino-Italic /Palatino-Roman ] {ISOLatin1Encoding reEncode } forall
%%EndProlog
%%BeginSetup
%%EndSetup
newpath  gsave  .25 .25 scale  gsave  0 0 t 1 0 0 c[  ] 0 sd 3 lw 1 1 1 c 2268 1538 0 0 bf black 1 1 1 c 1905 1276 295 231 bf black 1905 1276 295 231 bl 1 1 1 c 1905 1276 295 231 bf black 1905 1276 295 231 bl 0 0 1 c 6 lw 1 1 1 c 0 0 1 c 3 lw /w 31
 def /w2 {w 2 div} def /w3 {w 3 div} def 302 232 m20 6 lw 3 lw 315 234 m20 6 lw 3 lw 329 233 m20 6 lw 3 lw 342 233 m20 6 lw 3 lw 356 232 m20 6 lw 3 lw 370 233 m20 6 lw 3 lw 383 236 m20 6 lw 3 lw 397 234 m20 6 lw 3 lw 410 234 m20 6 lw 3 lw 424 236 m20
 6 lw 3 lw 438 236 m20 6 lw 3 lw 451 237 m20 6 lw 3 lw 465 241 m20 6 lw 3 lw 478 241 m20 6 lw 3 lw 492 253 m20 6 lw 3 lw 506 255 m20 6 lw 3 lw 519 264 m20 6 lw 3 lw 533 288 m20 6 lw 3 lw 547 328 m20 6 lw 560 531 m 1 Y s 560 558 m 1 Y s 3 lw 560 545
 m20 6 lw 574 640 m 3 Y s 574 669 m 3 Y s 3 lw 574 656 m20 6 lw 3 lw 587 447 m20 6 lw 3 lw 601 384 m20 6 lw 3 lw 615 371 m20 6 lw 3 lw 628 368 m20 6 lw 3 lw 642 367 m20 6 lw 3 lw 655 353 m20 6 lw 3 lw 669 333 m20 6 lw 3 lw 683 370 m20 6 lw 3 lw 696
 355 m20 6 lw 3 lw 710 357 m20 6 lw 3 lw 723 338 m20 6 lw 3 lw 737 346 m20 6 lw 3 lw 751 335 m20 6 lw 3 lw 764 337 m20 6 lw 3 lw 778 334 m20 6 lw 3 lw 791 332 m20 6 lw 3 lw 805 323 m20 6 lw 3 lw 819 334 m20 6 lw 3 lw 832 324 m20 6 lw 3 lw 846 315 m20
 6 lw 3 lw 859 329 m20 6 lw 3 lw 873 320 m20 6 lw 3 lw 887 324 m20 6 lw 3 lw 900 315 m20 6 lw 3 lw 914 308 m20 6 lw 3 lw 927 309 m20 6 lw 3 lw 941 299 m20 6 lw 3 lw 955 305 m20 6 lw 3 lw 968 294 m20 6 lw 3 lw 982 288 m20 6 lw 3 lw 996 302 m20 6 lw 3
 lw 1009 296 m20 6 lw 3 lw 1023 288 m20 6 lw 3 lw 1036 294 m20 6 lw 3 lw 1050 289 m20 6 lw 3 lw 1064 275 m20 6 lw 3 lw 1077 278 m20 6 lw 3 lw 1091 282 m20 6 lw 3 lw 1104 275 m20 6 lw 3 lw 1118 273 m20 6 lw 3 lw 1132 265 m20 6 lw 3 lw 1145 271 m20 6
 lw 3 lw 1159 278 m20 6 lw 3 lw 1172 267 m20 6 lw 3 lw 1186 260 m20 6 lw 3 lw 1200 263 m20 6 lw 3 lw 1213 266 m20 6 lw 3 lw 1227 272 m20 6 lw 3 lw 1240 264 m20 6 lw 3 lw 1254 261 m20 6 lw 3 lw 1268 258 m20 6 lw 3 lw 1281 267 m20 6 lw 3 lw 1295 255
 m20 6 lw 3 lw 1308 255 m20 6 lw 3 lw 1322 256 m20 6 lw 3 lw 1336 250 m20 6 lw 3 lw 1349 250 m20 6 lw 3 lw 1363 248 m20 6 lw 3 lw 1377 247 m20 6 lw 3 lw 1390 255 m20 6 lw 3 lw 1404 246 m20 6 lw 3 lw 1417 250 m20 6 lw 3 lw 1431 244 m20 6 lw 3 lw 1445
 250 m20 6 lw 3 lw 1458 248 m20 6 lw 3 lw 1472 247 m20 6 lw 3 lw 1485 245 m20 6 lw 3 lw 1499 249 m20 6 lw 3 lw 1513 248 m20 6 lw 3 lw 1526 250 m20 6 lw 3 lw 1540 245 m20 6 lw 3 lw 1553 246 m20 6 lw 3 lw 1567 248 m20 6 lw 3 lw 1581 243 m20 6 lw 3 lw
 1594 242 m20 6 lw 3 lw 1608 239 m20 6 lw 3 lw 1621 239 m20 6 lw 3 lw 1635 240 m20 6 lw 3 lw 1649 239 m20 6 lw 3 lw 1662 239 m20 6 lw 3 lw 1676 243 m20 6 lw 3 lw 1689 237 m20 6 lw 3 lw 1703 239 m20 6 lw 3 lw 1717 239 m20 6 lw 3 lw 1730 239 m20 6 lw 3
 lw 1744 236 m20 6 lw 3 lw 1757 237 m20 6 lw 3 lw 1771 236 m20 6 lw 3 lw 1785 242 m20 6 lw 3 lw 1798 236 m20 6 lw 3 lw 1812 235 m20 6 lw 3 lw 1826 236 m20 6 lw 3 lw 1839 236 m20 6 lw 3 lw 1853 236 m20 6 lw 3 lw 1866 237 m20 6 lw 3 lw 1880 238 m20 6
 lw 3 lw 1894 234 m20 6 lw 3 lw 1907 234 m20 6 lw 3 lw 1921 235 m20 6 lw 3 lw 1934 234 m20 6 lw 3 lw 1948 239 m20 6 lw 3 lw 1962 233 m20 6 lw 3 lw 1975 236 m20 6 lw 3 lw 1989 233 m20 6 lw 3 lw 2002 232 m20 6 lw 3 lw 2016 235 m20 6 lw 3 lw 2030 235
 m20 6 lw 3 lw 2043 231 m20 6 lw 3 lw 2057 233 m20 6 lw 3 lw 2070 233 m20 6 lw 3 lw 2084 233 m20 6 lw 3 lw 2098 233 m20 6 lw 3 lw 2111 233 m20 6 lw 3 lw 2125 232 m20 6 lw 3 lw 2138 233 m20 6 lw 3 lw 2152 233 m20 6 lw 3 lw 2166 232 m20 6 lw 3 lw 2179
 233 m20 6 lw 3 lw 2193 232 m20 6 lw black 3 lw 295 231 m 1905 X s 295 269 m -38 Y s 349 250 m -19 Y s 404 250 m -19 Y s 458 250 m -19 Y s 513 250 m -19 Y s 567 269 m -38 Y s 621 250 m -19 Y s 676 250 m -19 Y s 730 250 m -19 Y s 785 250 m -19 Y s 839
 269 m -38 Y s 893 250 m -19 Y s 948 250 m -19 Y s 1002 250 m -19 Y s 1057 250 m -19 Y s 1111 269 m -38 Y s 1166 250 m -19 Y s 1220 250 m -19 Y s 1274 250 m -19 Y s 1329 250 m -19 Y s 1383 269 m -38 Y s 1438 250 m -19 Y s 1492 250 m -19 Y s 1547 250
 m -19 Y s 1601 250 m -19 Y s 1655 269 m -38 Y s 1710 250 m -19 Y s 1764 250 m -19 Y s 1819 250 m -19 Y s 1873 250 m -19 Y s 1928 269 m -38 Y s 1982 250 m -19 Y s 2036 250 m -19 Y s 2091 250 m -19 Y s 2145 250 m -19 Y s 2200 269 m -38 Y s
 gsave  2268 1538 0 0 C 267.173 162.911 t 0 r /Helvetica findfont 71.6807 sf 0 0 m (0.1) show NC gr 
 gsave  2268 1538 0 0 C 231.333 162.911 t 0 r /Symbol findfont 71.6807 sf 0 0 m (-) show NC gr 
 gsave  2268 1538 0 0 C 547.38 162.911 t 0 r /Helvetica findfont 71.6807 sf 0 0 m (0) show NC gr 
 gsave  2268 1538 0 0 C 795.004 162.911 t 0 r /Helvetica findfont 71.6807 sf 0 0 m (0.1) show NC gr 
 gsave  2268 1538 0 0 C 1062.18 162.911 t 0 r /Helvetica findfont 71.6807 sf 0 0 m (0.2) show NC gr 
 gsave  2268 1538 0 0 C 1332.61 162.911 t 0 r /Helvetica findfont 71.6807 sf 0 0 m (0.3) show NC gr 
 gsave  2268 1538 0 0 C 1606.3 162.911 t 0 r /Helvetica findfont 71.6807 sf 0 0 m (0.4) show NC gr 
 gsave  2268 1538 0 0 C 1876.73 162.911 t 0 r /Helvetica findfont 71.6807 sf 0 0 m (0.5) show NC gr 
 gsave  2268 1538 0 0 C 2150.42 162.911 t 0 r /Helvetica findfont 71.6807 sf 0 0 m (0.6) show NC gr 
 gsave  2268 1538 0 0 C 2095.03 19.5493 t 0 r /Helvetica findfont 48.8732 sf 0 0 m (Tile0) show NC gr 
 gsave  2268 1538 0 0 C 2075.48 42.3568 t 0 r /Helvetica findfont 71.6807 sf 0 0 m (f) show NC gr  295 1507 m 1905 X s 295 1468 m 39 Y s 349 1488 m 19 Y s 404 1488 m 19 Y s 458 1488 m 19 Y s 513 1488 m 19 Y s 567 1468 m 39 Y s 621 1488 m 19 Y s 676
 1488 m 19 Y s 730 1488 m 19 Y s 785 1488 m 19 Y s 839 1468 m 39 Y s 893 1488 m 19 Y s 948 1488 m 19 Y s 1002 1488 m 19 Y s 1057 1488 m 19 Y s 1111 1468 m 39 Y s 1166 1488 m 19 Y s 1220 1488 m 19 Y s 1274 1488 m 19 Y s 1329 1488 m 19 Y s 1383 1468 m
 39 Y s 1438 1488 m 19 Y s 1492 1488 m 19 Y s 1547 1488 m 19 Y s 1601 1488 m 19 Y s 1655 1468 m 39 Y s 1710 1488 m 19 Y s 1764 1488 m 19 Y s 1819 1488 m 19 Y s 1873 1488 m 19 Y s 1928 1468 m 39 Y s 1982 1488 m 19 Y s 2036 1488 m 19 Y s 2091 1488 m 19
 Y s 2145 1488 m 19 Y s 2200 1468 m 39 Y s 295 231 m 1276 Y s 351 231 m -56 X s 323 260 m -28 X s 323 289 m -28 X s 323 318 m -28 X s 351 347 m -56 X s 323 376 m -28 X s 323 405 m -28 X s 323 435 m -28 X s 351 464 m -56 X s 323 493 m -28 X s 323 522
 m -28 X s 323 551 m -28 X s 351 580 m -56 X s 323 609 m -28 X s 323 639 m -28 X s 323 668 m -28 X s 351 697 m -56 X s 323 726 m -28 X s 323 755 m -28 X s 323 784 m -28 X s 351 813 m -56 X s 323 843 m -28 X s 323 872 m -28 X s 323 901 m -28 X s 351
 930 m -56 X s 323 959 m -28 X s 323 988 m -28 X s 323 1017 m -28 X s 351 1046 m -56 X s 323 1076 m -28 X s 323 1105 m -28 X s 323 1134 m -28 X s 351 1163 m -56 X s 323 1192 m -28 X s 323 1221 m -28 X s 323 1250 m -28 X s 351 1280 m -56 X s 323 1309
 m -28 X s 323 1338 m -28 X s 323 1367 m -28 X s 351 1396 m -56 X s 351 1396 m -56 X s 323 1425 m -28 X s 323 1454 m -28 X s 323 1483 m -28 X s
 gsave  2268 1538 0 0 C 244.366 205.267 t 0 r /Helvetica findfont 71.6807 sf 0 0 m (0) show NC gr 
 gsave  2268 1538 0 0 C 146.62 322.563 t 0 r /Helvetica findfont 71.6807 sf 0 0 m (0.02) show NC gr 
 gsave  2268 1538 0 0 C 146.62 439.859 t 0 r /Helvetica findfont 71.6807 sf 0 0 m (0.04) show NC gr 
 gsave  2268 1538 0 0 C 146.62 557.154 t 0 r /Helvetica findfont 71.6807 sf 0 0 m (0.06) show NC gr 
 gsave  2268 1538 0 0 C 146.62 671.192 t 0 r /Helvetica findfont 71.6807 sf 0 0 m (0.08) show NC gr 
 gsave  2268 1538 0 0 C 198.751 788.488 t 0 r /Helvetica findfont 71.6807 sf 0 0 m (0.1) show NC gr 
 gsave  2268 1538 0 0 C 146.62 905.783 t 0 r /Helvetica findfont 71.6807 sf 0 0 m (0.12) show NC gr 
 gsave  2268 1538 0 0 C 146.62 1023.08 t 0 r /Helvetica findfont 71.6807 sf 0 0 m (0.14) show NC gr 
 gsave  2268 1538 0 0 C 146.62 1137.12 t 0 r /Helvetica findfont 71.6807 sf 0 0 m (0.16) show NC gr 
 gsave  2268 1538 0 0 C 146.62 1254.41 t 0 r /Helvetica findfont 71.6807 sf 0 0 m (0.18) show NC gr 
 gsave  2268 1538 0 0 C 188.976 1371.71 t 0 r /Helvetica findfont 71.6807 sf 0 0 m (0.2) show NC gr 
 gsave  2268 1538 0 0 C 156.394 925.333 t 90 r /Helvetica findfont 71.6807 sf 0 0 m (Normalized entries) show NC gr  2200 231 m 1276 Y s 2143 231 m 57 X s 2171 260 m 29 X s 2171 289 m 29 X s 2171 318 m 29 X s 2143 347 m 57 X s 2171 376 m 29 X s 2171
 405 m 29 X s 2171 435 m 29 X s 2143 464 m 57 X s 2171 493 m 29 X s 2171 522 m 29 X s 2171 551 m 29 X s 2143 580 m 57 X s 2171 609 m 29 X s 2171 639 m 29 X s 2171 668 m 29 X s 2143 697 m 57 X s 2171 726 m 29 X s 2171 755 m 29 X s 2171 784 m 29 X s
 2143 813 m 57 X s 2171 843 m 29 X s 2171 872 m 29 X s 2171 901 m 29 X s 2143 930 m 57 X s 2171 959 m 29 X s 2171 988 m 29 X s 2171 1017 m 29 X s 2143 1046 m 57 X s 2171 1076 m 29 X s 2171 1105 m 29 X s 2171 1134 m 29 X s 2143 1163 m 57 X s 2171 1192
 m 29 X s 2171 1221 m 29 X s 2171 1250 m 29 X s 2143 1280 m 57 X s 2171 1309 m 29 X s 2171 1338 m 29 X s 2171 1367 m 29 X s 2143 1396 m 57 X s 2143 1396 m 57 X s 2171 1425 m 29 X s 2171 1454 m 29 X s 2171 1483 m 29 X s 1 0 0 c 6 lw 1 1 1 c 1 0 0 c 3
 lw 315 231 m20 6 lw 3 lw 397 231 m20 6 lw 3 lw 410 231 m20 6 lw 3 lw 438 231 m20 6 lw 3 lw 465 231 m20 6 lw 3 lw 478 231 m20 6 lw 3 lw 492 231 m20 6 lw 3 lw 506 232 m20 6 lw 3 lw 519 233 m20 6 lw 3 lw 533 234 m20 6 lw 3 lw 547 241 m20 6 lw 3 lw 560
 279 m20 6 lw 3 lw 574 325 m20 6 lw 3 lw 587 300 m20 6 lw 3 lw 601 304 m20 6 lw 3 lw 615 314 m20 6 lw 3 lw 628 328 m20 6 lw 3 lw 642 340 m20 6 lw 3 lw 655 344 m20 6 lw 3 lw 669 349 m20 6 lw 3 lw 683 357 m20 6 lw 3 lw 696 360 m20 6 lw 3 lw 710 363 m20
 6 lw 3 lw 723 364 m20 6 lw 3 lw 737 363 m20 6 lw 3 lw 751 372 m20 6 lw 3 lw 764 376 m20 6 lw 3 lw 778 361 m20 6 lw 3 lw 791 361 m20 6 lw 3 lw 805 362 m20 6 lw 3 lw 819 365 m20 6 lw 3 lw 832 367 m20 6 lw 3 lw 846 359 m20 6 lw 3 lw 859 355 m20 6 lw 3
 lw 873 352 m20 6 lw 3 lw 887 343 m20 6 lw 3 lw 900 342 m20 6 lw 3 lw 914 337 m20 6 lw 3 lw 927 340 m20 6 lw 3 lw 941 338 m20 6 lw 3 lw 955 341 m20 6 lw 3 lw 968 327 m20 6 lw 3 lw 982 329 m20 6 lw 3 lw 996 321 m20 6 lw 3 lw 1009 317 m20 6 lw 3 lw
 1023 322 m20 6 lw 3 lw 1036 313 m20 6 lw 3 lw 1050 312 m20 6 lw 3 lw 1064 306 m20 6 lw 3 lw 1077 302 m20 6 lw 3 lw 1091 299 m20 6 lw 3 lw 1104 297 m20 6 lw 3 lw 1118 299 m20 6 lw 3 lw 1132 289 m20 6 lw 3 lw 1145 289 m20 6 lw 3 lw 1159 284 m20 6 lw 3
 lw 1172 279 m20 6 lw 3 lw 1186 285 m20 6 lw 3 lw 1200 283 m20 6 lw 3 lw 1213 282 m20 6 lw 3 lw 1227 277 m20 6 lw 3 lw 1240 274 m20 6 lw 3 lw 1254 276 m20 6 lw 3 lw 1268 276 m20 6 lw 3 lw 1281 271 m20 6 lw 3 lw 1295 269 m20 6 lw 3 lw 1308 266 m20 6
 lw 3 lw 1322 268 m20 6 lw 3 lw 1336 262 m20 6 lw 3 lw 1349 261 m20 6 lw 3 lw 1363 261 m20 6 lw 3 lw 1377 258 m20 6 lw 3 lw 1390 258 m20 6 lw 3 lw 1404 257 m20 6 lw 3 lw 1417 253 m20 6 lw 3 lw 1431 255 m20 6 lw 3 lw 1445 254 m20 6 lw 3 lw 1458 254
 m20 6 lw 3 lw 1472 252 m20 6 lw 3 lw 1485 252 m20 6 lw 3 lw 1499 251 m20 6 lw 3 lw 1513 251 m20 6 lw 3 lw 1526 250 m20 6 lw 3 lw 1540 246 m20 6 lw 3 lw 1553 245 m20 6 lw 3 lw 1567 245 m20 6 lw 3 lw 1581 245 m20 6 lw 3 lw 1594 245 m20 6 lw 3 lw 1608
 246 m20 6 lw 3 lw 1621 243 m20 6 lw 3 lw 1635 244 m20 6 lw 3 lw 1649 240 m20 6 lw 3 lw 1662 242 m20 6 lw 3 lw 1676 241 m20 6 lw 3 lw 1689 243 m20 6 lw 3 lw 1703 239 m20 6 lw 3 lw 1717 238 m20 6 lw 3 lw 1730 238 m20 6 lw 3 lw 1744 239 m20 6 lw 3 lw
 1757 239 m20 6 lw 3 lw 1771 240 m20 6 lw 3 lw 1785 237 m20 6 lw 3 lw 1798 238 m20 6 lw 3 lw 1812 237 m20 6 lw 3 lw 1826 236 m20 6 lw 3 lw 1839 237 m20 6 lw 3 lw 1853 236 m20 6 lw 3 lw 1866 235 m20 6 lw 3 lw 1880 236 m20 6 lw 3 lw 1894 236 m20 6 lw 3
 lw 1907 236 m20 6 lw 3 lw 1921 235 m20 6 lw 3 lw 1934 234 m20 6 lw 3 lw 1948 235 m20 6 lw 3 lw 1962 234 m20 6 lw 3 lw 1975 234 m20 6 lw 3 lw 1989 234 m20 6 lw 3 lw 2002 233 m20 6 lw 3 lw 2016 234 m20 6 lw 3 lw 2030 233 m20 6 lw 3 lw 2043 233 m20 6
 lw 3 lw 2057 233 m20 6 lw 3 lw 2070 233 m20 6 lw 3 lw 2084 233 m20 6 lw 3 lw 2098 232 m20 6 lw 3 lw 2111 233 m20 6 lw 3 lw 2125 233 m20 6 lw 3 lw 2138 232 m20 6 lw 3 lw 2152 233 m20 6 lw 3 lw 2166 232 m20 6 lw 3 lw 2179 232 m20 6 lw 3 lw 2193 232
 m20 6 lw black 1 1 1 c black 3 lw 560 232 m20 6 lw 3 lw 574 241 m20 6 lw 3 lw 587 243 m20 6 lw 3 lw 601 251 m20 6 lw 3 lw 615 249 m20 6 lw 3 lw 628 262 m20 6 lw 3 lw 642 258 m20 6 lw 3 lw 655 270 m20 6 lw 3 lw 669 276 m20 6 lw 3 lw 683 284 m20 6 lw
 3 lw 696 289 m20 6 lw 3 lw 710 293 m20 6 lw 3 lw 723 292 m20 6 lw 3 lw 737 312 m20 6 lw 3 lw 751 315 m20 6 lw 3 lw 764 319 m20 6 lw 3 lw 778 326 m20 6 lw 3 lw 791 338 m20 6 lw 3 lw 805 329 m20 6 lw 3 lw 819 345 m20 6 lw 3 lw 832 337 m20 6 lw 3 lw
 846 360 m20 6 lw 3 lw 859 362 m20 6 lw 3 lw 873 356 m20 6 lw 3 lw 887 360 m20 6 lw 3 lw 900 350 m20 6 lw 3 lw 914 367 m20 6 lw 3 lw 927 351 m20 6 lw 3 lw 941 361 m20 6 lw 3 lw 955 371 m20 6 lw 3 lw 968 363 m20 6 lw 3 lw 982 358 m20 6 lw 3 lw 996 358
 m20 6 lw 3 lw 1009 347 m20 6 lw 3 lw 1023 351 m20 6 lw 3 lw 1036 348 m20 6 lw 3 lw 1050 336 m20 6 lw 3 lw 1064 349 m20 6 lw 3 lw 1077 340 m20 6 lw 3 lw 1091 339 m20 6 lw 3 lw 1104 333 m20 6 lw 3 lw 1118 332 m20 6 lw 3 lw 1132 332 m20 6 lw 3 lw 1145
 320 m20 6 lw 3 lw 1159 316 m20 6 lw 3 lw 1172 312 m20 6 lw 3 lw 1186 311 m20 6 lw 3 lw 1200 315 m20 6 lw 3 lw 1213 306 m20 6 lw 3 lw 1227 303 m20 6 lw 3 lw 1240 303 m20 6 lw 3 lw 1254 300 m20 6 lw 3 lw 1268 290 m20 6 lw 3 lw 1281 295 m20 6 lw 3 lw
 1295 284 m20 6 lw 3 lw 1308 288 m20 6 lw 3 lw 1322 291 m20 6 lw 3 lw 1336 284 m20 6 lw 3 lw 1349 282 m20 6 lw 3 lw 1363 276 m20 6 lw 3 lw 1377 277 m20 6 lw 3 lw 1390 270 m20 6 lw 3 lw 1404 267 m20 6 lw 3 lw 1417 266 m20 6 lw 3 lw 1431 271 m20 6 lw 3
 lw 1445 261 m20 6 lw 3 lw 1458 263 m20 6 lw 3 lw 1472 264 m20 6 lw 3 lw 1485 260 m20 6 lw 3 lw 1499 254 m20 6 lw 3 lw 1513 259 m20 6 lw 3 lw 1526 264 m20 6 lw 3 lw 1540 255 m20 6 lw 3 lw 1553 259 m20 6 lw 3 lw 1567 251 m20 6 lw 3 lw 1581 251 m20 6
 lw 3 lw 1594 253 m20 6 lw 3 lw 1608 245 m20 6 lw 3 lw 1621 246 m20 6 lw 3 lw 1635 244 m20 6 lw 3 lw 1649 243 m20 6 lw 3 lw 1662 247 m20 6 lw 3 lw 1676 242 m20 6 lw 3 lw 1689 245 m20 6 lw 3 lw 1703 247 m20 6 lw 3 lw 1717 241 m20 6 lw 3 lw 1730 242
 m20 6 lw 3 lw 1744 239 m20 6 lw 3 lw 1757 241 m20 6 lw 3 lw 1771 239 m20 6 lw 3 lw 1785 237 m20 6 lw 3 lw 1798 238 m20 6 lw 3 lw 1812 236 m20 6 lw 3 lw 1826 238 m20 6 lw 3 lw 1839 238 m20 6 lw 3 lw 1853 239 m20 6 lw 3 lw 1866 235 m20 6 lw 3 lw 1880
 237 m20 6 lw 3 lw 1894 235 m20 6 lw 3 lw 1907 236 m20 6 lw 3 lw 1921 234 m20 6 lw 3 lw 1934 235 m20 6 lw 3 lw 1948 234 m20 6 lw 3 lw 1962 237 m20 6 lw 3 lw 1975 236 m20 6 lw 3 lw 1989 234 m20 6 lw 3 lw 2002 234 m20 6 lw 3 lw 2016 233 m20 6 lw 3 lw
 2030 234 m20 6 lw 3 lw 2043 234 m20 6 lw 3 lw 2057 234 m20 6 lw 3 lw 2070 232 m20 6 lw 3 lw 2084 234 m20 6 lw 3 lw 2098 234 m20 6 lw 3 lw 2111 234 m20 6 lw 3 lw 2125 233 m20 6 lw 3 lw 2138 232 m20 6 lw 3 lw 2152 232 m20 6 lw 3 lw 2166 233 m20 6 lw 3
 lw 2179 232 m20 6 lw 3 lw 2193 232 m20 6 lw 0 0.6 0 c 1 1 1 c 0 0.6 0 c 3 lw 560 231 m20 6 lw 3 lw 574 236 m20 6 lw 3 lw 587 242 m20 6 lw 3 lw 601 241 m20 6 lw 3 lw 615 244 m20 6 lw 3 lw 628 245 m20 6 lw 3 lw 642 252 m20 6 lw 3 lw 655 254 m20 6 lw 3
 lw 669 258 m20 6 lw 3 lw 683 260 m20 6 lw 3 lw 696 261 m20 6 lw 3 lw 710 273 m20 6 lw 3 lw 723 274 m20 6 lw 3 lw 737 279 m20 6 lw 3 lw 751 281 m20 6 lw 3 lw 764 277 m20 6 lw 3 lw 778 292 m20 6 lw 3 lw 791 296 m20 6 lw 3 lw 805 301 m20 6 lw 3 lw 819
 304 m20 6 lw 3 lw 832 310 m20 6 lw 3 lw 846 318 m20 6 lw 3 lw 859 321 m20 6 lw 3 lw 873 333 m20 6 lw 3 lw 887 326 m20 6 lw 3 lw 900 342 m20 6 lw 3 lw 914 330 m20 6 lw 3 lw 927 335 m20 6 lw 3 lw 941 340 m20 6 lw 3 lw 955 347 m20 6 lw 3 lw 968 346 m20
 6 lw 3 lw 982 352 m20 6 lw 3 lw 996 355 m20 6 lw 3 lw 1009 349 m20 6 lw 3 lw 1023 347 m20 6 lw 3 lw 1036 352 m20 6 lw 3 lw 1050 361 m20 6 lw 3 lw 1064 356 m20 6 lw 3 lw 1077 349 m20 6 lw 3 lw 1091 350 m20 6 lw 3 lw 1104 354 m20 6 lw 3 lw 1118 346
 m20 6 lw 3 lw 1132 352 m20 6 lw 3 lw 1145 341 m20 6 lw 3 lw 1159 335 m20 6 lw 3 lw 1172 341 m20 6 lw 3 lw 1186 333 m20 6 lw 3 lw 1200 325 m20 6 lw 3 lw 1213 321 m20 6 lw 3 lw 1227 319 m20 6 lw 3 lw 1240 317 m20 6 lw 3 lw 1254 323 m20 6 lw 3 lw 1268
 312 m20 6 lw 3 lw 1281 309 m20 6 lw 3 lw 1295 309 m20 6 lw 3 lw 1308 301 m20 6 lw 3 lw 1322 305 m20 6 lw 3 lw 1336 297 m20 6 lw 3 lw 1349 293 m20 6 lw 3 lw 1363 292 m20 6 lw 3 lw 1377 287 m20 6 lw 3 lw 1390 288 m20 6 lw 3 lw 1404 286 m20 6 lw 3 lw
 1417 283 m20 6 lw 3 lw 1431 279 m20 6 lw 3 lw 1445 279 m20 6 lw 3 lw 1458 274 m20 6 lw 3 lw 1472 275 m20 6 lw 3 lw 1485 274 m20 6 lw 3 lw 1499 273 m20 6 lw 3 lw 1513 271 m20 6 lw 3 lw 1526 262 m20 6 lw 3 lw 1540 262 m20 6 lw 3 lw 1553 263 m20 6 lw 3
 lw 1567 261 m20 6 lw 3 lw 1581 259 m20 6 lw 3 lw 1594 259 m20 6 lw 3 lw 1608 256 m20 6 lw 3 lw 1621 251 m20 6 lw 3 lw 1635 254 m20 6 lw 3 lw 1649 251 m20 6 lw 3 lw 1662 252 m20 6 lw 3 lw 1676 250 m20 6 lw 3 lw 1689 250 m20 6 lw 3 lw 1703 248 m20 6
 lw 3 lw 1717 246 m20 6 lw 3 lw 1730 246 m20 6 lw 3 lw 1744 244 m20 6 lw 3 lw 1757 244 m20 6 lw 3 lw 1771 244 m20 6 lw 3 lw 1785 242 m20 6 lw 3 lw 1798 244 m20 6 lw 3 lw 1812 242 m20 6 lw 3 lw 1826 240 m20 6 lw 3 lw 1839 240 m20 6 lw 3 lw 1853 239
 m20 6 lw 3 lw 1866 241 m20 6 lw 3 lw 1880 237 m20 6 lw 3 lw 1894 239 m20 6 lw 3 lw 1907 236 m20 6 lw 3 lw 1921 237 m20 6 lw 3 lw 1934 237 m20 6 lw 3 lw 1948 236 m20 6 lw 3 lw 1962 237 m20 6 lw 3 lw 1975 236 m20 6 lw 3 lw 1989 237 m20 6 lw 3 lw 2002
 235 m20 6 lw 3 lw 2016 235 m20 6 lw 3 lw 2030 235 m20 6 lw 3 lw 2043 235 m20 6 lw 3 lw 2057 234 m20 6 lw 3 lw 2070 233 m20 6 lw 3 lw 2084 234 m20 6 lw 3 lw 2098 235 m20 6 lw 3 lw 2111 233 m20 6 lw 3 lw 2125 234 m20 6 lw 3 lw 2138 234 m20 6 lw 3 lw
 2152 233 m20 6 lw 3 lw 2166 232 m20 6 lw 3 lw 2179 232 m20 6 lw 3 lw 2193 232 m20 6 lw black
 gsave  2268 1538 0 0 C 1648.66 1394.52 t 0 r /Helvetica-Bold findfont 48.8732 sf 0 0 m ( < 40 GeV) show NC gr 
 gsave  2268 1538 0 0 C 1573.72 1420.58 t 0 r /Helvetica-Bold findfont 32.5821 sf 0 0 m (truth) show NC gr 
 gsave  2268 1538 0 0 C 1573.72 1368.45 t 0 r /Helvetica-Bold findfont 32.5821 sf 0 0 m (T) show NC gr 
 gsave  2268 1538 0 0 C 1433.61 1394.52 t 0 r /Helvetica-Bold findfont 48.8732 sf 0 0 m (30 < p) show NC gr  0 0 1 c 1275 1413 m 131 X s 3 lw 1341 1413 m20 6 lw black
 gsave  2268 1538 0 0 C 1648.66 1296.77 t 0 r /Helvetica-Bold findfont 48.8732 sf 0 0 m ( < 100 GeV) show NC gr 
 gsave  2268 1538 0 0 C 1573.72 1322.83 t 0 r /Helvetica-Bold findfont 32.5821 sf 0 0 m (truth) show NC gr 
 gsave  2268 1538 0 0 C 1573.72 1270.7 t 0 r /Helvetica-Bold findfont 32.5821 sf 0 0 m (T) show NC gr 
 gsave  2268 1538 0 0 C 1433.61 1296.77 t 0 r /Helvetica-Bold findfont 48.8732 sf 0 0 m (80 < p) show NC gr  1 0 0 c 1275 1317 m 131 X s 3 lw 1341 1317 m20 6 lw black
 gsave  2268 1538 0 0 C 1674.72 1202.28 t 0 r /Helvetica-Bold findfont 48.8732 sf 0 0 m ( < 400 GeV) show NC gr 
 gsave  2268 1538 0 0 C 1599.78 1228.35 t 0 r /Helvetica-Bold findfont 32.5821 sf 0 0 m (truth) show NC gr 
 gsave  2268 1538 0 0 C 1599.78 1176.21 t 0 r /Helvetica-Bold findfont 32.5821 sf 0 0 m (T) show NC gr 
 gsave  2268 1538 0 0 C 1433.61 1202.28 t 0 r /Helvetica-Bold findfont 48.8732 sf 0 0 m (350 < p) show NC gr  1275 1221 m 131 X s 3 lw 1341 1221 m20 6 lw
 gsave  2268 1538 0 0 C 1704.05 1104.53 t 0 r /Helvetica-Bold findfont 48.8732 sf 0 0 m ( < 1200 GeV) show NC gr 
 gsave  2268 1538 0 0 C 1629.11 1130.6 t 0 r /Helvetica-Bold findfont 32.5821 sf 0 0 m (truth) show NC gr 
 gsave  2268 1538 0 0 C 1629.11 1078.47 t 0 r /Helvetica-Bold findfont 32.5821 sf 0 0 m (T) show NC gr 
 gsave  2268 1538 0 0 C 1433.61 1104.53 t 0 r /Helvetica-Bold findfont 48.8732 sf 0 0 m (1000 < p) show NC gr  0 0.6 0 c 1275 1125 m 131 X s 3 lw 1341 1125 m20 6 lw black
 gsave  2268 1538 0 0 C 384.469 1417.32 t 0 r /Helvetica-BoldOblique findfont 61.9061 sf 0 0 m (ATLAS) show NC gr 
 gsave  2268 1538 0 0 C 632.093 1417.32 t 0 r /Helvetica findfont 58.6478 sf 0 0 m (Simulation Internal) show NC gr 
 gsave  2268 1538 0 0 C 746.131 1339.13 t 0 r /Helvetica findfont 58.6478 sf 0 0 m ( = 13 TeV) show NC gr 
 gsave  2268 1538 0 0 C 716.807 1339.13 t 0 r /Helvetica findfont 58.6478 sf 0 0 m (s) show NC gr  697 1372 m 7 -36 d s 3 lw 704 1336 m 6 52 d s 710 1388 m 36 X s
 gsave  2268 1538 0 0 C 384.469 1339.13 t 0 r /Helvetica findfont 58.6478 sf 0 0 m (Pythia Dijet ) show NC gr 
 gsave  2268 1538 0 0 C 384.469 1264.19 t 0 r /Helvetica findfont 58.6478 sf 0 0 m (EM+JES) show NC gr 
 gsave  2268 1538 0 0 C 938.365 1185.99 t 0 r /Helvetica findfont 58.6478 sf 0 0 m (| < 1.4) show NC gr 
 gsave  2268 1538 0 0 C 905.783 1185.99 t 0 r /Symbol findfont 58.6478 sf 0 0 m (h) show NC gr 
 gsave  2268 1538 0 0 C 720.065 1185.99 t 0 r /Helvetica findfont 58.6478 sf 0 0 m (, 1.3 < |) show NC gr 
 gsave  2268 1538 0 0 C 707.032 1169.7 t 0 r /Helvetica findfont 39.0986 sf 0 0 m (t) show NC gr 
 gsave  2268 1538 0 0 C 671.192 1185.99 t 0 r /Helvetica-Oblique findfont 58.6478 sf 0 0 m (k) show NC gr 
 gsave  2268 1538 0 0 C 430.084 1185.99 t 0 r /Helvetica findfont 58.6478 sf 0 0 m (=0.4 anti\255) show NC gr 
 gsave  2268 1538 0 0 C 384.469 1185.99 t 0 r /Helvetica-Oblique findfont 58.6478 sf 0 0 m (R) show NC gr 
 gr  gr showpage
end
%%EOF
