%!PS-Adobe-2.0 EPSF-2.0
%%BoundingBox:  0 0 567 384
%%Title: Tile0_Tile0/Distribution_Tile0_eta_0.eps: c1
%%Creator: ROOT Version 6.22/08
%%CreationDate: Tue Aug  3 22:33:27 2021
%%DocumentNeededResources: ProcSet (FontSetInit)
%%EndComments
%%BeginProlog
80 dict begin
/s {stroke} def /l {lineto} def /m {moveto} def /t {translate} def
/r {rotate} def /rl {roll}  def /R {repeat} def
/d {rlineto} def /rm {rmoveto} def /gr {grestore} def /f {eofill} def
/c {setrgbcolor} def /black {0 setgray} def /sd {setdash} def
/cl {closepath} def /sf {scalefont setfont} def /lw {setlinewidth} def
/box {m dup 0 exch d exch 0 d 0 exch neg d cl} def
/NC{systemdict begin initclip end}def/C{NC box clip newpath}def
/bl {box s} def /bf {gsave box gsave f grestore 1 lw [] 0 sd s grestore} def /Y { 0 exch d} def /X { 0 d} def 
/K {{pop pop 0 moveto} exch kshow} bind def
/ita {/ang 15 def gsave [1 0 ang dup sin exch cos div 1 0 0] concat} def 
/mp {newpath /y exch def /x exch def} def
/side {[w .77 mul w .23 mul] .385 w mul sd w 0 l currentpoint t -144 r} def
/mr {mp x y w2 0 360 arc} def /m24 {mr s} def /m20 {mr f} def
/mb {mp x y w2 add m w2 neg 0 d 0 w neg d w 0 d 0 w d cl} def
/mt {mp x y w2 add m w2 neg w neg d w 0 d cl} def
/w4 {w 4 div} def
/w6 {w 6 div} def
/w8 {w 8 div} def
/m21 {mb f} def /m25 {mb s} def /m22 {mt f} def /m26{mt s} def
/m23 {mp x y w2 sub m w2 w d w neg 0 d cl f} def
/m27 {mp x y w2 add m w3 neg w2 neg d w3 w2 neg d w3 w2 d cl s} def
/m28 {mp x w2 sub y w2 sub w3 add m w3 0 d  0 w3 neg d w3 0 d 0 w3 d w3 0 d  0 w3 d w3 neg 0 d 0 w3 d w3 neg 0 d 0 w3 neg d w3 neg 0 d cl s } def
/m29 {mp gsave x w2 sub y w2 add w3 sub m currentpoint t 4 {side} repeat cl fill gr} def
/m30 {mp gsave x w2 sub y w2 add w3 sub m currentpoint t 4 {side} repeat cl s gr} def
/m31 {mp x y w2 sub m 0 w d x w2 sub y m w 0 d x w2 .707 mul sub y w2 .707 mul add m w 1.44 div w 1.44 div neg d x w2 .707 mul sub y w2 .707 mul sub m w 1.44 div w 1.44 div d s} def
/m32 {mp x y w2 sub m w2 w d w neg 0 d cl s} def
/m33 {mp x y w2 add m w3 neg w2 neg d w3 w2 neg d w3 w2 d cl f} def
/m34 {mp x w2 sub y w2 sub w3 add m w3 0 d  0 w3 neg d w3 0 d 0 w3 d w3 0 d  0 w3 d w3 neg 0 d 0 w3 d w3 neg 0 d 0 w3 neg d w3 neg 0 d cl f } def
/m35 {mp x y w2 add m w2 neg w2 neg d w2 w2 neg d w2 w2 d w2 neg w2 d x y w2 sub m 0 w d x w2 sub y m w 0 d s} def
/m36 {mb x w2 sub y w2 add m w w neg d x w2 sub y w2 sub m w w d s} def
/m37 {mp x y m w4 neg w2 d w4 neg w2 neg d w2 0 d  w4 neg w2 neg d w2 0 d w4 neg w2 d w2 0 d w4 neg w2 d w4 neg w2 neg d cl s} def
/m38 {mp x w4 sub y w2 add m w4 neg w4 neg d 0 w2 neg d w4 w4 neg d w2 0 d w4 w4 d 0 w2 d w4 neg w4 d w2 neg 0 d x y w2 sub m 0 w d x w2 sub y m w 0 d cl s} def
/m39 {mp x y m w4 neg w2 d w4 neg w2 neg d w2 0 d  w4 neg w2 neg d w2 0 d w4 neg w2 d w2 0 d w4 neg w2 d w4 neg w2 neg d cl f} def
/m40 {mp x y m w4 w2 d w4 w4 neg d w2 neg w4 neg d w2 w4 neg d w4 neg w4 neg d w4 neg w2 d w4 neg w2 neg d w4 neg w4 d w2 w4 d w2 neg w4 d w4 w4 d w4 w2 neg d cl s} def
/m41 {mp x y m w4 w2 d w4 w4 neg d w2 neg w4 neg d w2 w4 neg d w4 neg w4 neg d w4 neg w2 d w4 neg w2 neg d w4 neg w4 d w2 w4 d w2 neg w4 d w4 w4 d w4 w2 neg d cl f} def
/m42 {mp x y w2 add m w8 neg w2 -3 4 div mul d w2 -3 4 div mul w8 neg d w2 3 4 div mul w8 neg d w8 w2 -3 4 div mul d w8 w2 3 4 div mul d w2 3 4 div mul w8 d w2 -3 4 div mul w8 d w8 neg w2 3 4 div mul d cl s} def
/m43 {mp x y w2 add m w8 neg w2 -3 4 div mul d w2 -3 4 div mul w8 neg d w2 3 4 div mul w8 neg d w8 w2 -3 4 div mul d w8 w2 3 4 div mul d w2 3 4 div mul w8 d w2 -3 4 div mul w8 d w8 neg w2 3 4 div mul d cl f} def
/m44 {mp x y m w6 neg w2 d w2 2 3 div mul 0 d w6 neg w2 neg d w2 w6 d 0 w2 -2 3 div mul d w2 neg w6 d w6 w2 neg d w2 -2 3 div mul 0 d w6 w2 d w2 neg w6 neg d 0 w2 2 3 div mul d w2 w6 neg d cl s} def
/m45 {mp x y m w6 neg w2 d w2 2 3 div mul 0 d w6 neg w2 neg d w2 w6 d 0 w2 -2 3 div mul d w2 neg w6 d w6 w2 neg d w2 -2 3 div mul 0 d w6 w2 d w2 neg w6 neg d 0 w2 2 3 div mul d w2 w6 neg d cl f} def
/m46 {mp x y w4 add m w4 neg w4 d w4 neg w4 neg d  w4 w4 neg d w4 neg w4 neg d w4 w4 neg d w4 w4 d w4 w4 neg d w4 w4 d w4 neg w4 d w4 w4 d w4 neg w4 d w4 neg w4 neg d cl s} def
/m47 {mp x y w4 add m w4 neg w4 d w4 neg w4 neg d w4 w4 neg d w4 neg w4 neg d  w4 w4 neg d w4 w4 d w4 w4 neg d w4 w4 d w4 neg w4 d w4 w4 d w4 neg w4 d w4 neg w4 neg d cl f} def
/m48 {mp x y w4 add m w4 neg w4 d w4 neg w4 neg d w4 w4 neg d  w4 neg w4 neg d w4 w4 neg d w4 w4 d w4 w4 neg d w4 w4 d w4 neg w4 d w4 w4 d w4 neg w4 d w4 neg w4 neg d  w4 w4 neg d w4 neg w4 neg d w4 neg w4 d w4 w4 d cl f} def
/m49 {mp x w2 sub w3 add y w2 sub w3 add m  0 w3 neg d w3 0 d 0 w3 d w3 0 d 0 w3 d w3 neg 0 d 0 w3 d w3 neg 0 d 0 w3 neg d w3 neg 0 d 0 w3 neg d w3 0 d 0 w3 d w3 0 d 0 w3 neg d w3 neg 0 d cl f } def
/m2 {mp x y w2 sub m 0 w d x w2 sub y m w 0 d s} def
/m5 {mp x w2 .707 mul sub y w2 .707 mul sub m w 1.44 div w 1.44 div d x w2 .707 mul sub y w2 .707 mul add m w 1.44 div w 1.44 div neg d s} def
%%IncludeResource: ProcSet (FontSetInit)
%%IncludeResource: font Times-Roman
%%IncludeResource: font Times-Italic
%%IncludeResource: font Times-Bold
%%IncludeResource: font Times-BoldItalic
%%IncludeResource: font Helvetica
%%IncludeResource: font Helvetica-Oblique
%%IncludeResource: font Helvetica-Bold
%%IncludeResource: font Helvetica-BoldOblique
%%IncludeResource: font Courier
%%IncludeResource: font Courier-Oblique
%%IncludeResource: font Courier-Bold
%%IncludeResource: font Courier-BoldOblique
%%IncludeResource: font Symbol
%%IncludeResource: font ZapfDingbats
/reEncode {exch findfont dup length dict begin {1 index /FID eq  {pop pop} {def} ifelse } forall /Encoding exch def currentdict end dup /FontName get exch definefont pop } def [/Times-Bold /Times-Italic /Times-BoldItalic /Helvetica /Helvetica-Oblique
 /Helvetica-Bold /Helvetica-BoldOblique /Courier /Courier-Oblique /Courier-Bold /Courier-BoldOblique /Times-Roman /AvantGarde-Book /AvantGarde-BookOblique /AvantGarde-Demi /AvantGarde-DemiOblique /Bookman-Demi /Bookman-DemiItalic /Bookman-Light
 /Bookman-LightItalic /Helvetica-Narrow /Helvetica-Narrow-Bold /Helvetica-Narrow-BoldOblique /Helvetica-Narrow-Oblique /NewCenturySchlbk-Roman /NewCenturySchlbk-Bold /NewCenturySchlbk-BoldItalic /NewCenturySchlbk-Italic /Palatino-Bold
 /Palatino-BoldItalic /Palatino-Italic /Palatino-Roman ] {ISOLatin1Encoding reEncode } forall
%%EndProlog
%%BeginSetup
%%EndSetup
newpath  gsave  .25 .25 scale  gsave  0 0 t 1 0 0 c[  ] 0 sd 3 lw 1 1 1 c 2268 1538 0 0 bf black 1 1 1 c 1905 1276 295 231 bf black 1905 1276 295 231 bl 1 1 1 c 1905 1276 295 231 bf black 1905 1276 295 231 bl 0 0 1 c 6 lw 1 1 1 c 0 0 1 c 3 lw /w 31
 def /w2 {w 2 div} def /w3 {w 3 div} def 302 233 m20 6 lw 3 lw 315 235 m20 6 lw 3 lw 329 234 m20 6 lw 3 lw 342 233 m20 6 lw 3 lw 356 232 m20 6 lw 3 lw 370 233 m20 6 lw 3 lw 383 237 m20 6 lw 3 lw 397 235 m20 6 lw 3 lw 410 238 m20 6 lw 3 lw 424 240 m20
 6 lw 3 lw 438 241 m20 6 lw 3 lw 451 248 m20 6 lw 3 lw 465 244 m20 6 lw 3 lw 478 247 m20 6 lw 3 lw 492 260 m20 6 lw 3 lw 506 253 m20 6 lw 3 lw 519 268 m20 6 lw 3 lw 533 270 m20 6 lw 3 lw 547 302 m20 6 lw 560 464 m 3 Y s 560 493 m 2 Y s 3 lw 560 480
 m20 6 lw 574 636 m 7 Y s 574 669 m 8 Y s 3 lw 574 656 m20 6 lw 587 396 m s 587 422 m s 3 lw 587 409 m20 6 lw 3 lw 601 378 m20 6 lw 3 lw 615 370 m20 6 lw 3 lw 628 364 m20 6 lw 3 lw 642 386 m20 6 lw 655 408 m 1 Y s 655 435 m 1 Y s 3 lw 655 422 m20 6
 lw 669 412 m 1 Y s 669 439 m 1 Y s 3 lw 669 426 m20 6 lw 683 407 m 1 Y s 683 434 m 1 Y s 3 lw 683 421 m20 6 lw 696 416 m 1 Y s 696 443 m 1 Y s 3 lw 696 430 m20 6 lw 710 420 m 1 Y s 710 447 m 1 Y s 3 lw 710 434 m20 6 lw 723 424 m 1 Y s 723 452 m 1 Y
 s 3 lw 723 439 m20 6 lw 737 416 m 1 Y s 737 443 m 1 Y s 3 lw 737 430 m20 6 lw 751 407 m 1 Y s 751 434 m 1 Y s 3 lw 751 421 m20 6 lw 764 409 m 1 Y s 764 436 m 1 Y s 3 lw 764 423 m20 6 lw 778 425 m 1 Y s 778 453 m 1 Y s 3 lw 778 439 m20 6 lw 791 442 m
 2 Y s 791 470 m 2 Y s 3 lw 791 457 m20 6 lw 805 414 m 1 Y s 805 441 m 1 Y s 3 lw 805 428 m20 6 lw 819 414 m 1 Y s 819 441 m 1 Y s 3 lw 819 428 m20 6 lw 832 427 m 1 Y s 832 454 m 2 Y s 3 lw 832 441 m20 6 lw 846 414 m 1 Y s 846 441 m 1 Y s 3 lw 846
 428 m20 6 lw 859 399 m s 859 425 m s 3 lw 859 412 m20 6 lw 873 405 m 1 Y s 873 432 m s 3 lw 873 419 m20 6 lw 887 402 m s 887 428 m s 3 lw 887 415 m20 6 lw 3 lw 900 399 m20 6 lw 3 lw 914 397 m20 6 lw 927 397 m s 927 423 m s 3 lw 927 410 m20 6 lw 3 lw
 941 382 m20 6 lw 3 lw 955 371 m20 6 lw 3 lw 968 383 m20 6 lw 3 lw 982 398 m20 6 lw 3 lw 996 399 m20 6 lw 3 lw 1009 380 m20 6 lw 3 lw 1023 375 m20 6 lw 3 lw 1036 358 m20 6 lw 3 lw 1050 371 m20 6 lw 3 lw 1064 358 m20 6 lw 3 lw 1077 359 m20 6 lw 3 lw
 1091 368 m20 6 lw 3 lw 1104 361 m20 6 lw 3 lw 1118 360 m20 6 lw 3 lw 1132 330 m20 6 lw 3 lw 1145 338 m20 6 lw 3 lw 1159 329 m20 6 lw 3 lw 1172 331 m20 6 lw 3 lw 1186 337 m20 6 lw 3 lw 1200 308 m20 6 lw 3 lw 1213 327 m20 6 lw 3 lw 1227 316 m20 6 lw 3
 lw 1240 313 m20 6 lw 3 lw 1254 300 m20 6 lw 3 lw 1268 302 m20 6 lw 3 lw 1281 305 m20 6 lw 3 lw 1295 314 m20 6 lw 3 lw 1308 292 m20 6 lw 3 lw 1322 287 m20 6 lw 3 lw 1336 286 m20 6 lw 3 lw 1349 288 m20 6 lw 3 lw 1363 281 m20 6 lw 3 lw 1377 285 m20 6
 lw 3 lw 1390 278 m20 6 lw 3 lw 1404 265 m20 6 lw 3 lw 1417 281 m20 6 lw 3 lw 1431 270 m20 6 lw 3 lw 1445 265 m20 6 lw 3 lw 1458 276 m20 6 lw 3 lw 1472 269 m20 6 lw 3 lw 1485 277 m20 6 lw 3 lw 1499 261 m20 6 lw 3 lw 1513 257 m20 6 lw 3 lw 1526 263
 m20 6 lw 3 lw 1540 259 m20 6 lw 3 lw 1553 252 m20 6 lw 3 lw 1567 255 m20 6 lw 3 lw 1581 252 m20 6 lw 3 lw 1594 254 m20 6 lw 3 lw 1608 245 m20 6 lw 3 lw 1621 254 m20 6 lw 3 lw 1635 252 m20 6 lw 3 lw 1649 249 m20 6 lw 3 lw 1662 245 m20 6 lw 3 lw 1676
 245 m20 6 lw 3 lw 1689 252 m20 6 lw 3 lw 1703 242 m20 6 lw 3 lw 1717 246 m20 6 lw 3 lw 1730 243 m20 6 lw 3 lw 1744 241 m20 6 lw 3 lw 1757 242 m20 6 lw 3 lw 1771 239 m20 6 lw 3 lw 1785 251 m20 6 lw 3 lw 1798 239 m20 6 lw 3 lw 1812 240 m20 6 lw 3 lw
 1826 237 m20 6 lw 3 lw 1839 242 m20 6 lw 3 lw 1853 240 m20 6 lw 3 lw 1866 241 m20 6 lw 3 lw 1880 236 m20 6 lw 3 lw 1894 234 m20 6 lw 3 lw 1907 236 m20 6 lw 3 lw 1921 240 m20 6 lw 3 lw 1934 236 m20 6 lw 3 lw 1948 236 m20 6 lw 3 lw 1962 238 m20 6 lw 3
 lw 1975 240 m20 6 lw 3 lw 1989 234 m20 6 lw 3 lw 2002 236 m20 6 lw 3 lw 2016 237 m20 6 lw 3 lw 2030 237 m20 6 lw 3 lw 2043 241 m20 6 lw 3 lw 2057 236 m20 6 lw 3 lw 2070 236 m20 6 lw 3 lw 2084 234 m20 6 lw 3 lw 2098 235 m20 6 lw 3 lw 2111 231 m20 6
 lw 3 lw 2125 233 m20 6 lw 3 lw 2138 232 m20 6 lw 3 lw 2152 233 m20 6 lw 3 lw 2166 231 m20 6 lw 3 lw 2179 234 m20 6 lw 3 lw 2193 233 m20 6 lw black 3 lw 295 231 m 1905 X s 295 269 m -38 Y s 349 250 m -19 Y s 404 250 m -19 Y s 458 250 m -19 Y s 513
 250 m -19 Y s 567 269 m -38 Y s 621 250 m -19 Y s 676 250 m -19 Y s 730 250 m -19 Y s 785 250 m -19 Y s 839 269 m -38 Y s 893 250 m -19 Y s 948 250 m -19 Y s 1002 250 m -19 Y s 1057 250 m -19 Y s 1111 269 m -38 Y s 1166 250 m -19 Y s 1220 250 m -19
 Y s 1274 250 m -19 Y s 1329 250 m -19 Y s 1383 269 m -38 Y s 1438 250 m -19 Y s 1492 250 m -19 Y s 1547 250 m -19 Y s 1601 250 m -19 Y s 1655 269 m -38 Y s 1710 250 m -19 Y s 1764 250 m -19 Y s 1819 250 m -19 Y s 1873 250 m -19 Y s 1928 269 m -38 Y
 s 1982 250 m -19 Y s 2036 250 m -19 Y s 2091 250 m -19 Y s 2145 250 m -19 Y s 2200 269 m -38 Y s
 gsave  2268 1538 0 0 C 267.173 162.911 t 0 r /Helvetica findfont 71.6807 sf 0 0 m (0.1) show NC gr 
 gsave  2268 1538 0 0 C 231.333 162.911 t 0 r /Symbol findfont 71.6807 sf 0 0 m (-) show NC gr 
 gsave  2268 1538 0 0 C 547.38 162.911 t 0 r /Helvetica findfont 71.6807 sf 0 0 m (0) show NC gr 
 gsave  2268 1538 0 0 C 795.004 162.911 t 0 r /Helvetica findfont 71.6807 sf 0 0 m (0.1) show NC gr 
 gsave  2268 1538 0 0 C 1062.18 162.911 t 0 r /Helvetica findfont 71.6807 sf 0 0 m (0.2) show NC gr 
 gsave  2268 1538 0 0 C 1332.61 162.911 t 0 r /Helvetica findfont 71.6807 sf 0 0 m (0.3) show NC gr 
 gsave  2268 1538 0 0 C 1606.3 162.911 t 0 r /Helvetica findfont 71.6807 sf 0 0 m (0.4) show NC gr 
 gsave  2268 1538 0 0 C 1876.73 162.911 t 0 r /Helvetica findfont 71.6807 sf 0 0 m (0.5) show NC gr 
 gsave  2268 1538 0 0 C 2150.42 162.911 t 0 r /Helvetica findfont 71.6807 sf 0 0 m (0.6) show NC gr 
 gsave  2268 1538 0 0 C 2095.03 19.5493 t 0 r /Helvetica findfont 48.8732 sf 0 0 m (Tile0) show NC gr 
 gsave  2268 1538 0 0 C 2075.48 42.3568 t 0 r /Helvetica findfont 71.6807 sf 0 0 m (f) show NC gr  295 1507 m 1905 X s 295 1468 m 39 Y s 349 1488 m 19 Y s 404 1488 m 19 Y s 458 1488 m 19 Y s 513 1488 m 19 Y s 567 1468 m 39 Y s 621 1488 m 19 Y s 676
 1488 m 19 Y s 730 1488 m 19 Y s 785 1488 m 19 Y s 839 1468 m 39 Y s 893 1488 m 19 Y s 948 1488 m 19 Y s 1002 1488 m 19 Y s 1057 1488 m 19 Y s 1111 1468 m 39 Y s 1166 1488 m 19 Y s 1220 1488 m 19 Y s 1274 1488 m 19 Y s 1329 1488 m 19 Y s 1383 1468 m
 39 Y s 1438 1488 m 19 Y s 1492 1488 m 19 Y s 1547 1488 m 19 Y s 1601 1488 m 19 Y s 1655 1468 m 39 Y s 1710 1488 m 19 Y s 1764 1488 m 19 Y s 1819 1488 m 19 Y s 1873 1488 m 19 Y s 1928 1468 m 39 Y s 1982 1488 m 19 Y s 2036 1488 m 19 Y s 2091 1488 m 19
 Y s 2145 1488 m 19 Y s 2200 1468 m 39 Y s 295 231 m 1276 Y s 351 231 m -56 X s 323 282 m -28 X s 323 333 m -28 X s 323 384 m -28 X s 351 435 m -56 X s 323 486 m -28 X s 323 537 m -28 X s 323 588 m -28 X s 351 639 m -56 X s 323 690 m -28 X s 323 741
 m -28 X s 323 792 m -28 X s 351 843 m -56 X s 323 894 m -28 X s 323 945 m -28 X s 323 996 m -28 X s 351 1047 m -56 X s 323 1098 m -28 X s 323 1149 m -28 X s 323 1200 m -28 X s 351 1251 m -56 X s 323 1302 m -28 X s 323 1353 m -28 X s 323 1404 m -28 X
 s 351 1455 m -56 X s 351 1455 m -56 X s 323 1506 m -28 X s
 gsave  2268 1538 0 0 C 244.366 205.267 t 0 r /Helvetica findfont 71.6807 sf 0 0 m (0) show NC gr 
 gsave  2268 1538 0 0 C 146.62 410.535 t 0 r /Helvetica findfont 71.6807 sf 0 0 m (0.02) show NC gr 
 gsave  2268 1538 0 0 C 146.62 615.802 t 0 r /Helvetica findfont 71.6807 sf 0 0 m (0.04) show NC gr 
 gsave  2268 1538 0 0 C 146.62 817.812 t 0 r /Helvetica findfont 71.6807 sf 0 0 m (0.06) show NC gr 
 gsave  2268 1538 0 0 C 146.62 1023.08 t 0 r /Helvetica findfont 71.6807 sf 0 0 m (0.08) show NC gr 
 gsave  2268 1538 0 0 C 198.751 1225.09 t 0 r /Helvetica findfont 71.6807 sf 0 0 m (0.1) show NC gr 
 gsave  2268 1538 0 0 C 146.62 1430.36 t 0 r /Helvetica findfont 71.6807 sf 0 0 m (0.12) show NC gr 
 gsave  2268 1538 0 0 C 156.394 925.333 t 90 r /Helvetica findfont 71.6807 sf 0 0 m (Normalized entries) show NC gr  2200 231 m 1276 Y s 2143 231 m 57 X s 2171 282 m 29 X s 2171 333 m 29 X s 2171 384 m 29 X s 2143 435 m 57 X s 2171 486 m 29 X s 2171
 537 m 29 X s 2171 588 m 29 X s 2143 639 m 57 X s 2171 690 m 29 X s 2171 741 m 29 X s 2171 792 m 29 X s 2143 843 m 57 X s 2171 894 m 29 X s 2171 945 m 29 X s 2171 996 m 29 X s 2143 1047 m 57 X s 2171 1098 m 29 X s 2171 1149 m 29 X s 2171 1200 m 29 X
 s 2143 1251 m 57 X s 2171 1302 m 29 X s 2171 1353 m 29 X s 2171 1404 m 29 X s 2143 1455 m 57 X s 2143 1455 m 57 X s 2171 1506 m 29 X s 1 0 0 c 6 lw 1 1 1 c 1 0 0 c 3 lw 302 231 m20 6 lw 3 lw 342 231 m20 6 lw 3 lw 410 231 m20 6 lw 3 lw 438 231 m20 6
 lw 3 lw 451 231 m20 6 lw 3 lw 465 231 m20 6 lw 3 lw 478 232 m20 6 lw 3 lw 492 231 m20 6 lw 3 lw 506 232 m20 6 lw 3 lw 519 232 m20 6 lw 3 lw 533 233 m20 6 lw 3 lw 547 236 m20 6 lw 3 lw 560 253 m20 6 lw 3 lw 574 275 m20 6 lw 3 lw 587 272 m20 6 lw 3 lw
 601 279 m20 6 lw 3 lw 615 306 m20 6 lw 3 lw 628 309 m20 6 lw 3 lw 642 319 m20 6 lw 3 lw 655 333 m20 6 lw 3 lw 669 349 m20 6 lw 3 lw 683 356 m20 6 lw 3 lw 696 373 m20 6 lw 3 lw 710 377 m20 6 lw 3 lw 723 389 m20 6 lw 3 lw 737 403 m20 6 lw 3 lw 751 405
 m20 6 lw 3 lw 764 424 m20 6 lw 3 lw 778 430 m20 6 lw 3 lw 791 435 m20 6 lw 3 lw 805 446 m20 6 lw 3 lw 819 458 m20 6 lw 3 lw 832 456 m20 6 lw 3 lw 846 449 m20 6 lw 3 lw 859 462 m20 6 lw 3 lw 873 463 m20 6 lw 3 lw 887 455 m20 6 lw 3 lw 900 463 m20 6
 lw 3 lw 914 462 m20 6 lw 3 lw 927 460 m20 6 lw 3 lw 941 446 m20 6 lw 3 lw 955 442 m20 6 lw 3 lw 968 457 m20 6 lw 3 lw 982 447 m20 6 lw 3 lw 996 452 m20 6 lw 3 lw 1009 436 m20 6 lw 3 lw 1023 437 m20 6 lw 3 lw 1036 419 m20 6 lw 3 lw 1050 415 m20 6 lw
 3 lw 1064 411 m20 6 lw 3 lw 1077 403 m20 6 lw 3 lw 1091 411 m20 6 lw 3 lw 1104 392 m20 6 lw 3 lw 1118 393 m20 6 lw 3 lw 1132 387 m20 6 lw 3 lw 1145 381 m20 6 lw 3 lw 1159 376 m20 6 lw 3 lw 1172 370 m20 6 lw 3 lw 1186 365 m20 6 lw 3 lw 1200 354 m20 6
 lw 3 lw 1213 357 m20 6 lw 3 lw 1227 349 m20 6 lw 3 lw 1240 338 m20 6 lw 3 lw 1254 340 m20 6 lw 3 lw 1268 331 m20 6 lw 3 lw 1281 328 m20 6 lw 3 lw 1295 321 m20 6 lw 3 lw 1308 317 m20 6 lw 3 lw 1322 313 m20 6 lw 3 lw 1336 303 m20 6 lw 3 lw 1349 303
 m20 6 lw 3 lw 1363 303 m20 6 lw 3 lw 1377 305 m20 6 lw 3 lw 1390 290 m20 6 lw 3 lw 1404 287 m20 6 lw 3 lw 1417 282 m20 6 lw 3 lw 1431 280 m20 6 lw 3 lw 1445 280 m20 6 lw 3 lw 1458 278 m20 6 lw 3 lw 1472 271 m20 6 lw 3 lw 1485 275 m20 6 lw 3 lw 1499
 263 m20 6 lw 3 lw 1513 268 m20 6 lw 3 lw 1526 268 m20 6 lw 3 lw 1540 262 m20 6 lw 3 lw 1553 261 m20 6 lw 3 lw 1567 260 m20 6 lw 3 lw 1581 259 m20 6 lw 3 lw 1594 257 m20 6 lw 3 lw 1608 251 m20 6 lw 3 lw 1621 253 m20 6 lw 3 lw 1635 249 m20 6 lw 3 lw
 1649 250 m20 6 lw 3 lw 1662 249 m20 6 lw 3 lw 1676 250 m20 6 lw 3 lw 1689 248 m20 6 lw 3 lw 1703 245 m20 6 lw 3 lw 1717 247 m20 6 lw 3 lw 1730 244 m20 6 lw 3 lw 1744 244 m20 6 lw 3 lw 1757 241 m20 6 lw 3 lw 1771 241 m20 6 lw 3 lw 1785 242 m20 6 lw 3
 lw 1798 239 m20 6 lw 3 lw 1812 240 m20 6 lw 3 lw 1826 239 m20 6 lw 3 lw 1839 238 m20 6 lw 3 lw 1853 237 m20 6 lw 3 lw 1866 238 m20 6 lw 3 lw 1880 235 m20 6 lw 3 lw 1894 238 m20 6 lw 3 lw 1907 234 m20 6 lw 3 lw 1921 236 m20 6 lw 3 lw 1934 235 m20 6
 lw 3 lw 1948 235 m20 6 lw 3 lw 1962 234 m20 6 lw 3 lw 1975 234 m20 6 lw 3 lw 1989 234 m20 6 lw 3 lw 2002 234 m20 6 lw 3 lw 2016 233 m20 6 lw 3 lw 2030 234 m20 6 lw 3 lw 2043 235 m20 6 lw 3 lw 2057 233 m20 6 lw 3 lw 2070 233 m20 6 lw 3 lw 2084 233
 m20 6 lw 3 lw 2098 233 m20 6 lw 3 lw 2111 233 m20 6 lw 3 lw 2125 231 m20 6 lw 3 lw 2138 232 m20 6 lw 3 lw 2152 232 m20 6 lw 3 lw 2166 232 m20 6 lw 3 lw 2179 232 m20 6 lw 3 lw 2193 232 m20 6 lw black 1 1 1 c black 3 lw 547 231 m20 6 lw 3 lw 560 231
 m20 6 lw 3 lw 574 236 m20 6 lw 3 lw 587 242 m20 6 lw 3 lw 601 244 m20 6 lw 3 lw 615 248 m20 6 lw 3 lw 628 250 m20 6 lw 3 lw 642 261 m20 6 lw 3 lw 655 263 m20 6 lw 3 lw 669 273 m20 6 lw 3 lw 683 278 m20 6 lw 3 lw 696 292 m20 6 lw 3 lw 710 302 m20 6
 lw 3 lw 723 313 m20 6 lw 3 lw 737 312 m20 6 lw 3 lw 751 338 m20 6 lw 3 lw 764 338 m20 6 lw 3 lw 778 358 m20 6 lw 3 lw 791 364 m20 6 lw 3 lw 805 378 m20 6 lw 3 lw 819 394 m20 6 lw 3 lw 832 405 m20 6 lw 3 lw 846 414 m20 6 lw 3 lw 859 414 m20 6 lw 3 lw
 873 440 m20 6 lw 3 lw 887 462 m20 6 lw 3 lw 900 462 m20 6 lw 3 lw 914 476 m20 6 lw 3 lw 927 477 m20 6 lw 3 lw 941 474 m20 6 lw 3 lw 955 477 m20 6 lw 3 lw 968 487 m20 6 lw 3 lw 982 505 m20 6 lw 3 lw 996 498 m20 6 lw 3 lw 1009 482 m20 6 lw 3 lw 1023
 475 m20 6 lw 3 lw 1036 494 m20 6 lw 3 lw 1050 467 m20 6 lw 3 lw 1064 477 m20 6 lw 3 lw 1077 477 m20 6 lw 3 lw 1091 466 m20 6 lw 3 lw 1104 479 m20 6 lw 3 lw 1118 456 m20 6 lw 3 lw 1132 435 m20 6 lw 3 lw 1145 435 m20 6 lw 3 lw 1159 430 m20 6 lw 3 lw
 1172 414 m20 6 lw 3 lw 1186 395 m20 6 lw 3 lw 1200 409 m20 6 lw 3 lw 1213 404 m20 6 lw 3 lw 1227 396 m20 6 lw 3 lw 1240 369 m20 6 lw 3 lw 1254 369 m20 6 lw 3 lw 1268 369 m20 6 lw 3 lw 1281 377 m20 6 lw 3 lw 1295 345 m20 6 lw 3 lw 1308 344 m20 6 lw 3
 lw 1322 332 m20 6 lw 3 lw 1336 332 m20 6 lw 3 lw 1349 322 m20 6 lw 3 lw 1363 317 m20 6 lw 3 lw 1377 303 m20 6 lw 3 lw 1390 314 m20 6 lw 3 lw 1404 295 m20 6 lw 3 lw 1417 294 m20 6 lw 3 lw 1431 287 m20 6 lw 3 lw 1445 285 m20 6 lw 3 lw 1458 281 m20 6
 lw 3 lw 1472 269 m20 6 lw 3 lw 1485 278 m20 6 lw 3 lw 1499 273 m20 6 lw 3 lw 1513 279 m20 6 lw 3 lw 1526 272 m20 6 lw 3 lw 1540 265 m20 6 lw 3 lw 1553 260 m20 6 lw 3 lw 1567 261 m20 6 lw 3 lw 1581 254 m20 6 lw 3 lw 1594 258 m20 6 lw 3 lw 1608 252
 m20 6 lw 3 lw 1621 252 m20 6 lw 3 lw 1635 253 m20 6 lw 3 lw 1649 246 m20 6 lw 3 lw 1662 243 m20 6 lw 3 lw 1676 244 m20 6 lw 3 lw 1689 239 m20 6 lw 3 lw 1703 244 m20 6 lw 3 lw 1717 244 m20 6 lw 3 lw 1730 244 m20 6 lw 3 lw 1744 238 m20 6 lw 3 lw 1757
 238 m20 6 lw 3 lw 1771 239 m20 6 lw 3 lw 1785 238 m20 6 lw 3 lw 1798 236 m20 6 lw 3 lw 1812 240 m20 6 lw 3 lw 1826 236 m20 6 lw 3 lw 1839 236 m20 6 lw 3 lw 1853 239 m20 6 lw 3 lw 1866 234 m20 6 lw 3 lw 1880 232 m20 6 lw 3 lw 1894 237 m20 6 lw 3 lw
 1907 233 m20 6 lw 3 lw 1921 232 m20 6 lw 3 lw 1934 234 m20 6 lw 3 lw 1948 234 m20 6 lw 3 lw 1962 233 m20 6 lw 3 lw 1975 233 m20 6 lw 3 lw 1989 232 m20 6 lw 3 lw 2002 233 m20 6 lw 3 lw 2016 232 m20 6 lw 3 lw 2030 232 m20 6 lw 3 lw 2043 231 m20 6 lw 3
 lw 2057 232 m20 6 lw 3 lw 2070 232 m20 6 lw 3 lw 2084 231 m20 6 lw 3 lw 2098 232 m20 6 lw 3 lw 2111 232 m20 6 lw 3 lw 2125 231 m20 6 lw 3 lw 2138 231 m20 6 lw 3 lw 2152 232 m20 6 lw 3 lw 2166 231 m20 6 lw 3 lw 2179 231 m20 6 lw 3 lw 2193 231 m20 6
 lw 0 0.6 0 c 1 1 1 c 0 0.6 0 c 3 lw 560 231 m20 6 lw 3 lw 574 234 m20 6 lw 3 lw 587 238 m20 6 lw 3 lw 601 242 m20 6 lw 3 lw 615 247 m20 6 lw 3 lw 628 251 m20 6 lw 3 lw 642 252 m20 6 lw 3 lw 655 258 m20 6 lw 3 lw 669 264 m20 6 lw 3 lw 683 272 m20 6
 lw 3 lw 696 279 m20 6 lw 3 lw 710 288 m20 6 lw 3 lw 723 292 m20 6 lw 3 lw 737 306 m20 6 lw 3 lw 751 309 m20 6 lw 3 lw 764 316 m20 6 lw 3 lw 778 330 m20 6 lw 3 lw 791 341 m20 6 lw 3 lw 805 353 m20 6 lw 3 lw 819 372 m20 6 lw 3 lw 832 387 m20 6 lw 3 lw
 846 385 m20 6 lw 3 lw 859 397 m20 6 lw 3 lw 873 413 m20 6 lw 3 lw 887 427 m20 6 lw 3 lw 900 429 m20 6 lw 3 lw 914 441 m20 6 lw 3 lw 927 456 m20 6 lw 3 lw 941 464 m20 6 lw 3 lw 955 495 m20 6 lw 3 lw 968 488 m20 6 lw 3 lw 982 493 m20 6 lw 3 lw 996 505
 m20 6 lw 3 lw 1009 493 m20 6 lw 3 lw 1023 508 m20 6 lw 3 lw 1036 515 m20 6 lw 3 lw 1050 508 m20 6 lw 3 lw 1064 490 m20 6 lw 3 lw 1077 506 m20 6 lw 3 lw 1091 514 m20 6 lw 3 lw 1104 495 m20 6 lw 3 lw 1118 473 m20 6 lw 3 lw 1132 476 m20 6 lw 3 lw 1145
 459 m20 6 lw 3 lw 1159 451 m20 6 lw 3 lw 1172 442 m20 6 lw 3 lw 1186 447 m20 6 lw 3 lw 1200 419 m20 6 lw 3 lw 1213 416 m20 6 lw 3 lw 1227 411 m20 6 lw 3 lw 1240 400 m20 6 lw 3 lw 1254 389 m20 6 lw 3 lw 1268 383 m20 6 lw 3 lw 1281 369 m20 6 lw 3 lw
 1295 362 m20 6 lw 3 lw 1308 352 m20 6 lw 3 lw 1322 345 m20 6 lw 3 lw 1336 334 m20 6 lw 3 lw 1349 332 m20 6 lw 3 lw 1363 320 m20 6 lw 3 lw 1377 307 m20 6 lw 3 lw 1390 307 m20 6 lw 3 lw 1404 305 m20 6 lw 3 lw 1417 297 m20 6 lw 3 lw 1431 294 m20 6 lw 3
 lw 1445 288 m20 6 lw 3 lw 1458 280 m20 6 lw 3 lw 1472 275 m20 6 lw 3 lw 1485 272 m20 6 lw 3 lw 1499 268 m20 6 lw 3 lw 1513 261 m20 6 lw 3 lw 1526 263 m20 6 lw 3 lw 1540 257 m20 6 lw 3 lw 1553 254 m20 6 lw 3 lw 1567 256 m20 6 lw 3 lw 1581 251 m20 6
 lw 3 lw 1594 253 m20 6 lw 3 lw 1608 251 m20 6 lw 3 lw 1621 249 m20 6 lw 3 lw 1635 246 m20 6 lw 3 lw 1649 246 m20 6 lw 3 lw 1662 244 m20 6 lw 3 lw 1676 242 m20 6 lw 3 lw 1689 241 m20 6 lw 3 lw 1703 241 m20 6 lw 3 lw 1717 239 m20 6 lw 3 lw 1730 239
 m20 6 lw 3 lw 1744 239 m20 6 lw 3 lw 1757 238 m20 6 lw 3 lw 1771 238 m20 6 lw 3 lw 1785 235 m20 6 lw 3 lw 1798 235 m20 6 lw 3 lw 1812 235 m20 6 lw 3 lw 1826 235 m20 6 lw 3 lw 1839 236 m20 6 lw 3 lw 1853 235 m20 6 lw 3 lw 1866 234 m20 6 lw 3 lw 1880
 233 m20 6 lw 3 lw 1894 232 m20 6 lw 3 lw 1907 233 m20 6 lw 3 lw 1921 233 m20 6 lw 3 lw 1934 232 m20 6 lw 3 lw 1948 232 m20 6 lw 3 lw 1962 232 m20 6 lw 3 lw 1975 233 m20 6 lw 3 lw 1989 233 m20 6 lw 3 lw 2002 232 m20 6 lw 3 lw 2016 232 m20 6 lw 3 lw
 2030 232 m20 6 lw 3 lw 2043 231 m20 6 lw 3 lw 2057 232 m20 6 lw 3 lw 2070 231 m20 6 lw 3 lw 2084 231 m20 6 lw 3 lw 2098 231 m20 6 lw 3 lw 2111 231 m20 6 lw 3 lw 2125 231 m20 6 lw 3 lw 2138 231 m20 6 lw 3 lw 2152 231 m20 6 lw 3 lw 2166 232 m20 6 lw 3
 lw 2179 231 m20 6 lw 3 lw 2193 231 m20 6 lw black
 gsave  2268 1538 0 0 C 1648.66 1394.52 t 0 r /Helvetica-Bold findfont 48.8732 sf 0 0 m ( < 40 GeV) show NC gr 
 gsave  2268 1538 0 0 C 1573.72 1420.58 t 0 r /Helvetica-Bold findfont 32.5821 sf 0 0 m (truth) show NC gr 
 gsave  2268 1538 0 0 C 1573.72 1368.45 t 0 r /Helvetica-Bold findfont 32.5821 sf 0 0 m (T) show NC gr 
 gsave  2268 1538 0 0 C 1433.61 1394.52 t 0 r /Helvetica-Bold findfont 48.8732 sf 0 0 m (30 < p) show NC gr  0 0 1 c 1275 1413 m 131 X s 3 lw 1341 1413 m20 6 lw black
 gsave  2268 1538 0 0 C 1648.66 1296.77 t 0 r /Helvetica-Bold findfont 48.8732 sf 0 0 m ( < 100 GeV) show NC gr 
 gsave  2268 1538 0 0 C 1573.72 1322.83 t 0 r /Helvetica-Bold findfont 32.5821 sf 0 0 m (truth) show NC gr 
 gsave  2268 1538 0 0 C 1573.72 1270.7 t 0 r /Helvetica-Bold findfont 32.5821 sf 0 0 m (T) show NC gr 
 gsave  2268 1538 0 0 C 1433.61 1296.77 t 0 r /Helvetica-Bold findfont 48.8732 sf 0 0 m (80 < p) show NC gr  1 0 0 c 1275 1317 m 131 X s 3 lw 1341 1317 m20 6 lw black
 gsave  2268 1538 0 0 C 1674.72 1202.28 t 0 r /Helvetica-Bold findfont 48.8732 sf 0 0 m ( < 400 GeV) show NC gr 
 gsave  2268 1538 0 0 C 1599.78 1228.35 t 0 r /Helvetica-Bold findfont 32.5821 sf 0 0 m (truth) show NC gr 
 gsave  2268 1538 0 0 C 1599.78 1176.21 t 0 r /Helvetica-Bold findfont 32.5821 sf 0 0 m (T) show NC gr 
 gsave  2268 1538 0 0 C 1433.61 1202.28 t 0 r /Helvetica-Bold findfont 48.8732 sf 0 0 m (350 < p) show NC gr  1275 1221 m 131 X s 3 lw 1341 1221 m20 6 lw
 gsave  2268 1538 0 0 C 1704.05 1104.53 t 0 r /Helvetica-Bold findfont 48.8732 sf 0 0 m ( < 1200 GeV) show NC gr 
 gsave  2268 1538 0 0 C 1629.11 1130.6 t 0 r /Helvetica-Bold findfont 32.5821 sf 0 0 m (truth) show NC gr 
 gsave  2268 1538 0 0 C 1629.11 1078.47 t 0 r /Helvetica-Bold findfont 32.5821 sf 0 0 m (T) show NC gr 
 gsave  2268 1538 0 0 C 1433.61 1104.53 t 0 r /Helvetica-Bold findfont 48.8732 sf 0 0 m (1000 < p) show NC gr  0 0.6 0 c 1275 1125 m 131 X s 3 lw 1341 1125 m20 6 lw black
 gsave  2268 1538 0 0 C 384.469 1417.32 t 0 r /Helvetica-BoldOblique findfont 61.9061 sf 0 0 m (ATLAS) show NC gr 
 gsave  2268 1538 0 0 C 632.093 1417.32 t 0 r /Helvetica findfont 58.6478 sf 0 0 m (Simulation Internal) show NC gr 
 gsave  2268 1538 0 0 C 746.131 1339.13 t 0 r /Helvetica findfont 58.6478 sf 0 0 m ( = 13 TeV) show NC gr 
 gsave  2268 1538 0 0 C 716.807 1339.13 t 0 r /Helvetica findfont 58.6478 sf 0 0 m (s) show NC gr  697 1372 m 7 -36 d s 3 lw 704 1336 m 6 52 d s 710 1388 m 36 X s
 gsave  2268 1538 0 0 C 384.469 1339.13 t 0 r /Helvetica findfont 58.6478 sf 0 0 m (Pythia Dijet ) show NC gr 
 gsave  2268 1538 0 0 C 384.469 1264.19 t 0 r /Helvetica findfont 58.6478 sf 0 0 m (EM+JES) show NC gr 
 gsave  2268 1538 0 0 C 938.365 1185.99 t 0 r /Helvetica findfont 58.6478 sf 0 0 m (| < 0.1) show NC gr 
 gsave  2268 1538 0 0 C 905.783 1185.99 t 0 r /Symbol findfont 58.6478 sf 0 0 m (h) show NC gr 
 gsave  2268 1538 0 0 C 720.065 1185.99 t 0 r /Helvetica findfont 58.6478 sf 0 0 m (, 0.0 < |) show NC gr 
 gsave  2268 1538 0 0 C 707.032 1169.7 t 0 r /Helvetica findfont 39.0986 sf 0 0 m (t) show NC gr 
 gsave  2268 1538 0 0 C 671.192 1185.99 t 0 r /Helvetica-Oblique findfont 58.6478 sf 0 0 m (k) show NC gr 
 gsave  2268 1538 0 0 C 430.084 1185.99 t 0 r /Helvetica findfont 58.6478 sf 0 0 m (=0.4 anti\255) show NC gr 
 gsave  2268 1538 0 0 C 384.469 1185.99 t 0 r /Helvetica-Oblique findfont 58.6478 sf 0 0 m (R) show NC gr 
 gr  gr showpage
end
%%EOF
