%!PS-Adobe-2.0 EPSF-2.0
%%BoundingBox:  0 0 567 384
%%Title: Tile0_Tile0/Distribution_Tile0_eta_6.eps: c1
%%Creator: ROOT Version 6.22/08
%%CreationDate: Tue Aug  3 22:33:28 2021
%%DocumentNeededResources: ProcSet (FontSetInit)
%%EndComments
%%BeginProlog
80 dict begin
/s {stroke} def /l {lineto} def /m {moveto} def /t {translate} def
/r {rotate} def /rl {roll}  def /R {repeat} def
/d {rlineto} def /rm {rmoveto} def /gr {grestore} def /f {eofill} def
/c {setrgbcolor} def /black {0 setgray} def /sd {setdash} def
/cl {closepath} def /sf {scalefont setfont} def /lw {setlinewidth} def
/box {m dup 0 exch d exch 0 d 0 exch neg d cl} def
/NC{systemdict begin initclip end}def/C{NC box clip newpath}def
/bl {box s} def /bf {gsave box gsave f grestore 1 lw [] 0 sd s grestore} def /Y { 0 exch d} def /X { 0 d} def 
/K {{pop pop 0 moveto} exch kshow} bind def
/ita {/ang 15 def gsave [1 0 ang dup sin exch cos div 1 0 0] concat} def 
/mp {newpath /y exch def /x exch def} def
/side {[w .77 mul w .23 mul] .385 w mul sd w 0 l currentpoint t -144 r} def
/mr {mp x y w2 0 360 arc} def /m24 {mr s} def /m20 {mr f} def
/mb {mp x y w2 add m w2 neg 0 d 0 w neg d w 0 d 0 w d cl} def
/mt {mp x y w2 add m w2 neg w neg d w 0 d cl} def
/w4 {w 4 div} def
/w6 {w 6 div} def
/w8 {w 8 div} def
/m21 {mb f} def /m25 {mb s} def /m22 {mt f} def /m26{mt s} def
/m23 {mp x y w2 sub m w2 w d w neg 0 d cl f} def
/m27 {mp x y w2 add m w3 neg w2 neg d w3 w2 neg d w3 w2 d cl s} def
/m28 {mp x w2 sub y w2 sub w3 add m w3 0 d  0 w3 neg d w3 0 d 0 w3 d w3 0 d  0 w3 d w3 neg 0 d 0 w3 d w3 neg 0 d 0 w3 neg d w3 neg 0 d cl s } def
/m29 {mp gsave x w2 sub y w2 add w3 sub m currentpoint t 4 {side} repeat cl fill gr} def
/m30 {mp gsave x w2 sub y w2 add w3 sub m currentpoint t 4 {side} repeat cl s gr} def
/m31 {mp x y w2 sub m 0 w d x w2 sub y m w 0 d x w2 .707 mul sub y w2 .707 mul add m w 1.44 div w 1.44 div neg d x w2 .707 mul sub y w2 .707 mul sub m w 1.44 div w 1.44 div d s} def
/m32 {mp x y w2 sub m w2 w d w neg 0 d cl s} def
/m33 {mp x y w2 add m w3 neg w2 neg d w3 w2 neg d w3 w2 d cl f} def
/m34 {mp x w2 sub y w2 sub w3 add m w3 0 d  0 w3 neg d w3 0 d 0 w3 d w3 0 d  0 w3 d w3 neg 0 d 0 w3 d w3 neg 0 d 0 w3 neg d w3 neg 0 d cl f } def
/m35 {mp x y w2 add m w2 neg w2 neg d w2 w2 neg d w2 w2 d w2 neg w2 d x y w2 sub m 0 w d x w2 sub y m w 0 d s} def
/m36 {mb x w2 sub y w2 add m w w neg d x w2 sub y w2 sub m w w d s} def
/m37 {mp x y m w4 neg w2 d w4 neg w2 neg d w2 0 d  w4 neg w2 neg d w2 0 d w4 neg w2 d w2 0 d w4 neg w2 d w4 neg w2 neg d cl s} def
/m38 {mp x w4 sub y w2 add m w4 neg w4 neg d 0 w2 neg d w4 w4 neg d w2 0 d w4 w4 d 0 w2 d w4 neg w4 d w2 neg 0 d x y w2 sub m 0 w d x w2 sub y m w 0 d cl s} def
/m39 {mp x y m w4 neg w2 d w4 neg w2 neg d w2 0 d  w4 neg w2 neg d w2 0 d w4 neg w2 d w2 0 d w4 neg w2 d w4 neg w2 neg d cl f} def
/m40 {mp x y m w4 w2 d w4 w4 neg d w2 neg w4 neg d w2 w4 neg d w4 neg w4 neg d w4 neg w2 d w4 neg w2 neg d w4 neg w4 d w2 w4 d w2 neg w4 d w4 w4 d w4 w2 neg d cl s} def
/m41 {mp x y m w4 w2 d w4 w4 neg d w2 neg w4 neg d w2 w4 neg d w4 neg w4 neg d w4 neg w2 d w4 neg w2 neg d w4 neg w4 d w2 w4 d w2 neg w4 d w4 w4 d w4 w2 neg d cl f} def
/m42 {mp x y w2 add m w8 neg w2 -3 4 div mul d w2 -3 4 div mul w8 neg d w2 3 4 div mul w8 neg d w8 w2 -3 4 div mul d w8 w2 3 4 div mul d w2 3 4 div mul w8 d w2 -3 4 div mul w8 d w8 neg w2 3 4 div mul d cl s} def
/m43 {mp x y w2 add m w8 neg w2 -3 4 div mul d w2 -3 4 div mul w8 neg d w2 3 4 div mul w8 neg d w8 w2 -3 4 div mul d w8 w2 3 4 div mul d w2 3 4 div mul w8 d w2 -3 4 div mul w8 d w8 neg w2 3 4 div mul d cl f} def
/m44 {mp x y m w6 neg w2 d w2 2 3 div mul 0 d w6 neg w2 neg d w2 w6 d 0 w2 -2 3 div mul d w2 neg w6 d w6 w2 neg d w2 -2 3 div mul 0 d w6 w2 d w2 neg w6 neg d 0 w2 2 3 div mul d w2 w6 neg d cl s} def
/m45 {mp x y m w6 neg w2 d w2 2 3 div mul 0 d w6 neg w2 neg d w2 w6 d 0 w2 -2 3 div mul d w2 neg w6 d w6 w2 neg d w2 -2 3 div mul 0 d w6 w2 d w2 neg w6 neg d 0 w2 2 3 div mul d w2 w6 neg d cl f} def
/m46 {mp x y w4 add m w4 neg w4 d w4 neg w4 neg d  w4 w4 neg d w4 neg w4 neg d w4 w4 neg d w4 w4 d w4 w4 neg d w4 w4 d w4 neg w4 d w4 w4 d w4 neg w4 d w4 neg w4 neg d cl s} def
/m47 {mp x y w4 add m w4 neg w4 d w4 neg w4 neg d w4 w4 neg d w4 neg w4 neg d  w4 w4 neg d w4 w4 d w4 w4 neg d w4 w4 d w4 neg w4 d w4 w4 d w4 neg w4 d w4 neg w4 neg d cl f} def
/m48 {mp x y w4 add m w4 neg w4 d w4 neg w4 neg d w4 w4 neg d  w4 neg w4 neg d w4 w4 neg d w4 w4 d w4 w4 neg d w4 w4 d w4 neg w4 d w4 w4 d w4 neg w4 d w4 neg w4 neg d  w4 w4 neg d w4 neg w4 neg d w4 neg w4 d w4 w4 d cl f} def
/m49 {mp x w2 sub w3 add y w2 sub w3 add m  0 w3 neg d w3 0 d 0 w3 d w3 0 d 0 w3 d w3 neg 0 d 0 w3 d w3 neg 0 d 0 w3 neg d w3 neg 0 d 0 w3 neg d w3 0 d 0 w3 d w3 0 d 0 w3 neg d w3 neg 0 d cl f } def
/m2 {mp x y w2 sub m 0 w d x w2 sub y m w 0 d s} def
/m5 {mp x w2 .707 mul sub y w2 .707 mul sub m w 1.44 div w 1.44 div d x w2 .707 mul sub y w2 .707 mul add m w 1.44 div w 1.44 div neg d s} def
%%IncludeResource: ProcSet (FontSetInit)
%%IncludeResource: font Times-Roman
%%IncludeResource: font Times-Italic
%%IncludeResource: font Times-Bold
%%IncludeResource: font Times-BoldItalic
%%IncludeResource: font Helvetica
%%IncludeResource: font Helvetica-Oblique
%%IncludeResource: font Helvetica-Bold
%%IncludeResource: font Helvetica-BoldOblique
%%IncludeResource: font Courier
%%IncludeResource: font Courier-Oblique
%%IncludeResource: font Courier-Bold
%%IncludeResource: font Courier-BoldOblique
%%IncludeResource: font Symbol
%%IncludeResource: font ZapfDingbats
/reEncode {exch findfont dup length dict begin {1 index /FID eq  {pop pop} {def} ifelse } forall /Encoding exch def currentdict end dup /FontName get exch definefont pop } def [/Times-Bold /Times-Italic /Times-BoldItalic /Helvetica /Helvetica-Oblique
 /Helvetica-Bold /Helvetica-BoldOblique /Courier /Courier-Oblique /Courier-Bold /Courier-BoldOblique /Times-Roman /AvantGarde-Book /AvantGarde-BookOblique /AvantGarde-Demi /AvantGarde-DemiOblique /Bookman-Demi /Bookman-DemiItalic /Bookman-Light
 /Bookman-LightItalic /Helvetica-Narrow /Helvetica-Narrow-Bold /Helvetica-Narrow-BoldOblique /Helvetica-Narrow-Oblique /NewCenturySchlbk-Roman /NewCenturySchlbk-Bold /NewCenturySchlbk-BoldItalic /NewCenturySchlbk-Italic /Palatino-Bold
 /Palatino-BoldItalic /Palatino-Italic /Palatino-Roman ] {ISOLatin1Encoding reEncode } forall
%%EndProlog
%%BeginSetup
%%EndSetup
newpath  gsave  .25 .25 scale  gsave  0 0 t 1 0 0 c[  ] 0 sd 3 lw 1 1 1 c 2268 1538 0 0 bf black 1 1 1 c 1905 1276 295 231 bf black 1905 1276 295 231 bl 1 1 1 c 1905 1276 295 231 bf black 1905 1276 295 231 bl 0 0 1 c 6 lw 1 1 1 c 0 0 1 c 3 lw /w 31
 def /w2 {w 2 div} def /w3 {w 3 div} def 302 233 m20 6 lw 3 lw 315 232 m20 6 lw 3 lw 329 233 m20 6 lw 3 lw 342 232 m20 6 lw 3 lw 356 235 m20 6 lw 3 lw 370 235 m20 6 lw 3 lw 383 237 m20 6 lw 3 lw 397 237 m20 6 lw 3 lw 410 237 m20 6 lw 3 lw 424 242 m20
 6 lw 3 lw 438 243 m20 6 lw 3 lw 451 241 m20 6 lw 3 lw 465 243 m20 6 lw 3 lw 478 243 m20 6 lw 3 lw 492 253 m20 6 lw 3 lw 506 262 m20 6 lw 3 lw 519 257 m20 6 lw 3 lw 533 296 m20 6 lw 3 lw 547 351 m20 6 lw 560 534 m 4 Y s 560 564 m 4 Y s 3 lw 560 551
 m20 6 lw 574 636 m 7 Y s 574 669 m 7 Y s 3 lw 574 656 m20 6 lw 587 459 m 2 Y s 587 487 m 2 Y s 3 lw 587 474 m20 6 lw 3 lw 601 385 m20 6 lw 3 lw 615 397 m20 6 lw 3 lw 628 389 m20 6 lw 642 425 m s 642 451 m 1 Y s 3 lw 642 438 m20 6 lw 655 412 m s 655
 438 m 1 Y s 3 lw 655 425 m20 6 lw 3 lw 669 405 m20 6 lw 683 407 m s 683 433 m s 3 lw 683 420 m20 6 lw 696 426 m 1 Y s 696 453 m 1 Y s 3 lw 696 440 m20 6 lw 710 408 m s 710 434 m s 3 lw 710 421 m20 6 lw 723 414 m s 723 440 m 1 Y s 3 lw 723 427 m20 6
 lw 3 lw 737 412 m20 6 lw 751 417 m 1 Y s 751 444 m 1 Y s 3 lw 751 431 m20 6 lw 764 427 m 1 Y s 764 454 m 1 Y s 3 lw 764 441 m20 6 lw 778 421 m 1 Y s 778 448 m s 3 lw 778 435 m20 6 lw 791 420 m 1 Y s 791 447 m s 3 lw 791 434 m20 6 lw 3 lw 805 414 m20
 6 lw 819 404 m s 819 430 m s 3 lw 819 417 m20 6 lw 3 lw 832 413 m20 6 lw 3 lw 846 389 m20 6 lw 859 402 m s 859 428 m s 3 lw 859 415 m20 6 lw 3 lw 873 398 m20 6 lw 3 lw 887 406 m20 6 lw 3 lw 900 395 m20 6 lw 3 lw 914 376 m20 6 lw 3 lw 927 387 m20 6
 lw 3 lw 941 380 m20 6 lw 3 lw 955 369 m20 6 lw 3 lw 968 358 m20 6 lw 3 lw 982 363 m20 6 lw 3 lw 996 359 m20 6 lw 3 lw 1009 354 m20 6 lw 3 lw 1023 359 m20 6 lw 3 lw 1036 338 m20 6 lw 3 lw 1050 352 m20 6 lw 3 lw 1064 353 m20 6 lw 3 lw 1077 316 m20 6
 lw 3 lw 1091 328 m20 6 lw 3 lw 1104 324 m20 6 lw 3 lw 1118 323 m20 6 lw 3 lw 1132 334 m20 6 lw 3 lw 1145 305 m20 6 lw 3 lw 1159 312 m20 6 lw 3 lw 1172 314 m20 6 lw 3 lw 1186 309 m20 6 lw 3 lw 1200 316 m20 6 lw 3 lw 1213 291 m20 6 lw 3 lw 1227 297
 m20 6 lw 3 lw 1240 296 m20 6 lw 3 lw 1254 293 m20 6 lw 3 lw 1268 280 m20 6 lw 3 lw 1281 281 m20 6 lw 3 lw 1295 288 m20 6 lw 3 lw 1308 269 m20 6 lw 3 lw 1322 277 m20 6 lw 3 lw 1336 279 m20 6 lw 3 lw 1349 280 m20 6 lw 3 lw 1363 281 m20 6 lw 3 lw 1377
 270 m20 6 lw 3 lw 1390 276 m20 6 lw 3 lw 1404 265 m20 6 lw 3 lw 1417 273 m20 6 lw 3 lw 1431 256 m20 6 lw 3 lw 1445 261 m20 6 lw 3 lw 1458 269 m20 6 lw 3 lw 1472 255 m20 6 lw 3 lw 1485 258 m20 6 lw 3 lw 1499 259 m20 6 lw 3 lw 1513 257 m20 6 lw 3 lw
 1526 249 m20 6 lw 3 lw 1540 249 m20 6 lw 3 lw 1553 252 m20 6 lw 3 lw 1567 257 m20 6 lw 3 lw 1581 250 m20 6 lw 3 lw 1594 255 m20 6 lw 3 lw 1608 249 m20 6 lw 3 lw 1621 245 m20 6 lw 3 lw 1635 245 m20 6 lw 3 lw 1649 240 m20 6 lw 3 lw 1662 242 m20 6 lw 3
 lw 1676 246 m20 6 lw 3 lw 1689 246 m20 6 lw 3 lw 1703 241 m20 6 lw 3 lw 1717 242 m20 6 lw 3 lw 1730 245 m20 6 lw 3 lw 1744 239 m20 6 lw 3 lw 1757 240 m20 6 lw 3 lw 1771 238 m20 6 lw 3 lw 1785 236 m20 6 lw 3 lw 1798 244 m20 6 lw 3 lw 1812 238 m20 6
 lw 3 lw 1826 233 m20 6 lw 3 lw 1839 238 m20 6 lw 3 lw 1853 242 m20 6 lw 3 lw 1866 237 m20 6 lw 3 lw 1880 233 m20 6 lw 3 lw 1894 235 m20 6 lw 3 lw 1907 236 m20 6 lw 3 lw 1921 235 m20 6 lw 3 lw 1934 233 m20 6 lw 3 lw 1948 235 m20 6 lw 3 lw 1962 235
 m20 6 lw 3 lw 1975 233 m20 6 lw 3 lw 1989 233 m20 6 lw 3 lw 2002 232 m20 6 lw 3 lw 2016 233 m20 6 lw 3 lw 2030 234 m20 6 lw 3 lw 2043 234 m20 6 lw 3 lw 2057 234 m20 6 lw 3 lw 2070 233 m20 6 lw 3 lw 2084 233 m20 6 lw 3 lw 2098 233 m20 6 lw 3 lw 2111
 233 m20 6 lw 3 lw 2125 233 m20 6 lw 3 lw 2138 231 m20 6 lw 3 lw 2152 234 m20 6 lw 3 lw 2166 232 m20 6 lw 3 lw 2179 232 m20 6 lw 3 lw 2193 235 m20 6 lw black 3 lw 295 231 m 1905 X s 295 269 m -38 Y s 349 250 m -19 Y s 404 250 m -19 Y s 458 250 m -19
 Y s 513 250 m -19 Y s 567 269 m -38 Y s 621 250 m -19 Y s 676 250 m -19 Y s 730 250 m -19 Y s 785 250 m -19 Y s 839 269 m -38 Y s 893 250 m -19 Y s 948 250 m -19 Y s 1002 250 m -19 Y s 1057 250 m -19 Y s 1111 269 m -38 Y s 1166 250 m -19 Y s 1220
 250 m -19 Y s 1274 250 m -19 Y s 1329 250 m -19 Y s 1383 269 m -38 Y s 1438 250 m -19 Y s 1492 250 m -19 Y s 1547 250 m -19 Y s 1601 250 m -19 Y s 1655 269 m -38 Y s 1710 250 m -19 Y s 1764 250 m -19 Y s 1819 250 m -19 Y s 1873 250 m -19 Y s 1928
 269 m -38 Y s 1982 250 m -19 Y s 2036 250 m -19 Y s 2091 250 m -19 Y s 2145 250 m -19 Y s 2200 269 m -38 Y s
 gsave  2268 1538 0 0 C 267.173 162.911 t 0 r /Helvetica findfont 71.6807 sf 0 0 m (0.1) show NC gr 
 gsave  2268 1538 0 0 C 231.333 162.911 t 0 r /Symbol findfont 71.6807 sf 0 0 m (-) show NC gr 
 gsave  2268 1538 0 0 C 547.38 162.911 t 0 r /Helvetica findfont 71.6807 sf 0 0 m (0) show NC gr 
 gsave  2268 1538 0 0 C 795.004 162.911 t 0 r /Helvetica findfont 71.6807 sf 0 0 m (0.1) show NC gr 
 gsave  2268 1538 0 0 C 1062.18 162.911 t 0 r /Helvetica findfont 71.6807 sf 0 0 m (0.2) show NC gr 
 gsave  2268 1538 0 0 C 1332.61 162.911 t 0 r /Helvetica findfont 71.6807 sf 0 0 m (0.3) show NC gr 
 gsave  2268 1538 0 0 C 1606.3 162.911 t 0 r /Helvetica findfont 71.6807 sf 0 0 m (0.4) show NC gr 
 gsave  2268 1538 0 0 C 1876.73 162.911 t 0 r /Helvetica findfont 71.6807 sf 0 0 m (0.5) show NC gr 
 gsave  2268 1538 0 0 C 2150.42 162.911 t 0 r /Helvetica findfont 71.6807 sf 0 0 m (0.6) show NC gr 
 gsave  2268 1538 0 0 C 2095.03 19.5493 t 0 r /Helvetica findfont 48.8732 sf 0 0 m (Tile0) show NC gr 
 gsave  2268 1538 0 0 C 2075.48 42.3568 t 0 r /Helvetica findfont 71.6807 sf 0 0 m (f) show NC gr  295 1507 m 1905 X s 295 1468 m 39 Y s 349 1488 m 19 Y s 404 1488 m 19 Y s 458 1488 m 19 Y s 513 1488 m 19 Y s 567 1468 m 39 Y s 621 1488 m 19 Y s 676
 1488 m 19 Y s 730 1488 m 19 Y s 785 1488 m 19 Y s 839 1468 m 39 Y s 893 1488 m 19 Y s 948 1488 m 19 Y s 1002 1488 m 19 Y s 1057 1488 m 19 Y s 1111 1468 m 39 Y s 1166 1488 m 19 Y s 1220 1488 m 19 Y s 1274 1488 m 19 Y s 1329 1488 m 19 Y s 1383 1468 m
 39 Y s 1438 1488 m 19 Y s 1492 1488 m 19 Y s 1547 1488 m 19 Y s 1601 1488 m 19 Y s 1655 1468 m 39 Y s 1710 1488 m 19 Y s 1764 1488 m 19 Y s 1819 1488 m 19 Y s 1873 1488 m 19 Y s 1928 1468 m 39 Y s 1982 1488 m 19 Y s 2036 1488 m 19 Y s 2091 1488 m 19
 Y s 2145 1488 m 19 Y s 2200 1468 m 39 Y s 295 231 m 1276 Y s 351 231 m -56 X s 323 278 m -28 X s 323 325 m -28 X s 323 373 m -28 X s 351 420 m -56 X s 323 467 m -28 X s 323 514 m -28 X s 323 562 m -28 X s 351 609 m -56 X s 323 656 m -28 X s 323 704
 m -28 X s 323 751 m -28 X s 351 798 m -56 X s 323 845 m -28 X s 323 893 m -28 X s 323 940 m -28 X s 351 987 m -56 X s 323 1035 m -28 X s 323 1082 m -28 X s 323 1129 m -28 X s 351 1177 m -56 X s 323 1224 m -28 X s 323 1271 m -28 X s 323 1318 m -28 X
 s 351 1366 m -56 X s 351 1366 m -56 X s 323 1413 m -28 X s 323 1460 m -28 X s
 gsave  2268 1538 0 0 C 244.366 205.267 t 0 r /Helvetica findfont 71.6807 sf 0 0 m (0) show NC gr 
 gsave  2268 1538 0 0 C 146.62 394.244 t 0 r /Helvetica findfont 71.6807 sf 0 0 m (0.02) show NC gr 
 gsave  2268 1538 0 0 C 146.62 583.22 t 0 r /Helvetica findfont 71.6807 sf 0 0 m (0.04) show NC gr 
 gsave  2268 1538 0 0 C 146.62 772.197 t 0 r /Helvetica findfont 71.6807 sf 0 0 m (0.06) show NC gr 
 gsave  2268 1538 0 0 C 146.62 964.431 t 0 r /Helvetica findfont 71.6807 sf 0 0 m (0.08) show NC gr 
 gsave  2268 1538 0 0 C 198.751 1153.41 t 0 r /Helvetica findfont 71.6807 sf 0 0 m (0.1) show NC gr 
 gsave  2268 1538 0 0 C 146.62 1342.38 t 0 r /Helvetica findfont 71.6807 sf 0 0 m (0.12) show NC gr 
 gsave  2268 1538 0 0 C 156.394 925.333 t 90 r /Helvetica findfont 71.6807 sf 0 0 m (Normalized entries) show NC gr  2200 231 m 1276 Y s 2143 231 m 57 X s 2171 278 m 29 X s 2171 325 m 29 X s 2171 373 m 29 X s 2143 420 m 57 X s 2171 467 m 29 X s 2171
 514 m 29 X s 2171 562 m 29 X s 2143 609 m 57 X s 2171 656 m 29 X s 2171 704 m 29 X s 2171 751 m 29 X s 2143 798 m 57 X s 2171 845 m 29 X s 2171 893 m 29 X s 2171 940 m 29 X s 2143 987 m 57 X s 2171 1035 m 29 X s 2171 1082 m 29 X s 2171 1129 m 29 X s
 2143 1177 m 57 X s 2171 1224 m 29 X s 2171 1271 m 29 X s 2171 1318 m 29 X s 2143 1366 m 57 X s 2143 1366 m 57 X s 2171 1413 m 29 X s 2171 1460 m 29 X s 1 0 0 c 6 lw 1 1 1 c 1 0 0 c 3 lw 342 231 m20 6 lw 3 lw 383 231 m20 6 lw 3 lw 397 231 m20 6 lw 3
 lw 410 231 m20 6 lw 3 lw 424 231 m20 6 lw 3 lw 438 231 m20 6 lw 3 lw 451 231 m20 6 lw 3 lw 465 231 m20 6 lw 3 lw 478 231 m20 6 lw 3 lw 492 231 m20 6 lw 3 lw 506 231 m20 6 lw 3 lw 519 235 m20 6 lw 3 lw 533 235 m20 6 lw 3 lw 547 238 m20 6 lw 3 lw 560
 263 m20 6 lw 3 lw 574 299 m20 6 lw 3 lw 587 295 m20 6 lw 3 lw 601 315 m20 6 lw 3 lw 615 319 m20 6 lw 3 lw 628 332 m20 6 lw 3 lw 642 349 m20 6 lw 3 lw 655 355 m20 6 lw 3 lw 669 373 m20 6 lw 3 lw 683 389 m20 6 lw 3 lw 696 396 m20 6 lw 3 lw 710 412 m20
 6 lw 3 lw 723 408 m20 6 lw 3 lw 737 434 m20 6 lw 3 lw 751 441 m20 6 lw 3 lw 764 442 m20 6 lw 3 lw 778 437 m20 6 lw 3 lw 791 436 m20 6 lw 3 lw 805 455 m20 6 lw 3 lw 819 451 m20 6 lw 3 lw 832 457 m20 6 lw 3 lw 846 453 m20 6 lw 3 lw 859 453 m20 6 lw 3
 lw 873 453 m20 6 lw 3 lw 887 459 m20 6 lw 3 lw 900 442 m20 6 lw 3 lw 914 453 m20 6 lw 3 lw 927 435 m20 6 lw 3 lw 941 429 m20 6 lw 3 lw 955 416 m20 6 lw 3 lw 968 404 m20 6 lw 3 lw 982 413 m20 6 lw 3 lw 996 418 m20 6 lw 3 lw 1009 404 m20 6 lw 3 lw
 1023 393 m20 6 lw 3 lw 1036 399 m20 6 lw 3 lw 1050 391 m20 6 lw 3 lw 1064 387 m20 6 lw 3 lw 1077 384 m20 6 lw 3 lw 1091 378 m20 6 lw 3 lw 1104 359 m20 6 lw 3 lw 1118 360 m20 6 lw 3 lw 1132 355 m20 6 lw 3 lw 1145 349 m20 6 lw 3 lw 1159 336 m20 6 lw 3
 lw 1172 342 m20 6 lw 3 lw 1186 342 m20 6 lw 3 lw 1200 326 m20 6 lw 3 lw 1213 331 m20 6 lw 3 lw 1227 312 m20 6 lw 3 lw 1240 319 m20 6 lw 3 lw 1254 306 m20 6 lw 3 lw 1268 308 m20 6 lw 3 lw 1281 311 m20 6 lw 3 lw 1295 312 m20 6 lw 3 lw 1308 292 m20 6
 lw 3 lw 1322 292 m20 6 lw 3 lw 1336 299 m20 6 lw 3 lw 1349 280 m20 6 lw 3 lw 1363 284 m20 6 lw 3 lw 1377 283 m20 6 lw 3 lw 1390 282 m20 6 lw 3 lw 1404 274 m20 6 lw 3 lw 1417 268 m20 6 lw 3 lw 1431 269 m20 6 lw 3 lw 1445 266 m20 6 lw 3 lw 1458 268
 m20 6 lw 3 lw 1472 266 m20 6 lw 3 lw 1485 258 m20 6 lw 3 lw 1499 261 m20 6 lw 3 lw 1513 258 m20 6 lw 3 lw 1526 256 m20 6 lw 3 lw 1540 258 m20 6 lw 3 lw 1553 255 m20 6 lw 3 lw 1567 257 m20 6 lw 3 lw 1581 253 m20 6 lw 3 lw 1594 249 m20 6 lw 3 lw 1608
 251 m20 6 lw 3 lw 1621 246 m20 6 lw 3 lw 1635 248 m20 6 lw 3 lw 1649 247 m20 6 lw 3 lw 1662 246 m20 6 lw 3 lw 1676 245 m20 6 lw 3 lw 1689 246 m20 6 lw 3 lw 1703 243 m20 6 lw 3 lw 1717 240 m20 6 lw 3 lw 1730 241 m20 6 lw 3 lw 1744 240 m20 6 lw 3 lw
 1757 239 m20 6 lw 3 lw 1771 239 m20 6 lw 3 lw 1785 238 m20 6 lw 3 lw 1798 240 m20 6 lw 3 lw 1812 238 m20 6 lw 3 lw 1826 237 m20 6 lw 3 lw 1839 236 m20 6 lw 3 lw 1853 236 m20 6 lw 3 lw 1866 236 m20 6 lw 3 lw 1880 235 m20 6 lw 3 lw 1894 236 m20 6 lw 3
 lw 1907 235 m20 6 lw 3 lw 1921 233 m20 6 lw 3 lw 1934 234 m20 6 lw 3 lw 1948 236 m20 6 lw 3 lw 1962 234 m20 6 lw 3 lw 1975 235 m20 6 lw 3 lw 1989 234 m20 6 lw 3 lw 2002 233 m20 6 lw 3 lw 2016 235 m20 6 lw 3 lw 2030 233 m20 6 lw 3 lw 2043 234 m20 6
 lw 3 lw 2057 232 m20 6 lw 3 lw 2070 233 m20 6 lw 3 lw 2084 233 m20 6 lw 3 lw 2098 233 m20 6 lw 3 lw 2111 232 m20 6 lw 3 lw 2125 232 m20 6 lw 3 lw 2138 232 m20 6 lw 3 lw 2152 232 m20 6 lw 3 lw 2166 233 m20 6 lw 3 lw 2179 232 m20 6 lw 3 lw 2193 232
 m20 6 lw black 1 1 1 c black 3 lw 547 231 m20 6 lw 3 lw 560 232 m20 6 lw 3 lw 574 239 m20 6 lw 3 lw 587 240 m20 6 lw 3 lw 601 253 m20 6 lw 3 lw 615 259 m20 6 lw 3 lw 628 266 m20 6 lw 3 lw 642 271 m20 6 lw 3 lw 655 274 m20 6 lw 3 lw 669 281 m20 6 lw
 3 lw 683 300 m20 6 lw 3 lw 696 304 m20 6 lw 3 lw 710 310 m20 6 lw 3 lw 723 319 m20 6 lw 3 lw 737 323 m20 6 lw 3 lw 751 334 m20 6 lw 3 lw 764 357 m20 6 lw 3 lw 778 380 m20 6 lw 3 lw 791 374 m20 6 lw 3 lw 805 388 m20 6 lw 3 lw 819 407 m20 6 lw 3 lw
 832 420 m20 6 lw 3 lw 846 411 m20 6 lw 3 lw 859 421 m20 6 lw 3 lw 873 456 m20 6 lw 3 lw 887 446 m20 6 lw 3 lw 900 465 m20 6 lw 3 lw 914 444 m20 6 lw 3 lw 927 476 m20 6 lw 3 lw 941 471 m20 6 lw 3 lw 955 468 m20 6 lw 3 lw 968 467 m20 6 lw 3 lw 982 482
 m20 6 lw 3 lw 996 464 m20 6 lw 3 lw 1009 470 m20 6 lw 3 lw 1023 451 m20 6 lw 3 lw 1036 448 m20 6 lw 3 lw 1050 454 m20 6 lw 3 lw 1064 459 m20 6 lw 3 lw 1077 454 m20 6 lw 3 lw 1091 425 m20 6 lw 3 lw 1104 438 m20 6 lw 3 lw 1118 426 m20 6 lw 3 lw 1132
 413 m20 6 lw 3 lw 1145 396 m20 6 lw 3 lw 1159 401 m20 6 lw 3 lw 1172 400 m20 6 lw 3 lw 1186 389 m20 6 lw 3 lw 1200 375 m20 6 lw 3 lw 1213 376 m20 6 lw 3 lw 1227 358 m20 6 lw 3 lw 1240 351 m20 6 lw 3 lw 1254 355 m20 6 lw 3 lw 1268 343 m20 6 lw 3 lw
 1281 340 m20 6 lw 3 lw 1295 327 m20 6 lw 3 lw 1308 322 m20 6 lw 3 lw 1322 314 m20 6 lw 3 lw 1336 308 m20 6 lw 3 lw 1349 303 m20 6 lw 3 lw 1363 295 m20 6 lw 3 lw 1377 291 m20 6 lw 3 lw 1390 281 m20 6 lw 3 lw 1404 282 m20 6 lw 3 lw 1417 284 m20 6 lw 3
 lw 1431 284 m20 6 lw 3 lw 1445 275 m20 6 lw 3 lw 1458 277 m20 6 lw 3 lw 1472 268 m20 6 lw 3 lw 1485 264 m20 6 lw 3 lw 1499 263 m20 6 lw 3 lw 1513 263 m20 6 lw 3 lw 1526 260 m20 6 lw 3 lw 1540 260 m20 6 lw 3 lw 1553 259 m20 6 lw 3 lw 1567 254 m20 6
 lw 3 lw 1581 252 m20 6 lw 3 lw 1594 253 m20 6 lw 3 lw 1608 247 m20 6 lw 3 lw 1621 247 m20 6 lw 3 lw 1635 245 m20 6 lw 3 lw 1649 249 m20 6 lw 3 lw 1662 244 m20 6 lw 3 lw 1676 247 m20 6 lw 3 lw 1689 243 m20 6 lw 3 lw 1703 246 m20 6 lw 3 lw 1717 239
 m20 6 lw 3 lw 1730 245 m20 6 lw 3 lw 1744 240 m20 6 lw 3 lw 1757 238 m20 6 lw 3 lw 1771 240 m20 6 lw 3 lw 1785 237 m20 6 lw 3 lw 1798 240 m20 6 lw 3 lw 1812 237 m20 6 lw 3 lw 1826 235 m20 6 lw 3 lw 1839 235 m20 6 lw 3 lw 1853 234 m20 6 lw 3 lw 1866
 235 m20 6 lw 3 lw 1880 234 m20 6 lw 3 lw 1894 233 m20 6 lw 3 lw 1907 234 m20 6 lw 3 lw 1921 234 m20 6 lw 3 lw 1934 234 m20 6 lw 3 lw 1948 234 m20 6 lw 3 lw 1962 233 m20 6 lw 3 lw 1975 234 m20 6 lw 3 lw 1989 232 m20 6 lw 3 lw 2002 234 m20 6 lw 3 lw
 2016 233 m20 6 lw 3 lw 2030 232 m20 6 lw 3 lw 2043 232 m20 6 lw 3 lw 2057 232 m20 6 lw 3 lw 2070 232 m20 6 lw 3 lw 2084 231 m20 6 lw 3 lw 2098 232 m20 6 lw 3 lw 2111 232 m20 6 lw 3 lw 2125 232 m20 6 lw 3 lw 2138 232 m20 6 lw 3 lw 2152 231 m20 6 lw 3
 lw 2166 231 m20 6 lw 3 lw 2179 231 m20 6 lw 3 lw 2193 231 m20 6 lw 0 0.6 0 c 1 1 1 c 0 0.6 0 c 3 lw 560 231 m20 6 lw 3 lw 574 237 m20 6 lw 3 lw 587 238 m20 6 lw 3 lw 601 243 m20 6 lw 3 lw 615 250 m20 6 lw 3 lw 628 254 m20 6 lw 3 lw 642 258 m20 6 lw
 3 lw 655 265 m20 6 lw 3 lw 669 267 m20 6 lw 3 lw 683 277 m20 6 lw 3 lw 696 278 m20 6 lw 3 lw 710 287 m20 6 lw 3 lw 723 295 m20 6 lw 3 lw 737 305 m20 6 lw 3 lw 751 313 m20 6 lw 3 lw 764 323 m20 6 lw 3 lw 778 331 m20 6 lw 3 lw 791 336 m20 6 lw 3 lw
 805 349 m20 6 lw 3 lw 819 365 m20 6 lw 3 lw 832 376 m20 6 lw 3 lw 846 381 m20 6 lw 3 lw 859 396 m20 6 lw 3 lw 873 408 m20 6 lw 3 lw 887 423 m20 6 lw 3 lw 900 440 m20 6 lw 3 lw 914 443 m20 6 lw 3 lw 927 435 m20 6 lw 3 lw 941 461 m20 6 lw 3 lw 955 466
 m20 6 lw 3 lw 968 466 m20 6 lw 3 lw 982 479 m20 6 lw 3 lw 996 468 m20 6 lw 3 lw 1009 478 m20 6 lw 3 lw 1023 474 m20 6 lw 3 lw 1036 468 m20 6 lw 3 lw 1050 473 m20 6 lw 3 lw 1064 470 m20 6 lw 3 lw 1077 472 m20 6 lw 3 lw 1091 460 m20 6 lw 3 lw 1104 465
 m20 6 lw 3 lw 1118 447 m20 6 lw 3 lw 1132 452 m20 6 lw 3 lw 1145 445 m20 6 lw 3 lw 1159 424 m20 6 lw 3 lw 1172 427 m20 6 lw 3 lw 1186 412 m20 6 lw 3 lw 1200 402 m20 6 lw 3 lw 1213 395 m20 6 lw 3 lw 1227 385 m20 6 lw 3 lw 1240 378 m20 6 lw 3 lw 1254
 368 m20 6 lw 3 lw 1268 359 m20 6 lw 3 lw 1281 351 m20 6 lw 3 lw 1295 350 m20 6 lw 3 lw 1308 332 m20 6 lw 3 lw 1322 328 m20 6 lw 3 lw 1336 320 m20 6 lw 3 lw 1349 317 m20 6 lw 3 lw 1363 317 m20 6 lw 3 lw 1377 309 m20 6 lw 3 lw 1390 306 m20 6 lw 3 lw
 1404 294 m20 6 lw 3 lw 1417 289 m20 6 lw 3 lw 1431 289 m20 6 lw 3 lw 1445 280 m20 6 lw 3 lw 1458 274 m20 6 lw 3 lw 1472 274 m20 6 lw 3 lw 1485 273 m20 6 lw 3 lw 1499 270 m20 6 lw 3 lw 1513 263 m20 6 lw 3 lw 1526 266 m20 6 lw 3 lw 1540 258 m20 6 lw 3
 lw 1553 261 m20 6 lw 3 lw 1567 257 m20 6 lw 3 lw 1581 255 m20 6 lw 3 lw 1594 253 m20 6 lw 3 lw 1608 250 m20 6 lw 3 lw 1621 250 m20 6 lw 3 lw 1635 247 m20 6 lw 3 lw 1649 250 m20 6 lw 3 lw 1662 244 m20 6 lw 3 lw 1676 245 m20 6 lw 3 lw 1689 243 m20 6
 lw 3 lw 1703 243 m20 6 lw 3 lw 1717 240 m20 6 lw 3 lw 1730 241 m20 6 lw 3 lw 1744 239 m20 6 lw 3 lw 1757 238 m20 6 lw 3 lw 1771 239 m20 6 lw 3 lw 1785 236 m20 6 lw 3 lw 1798 237 m20 6 lw 3 lw 1812 236 m20 6 lw 3 lw 1826 236 m20 6 lw 3 lw 1839 235
 m20 6 lw 3 lw 1853 234 m20 6 lw 3 lw 1866 234 m20 6 lw 3 lw 1880 234 m20 6 lw 3 lw 1894 234 m20 6 lw 3 lw 1907 236 m20 6 lw 3 lw 1921 234 m20 6 lw 3 lw 1934 233 m20 6 lw 3 lw 1948 233 m20 6 lw 3 lw 1962 232 m20 6 lw 3 lw 1975 233 m20 6 lw 3 lw 1989
 233 m20 6 lw 3 lw 2002 233 m20 6 lw 3 lw 2016 231 m20 6 lw 3 lw 2030 231 m20 6 lw 3 lw 2043 232 m20 6 lw 3 lw 2057 231 m20 6 lw 3 lw 2070 231 m20 6 lw 3 lw 2084 232 m20 6 lw 3 lw 2098 231 m20 6 lw 3 lw 2111 232 m20 6 lw 3 lw 2125 232 m20 6 lw 3 lw
 2138 231 m20 6 lw 3 lw 2152 231 m20 6 lw 3 lw 2166 231 m20 6 lw 3 lw 2179 231 m20 6 lw 3 lw 2193 231 m20 6 lw black
 gsave  2268 1538 0 0 C 1648.66 1394.52 t 0 r /Helvetica-Bold findfont 48.8732 sf 0 0 m ( < 40 GeV) show NC gr 
 gsave  2268 1538 0 0 C 1573.72 1420.58 t 0 r /Helvetica-Bold findfont 32.5821 sf 0 0 m (truth) show NC gr 
 gsave  2268 1538 0 0 C 1573.72 1368.45 t 0 r /Helvetica-Bold findfont 32.5821 sf 0 0 m (T) show NC gr 
 gsave  2268 1538 0 0 C 1433.61 1394.52 t 0 r /Helvetica-Bold findfont 48.8732 sf 0 0 m (30 < p) show NC gr  0 0 1 c 1275 1413 m 131 X s 3 lw 1341 1413 m20 6 lw black
 gsave  2268 1538 0 0 C 1648.66 1296.77 t 0 r /Helvetica-Bold findfont 48.8732 sf 0 0 m ( < 100 GeV) show NC gr 
 gsave  2268 1538 0 0 C 1573.72 1322.83 t 0 r /Helvetica-Bold findfont 32.5821 sf 0 0 m (truth) show NC gr 
 gsave  2268 1538 0 0 C 1573.72 1270.7 t 0 r /Helvetica-Bold findfont 32.5821 sf 0 0 m (T) show NC gr 
 gsave  2268 1538 0 0 C 1433.61 1296.77 t 0 r /Helvetica-Bold findfont 48.8732 sf 0 0 m (80 < p) show NC gr  1 0 0 c 1275 1317 m 131 X s 3 lw 1341 1317 m20 6 lw black
 gsave  2268 1538 0 0 C 1674.72 1202.28 t 0 r /Helvetica-Bold findfont 48.8732 sf 0 0 m ( < 400 GeV) show NC gr 
 gsave  2268 1538 0 0 C 1599.78 1228.35 t 0 r /Helvetica-Bold findfont 32.5821 sf 0 0 m (truth) show NC gr 
 gsave  2268 1538 0 0 C 1599.78 1176.21 t 0 r /Helvetica-Bold findfont 32.5821 sf 0 0 m (T) show NC gr 
 gsave  2268 1538 0 0 C 1433.61 1202.28 t 0 r /Helvetica-Bold findfont 48.8732 sf 0 0 m (350 < p) show NC gr  1275 1221 m 131 X s 3 lw 1341 1221 m20 6 lw
 gsave  2268 1538 0 0 C 1704.05 1104.53 t 0 r /Helvetica-Bold findfont 48.8732 sf 0 0 m ( < 1200 GeV) show NC gr 
 gsave  2268 1538 0 0 C 1629.11 1130.6 t 0 r /Helvetica-Bold findfont 32.5821 sf 0 0 m (truth) show NC gr 
 gsave  2268 1538 0 0 C 1629.11 1078.47 t 0 r /Helvetica-Bold findfont 32.5821 sf 0 0 m (T) show NC gr 
 gsave  2268 1538 0 0 C 1433.61 1104.53 t 0 r /Helvetica-Bold findfont 48.8732 sf 0 0 m (1000 < p) show NC gr  0 0.6 0 c 1275 1125 m 131 X s 3 lw 1341 1125 m20 6 lw black
 gsave  2268 1538 0 0 C 384.469 1417.32 t 0 r /Helvetica-BoldOblique findfont 61.9061 sf 0 0 m (ATLAS) show NC gr 
 gsave  2268 1538 0 0 C 632.093 1417.32 t 0 r /Helvetica findfont 58.6478 sf 0 0 m (Simulation Internal) show NC gr 
 gsave  2268 1538 0 0 C 746.131 1339.13 t 0 r /Helvetica findfont 58.6478 sf 0 0 m ( = 13 TeV) show NC gr 
 gsave  2268 1538 0 0 C 716.807 1339.13 t 0 r /Helvetica findfont 58.6478 sf 0 0 m (s) show NC gr  697 1372 m 7 -36 d s 3 lw 704 1336 m 6 52 d s 710 1388 m 36 X s
 gsave  2268 1538 0 0 C 384.469 1339.13 t 0 r /Helvetica findfont 58.6478 sf 0 0 m (Pythia Dijet ) show NC gr 
 gsave  2268 1538 0 0 C 384.469 1264.19 t 0 r /Helvetica findfont 58.6478 sf 0 0 m (EM+JES) show NC gr 
 gsave  2268 1538 0 0 C 938.365 1185.99 t 0 r /Helvetica findfont 58.6478 sf 0 0 m (| < 0.7) show NC gr 
 gsave  2268 1538 0 0 C 905.783 1185.99 t 0 r /Symbol findfont 58.6478 sf 0 0 m (h) show NC gr 
 gsave  2268 1538 0 0 C 720.065 1185.99 t 0 r /Helvetica findfont 58.6478 sf 0 0 m (, 0.6 < |) show NC gr 
 gsave  2268 1538 0 0 C 707.032 1169.7 t 0 r /Helvetica findfont 39.0986 sf 0 0 m (t) show NC gr 
 gsave  2268 1538 0 0 C 671.192 1185.99 t 0 r /Helvetica-Oblique findfont 58.6478 sf 0 0 m (k) show NC gr 
 gsave  2268 1538 0 0 C 430.084 1185.99 t 0 r /Helvetica findfont 58.6478 sf 0 0 m (=0.4 anti\255) show NC gr 
 gsave  2268 1538 0 0 C 384.469 1185.99 t 0 r /Helvetica-Oblique findfont 58.6478 sf 0 0 m (R) show NC gr 
 gr  gr showpage
end
%%EOF
