%!PS-Adobe-2.0 EPSF-2.0
%%BoundingBox:  0 0 567 384
%%Title: Tile0_Tile0/Distribution_Tile0_eta_7.eps: c1_n2
%%Creator: ROOT Version 6.22/08
%%CreationDate: Tue Aug  3 22:33:29 2021
%%DocumentNeededResources: ProcSet (FontSetInit)
%%EndComments
%%BeginProlog
80 dict begin
/s {stroke} def /l {lineto} def /m {moveto} def /t {translate} def
/r {rotate} def /rl {roll}  def /R {repeat} def
/d {rlineto} def /rm {rmoveto} def /gr {grestore} def /f {eofill} def
/c {setrgbcolor} def /black {0 setgray} def /sd {setdash} def
/cl {closepath} def /sf {scalefont setfont} def /lw {setlinewidth} def
/box {m dup 0 exch d exch 0 d 0 exch neg d cl} def
/NC{systemdict begin initclip end}def/C{NC box clip newpath}def
/bl {box s} def /bf {gsave box gsave f grestore 1 lw [] 0 sd s grestore} def /Y { 0 exch d} def /X { 0 d} def 
/K {{pop pop 0 moveto} exch kshow} bind def
/ita {/ang 15 def gsave [1 0 ang dup sin exch cos div 1 0 0] concat} def 
/mp {newpath /y exch def /x exch def} def
/side {[w .77 mul w .23 mul] .385 w mul sd w 0 l currentpoint t -144 r} def
/mr {mp x y w2 0 360 arc} def /m24 {mr s} def /m20 {mr f} def
/mb {mp x y w2 add m w2 neg 0 d 0 w neg d w 0 d 0 w d cl} def
/mt {mp x y w2 add m w2 neg w neg d w 0 d cl} def
/w4 {w 4 div} def
/w6 {w 6 div} def
/w8 {w 8 div} def
/m21 {mb f} def /m25 {mb s} def /m22 {mt f} def /m26{mt s} def
/m23 {mp x y w2 sub m w2 w d w neg 0 d cl f} def
/m27 {mp x y w2 add m w3 neg w2 neg d w3 w2 neg d w3 w2 d cl s} def
/m28 {mp x w2 sub y w2 sub w3 add m w3 0 d  0 w3 neg d w3 0 d 0 w3 d w3 0 d  0 w3 d w3 neg 0 d 0 w3 d w3 neg 0 d 0 w3 neg d w3 neg 0 d cl s } def
/m29 {mp gsave x w2 sub y w2 add w3 sub m currentpoint t 4 {side} repeat cl fill gr} def
/m30 {mp gsave x w2 sub y w2 add w3 sub m currentpoint t 4 {side} repeat cl s gr} def
/m31 {mp x y w2 sub m 0 w d x w2 sub y m w 0 d x w2 .707 mul sub y w2 .707 mul add m w 1.44 div w 1.44 div neg d x w2 .707 mul sub y w2 .707 mul sub m w 1.44 div w 1.44 div d s} def
/m32 {mp x y w2 sub m w2 w d w neg 0 d cl s} def
/m33 {mp x y w2 add m w3 neg w2 neg d w3 w2 neg d w3 w2 d cl f} def
/m34 {mp x w2 sub y w2 sub w3 add m w3 0 d  0 w3 neg d w3 0 d 0 w3 d w3 0 d  0 w3 d w3 neg 0 d 0 w3 d w3 neg 0 d 0 w3 neg d w3 neg 0 d cl f } def
/m35 {mp x y w2 add m w2 neg w2 neg d w2 w2 neg d w2 w2 d w2 neg w2 d x y w2 sub m 0 w d x w2 sub y m w 0 d s} def
/m36 {mb x w2 sub y w2 add m w w neg d x w2 sub y w2 sub m w w d s} def
/m37 {mp x y m w4 neg w2 d w4 neg w2 neg d w2 0 d  w4 neg w2 neg d w2 0 d w4 neg w2 d w2 0 d w4 neg w2 d w4 neg w2 neg d cl s} def
/m38 {mp x w4 sub y w2 add m w4 neg w4 neg d 0 w2 neg d w4 w4 neg d w2 0 d w4 w4 d 0 w2 d w4 neg w4 d w2 neg 0 d x y w2 sub m 0 w d x w2 sub y m w 0 d cl s} def
/m39 {mp x y m w4 neg w2 d w4 neg w2 neg d w2 0 d  w4 neg w2 neg d w2 0 d w4 neg w2 d w2 0 d w4 neg w2 d w4 neg w2 neg d cl f} def
/m40 {mp x y m w4 w2 d w4 w4 neg d w2 neg w4 neg d w2 w4 neg d w4 neg w4 neg d w4 neg w2 d w4 neg w2 neg d w4 neg w4 d w2 w4 d w2 neg w4 d w4 w4 d w4 w2 neg d cl s} def
/m41 {mp x y m w4 w2 d w4 w4 neg d w2 neg w4 neg d w2 w4 neg d w4 neg w4 neg d w4 neg w2 d w4 neg w2 neg d w4 neg w4 d w2 w4 d w2 neg w4 d w4 w4 d w4 w2 neg d cl f} def
/m42 {mp x y w2 add m w8 neg w2 -3 4 div mul d w2 -3 4 div mul w8 neg d w2 3 4 div mul w8 neg d w8 w2 -3 4 div mul d w8 w2 3 4 div mul d w2 3 4 div mul w8 d w2 -3 4 div mul w8 d w8 neg w2 3 4 div mul d cl s} def
/m43 {mp x y w2 add m w8 neg w2 -3 4 div mul d w2 -3 4 div mul w8 neg d w2 3 4 div mul w8 neg d w8 w2 -3 4 div mul d w8 w2 3 4 div mul d w2 3 4 div mul w8 d w2 -3 4 div mul w8 d w8 neg w2 3 4 div mul d cl f} def
/m44 {mp x y m w6 neg w2 d w2 2 3 div mul 0 d w6 neg w2 neg d w2 w6 d 0 w2 -2 3 div mul d w2 neg w6 d w6 w2 neg d w2 -2 3 div mul 0 d w6 w2 d w2 neg w6 neg d 0 w2 2 3 div mul d w2 w6 neg d cl s} def
/m45 {mp x y m w6 neg w2 d w2 2 3 div mul 0 d w6 neg w2 neg d w2 w6 d 0 w2 -2 3 div mul d w2 neg w6 d w6 w2 neg d w2 -2 3 div mul 0 d w6 w2 d w2 neg w6 neg d 0 w2 2 3 div mul d w2 w6 neg d cl f} def
/m46 {mp x y w4 add m w4 neg w4 d w4 neg w4 neg d  w4 w4 neg d w4 neg w4 neg d w4 w4 neg d w4 w4 d w4 w4 neg d w4 w4 d w4 neg w4 d w4 w4 d w4 neg w4 d w4 neg w4 neg d cl s} def
/m47 {mp x y w4 add m w4 neg w4 d w4 neg w4 neg d w4 w4 neg d w4 neg w4 neg d  w4 w4 neg d w4 w4 d w4 w4 neg d w4 w4 d w4 neg w4 d w4 w4 d w4 neg w4 d w4 neg w4 neg d cl f} def
/m48 {mp x y w4 add m w4 neg w4 d w4 neg w4 neg d w4 w4 neg d  w4 neg w4 neg d w4 w4 neg d w4 w4 d w4 w4 neg d w4 w4 d w4 neg w4 d w4 w4 d w4 neg w4 d w4 neg w4 neg d  w4 w4 neg d w4 neg w4 neg d w4 neg w4 d w4 w4 d cl f} def
/m49 {mp x w2 sub w3 add y w2 sub w3 add m  0 w3 neg d w3 0 d 0 w3 d w3 0 d 0 w3 d w3 neg 0 d 0 w3 d w3 neg 0 d 0 w3 neg d w3 neg 0 d 0 w3 neg d w3 0 d 0 w3 d w3 0 d 0 w3 neg d w3 neg 0 d cl f } def
/m2 {mp x y w2 sub m 0 w d x w2 sub y m w 0 d s} def
/m5 {mp x w2 .707 mul sub y w2 .707 mul sub m w 1.44 div w 1.44 div d x w2 .707 mul sub y w2 .707 mul add m w 1.44 div w 1.44 div neg d s} def
%%IncludeResource: ProcSet (FontSetInit)
%%IncludeResource: font Times-Roman
%%IncludeResource: font Times-Italic
%%IncludeResource: font Times-Bold
%%IncludeResource: font Times-BoldItalic
%%IncludeResource: font Helvetica
%%IncludeResource: font Helvetica-Oblique
%%IncludeResource: font Helvetica-Bold
%%IncludeResource: font Helvetica-BoldOblique
%%IncludeResource: font Courier
%%IncludeResource: font Courier-Oblique
%%IncludeResource: font Courier-Bold
%%IncludeResource: font Courier-BoldOblique
%%IncludeResource: font Symbol
%%IncludeResource: font ZapfDingbats
/reEncode {exch findfont dup length dict begin {1 index /FID eq  {pop pop} {def} ifelse } forall /Encoding exch def currentdict end dup /FontName get exch definefont pop } def [/Times-Bold /Times-Italic /Times-BoldItalic /Helvetica /Helvetica-Oblique
 /Helvetica-Bold /Helvetica-BoldOblique /Courier /Courier-Oblique /Courier-Bold /Courier-BoldOblique /Times-Roman /AvantGarde-Book /AvantGarde-BookOblique /AvantGarde-Demi /AvantGarde-DemiOblique /Bookman-Demi /Bookman-DemiItalic /Bookman-Light
 /Bookman-LightItalic /Helvetica-Narrow /Helvetica-Narrow-Bold /Helvetica-Narrow-BoldOblique /Helvetica-Narrow-Oblique /NewCenturySchlbk-Roman /NewCenturySchlbk-Bold /NewCenturySchlbk-BoldItalic /NewCenturySchlbk-Italic /Palatino-Bold
 /Palatino-BoldItalic /Palatino-Italic /Palatino-Roman ] {ISOLatin1Encoding reEncode } forall
%%EndProlog
%%BeginSetup
%%EndSetup
newpath  gsave  .25 .25 scale  gsave  0 0 t 1 0 0 c[  ] 0 sd 3 lw 1 1 1 c 2268 1538 0 0 bf black 1 1 1 c 1905 1276 295 231 bf black 1905 1276 295 231 bl 1 1 1 c 1905 1276 295 231 bf black 1905 1276 295 231 bl 0 0 1 c 6 lw 1 1 1 c 0 0 1 c 3 lw /w 31
 def /w2 {w 2 div} def /w3 {w 3 div} def 302 231 m20 6 lw 3 lw 315 231 m20 6 lw 3 lw 329 233 m20 6 lw 3 lw 342 232 m20 6 lw 3 lw 356 236 m20 6 lw 3 lw 370 234 m20 6 lw 3 lw 383 236 m20 6 lw 3 lw 397 238 m20 6 lw 3 lw 410 234 m20 6 lw 3 lw 424 240 m20
 6 lw 3 lw 438 241 m20 6 lw 3 lw 451 237 m20 6 lw 3 lw 465 247 m20 6 lw 3 lw 478 247 m20 6 lw 3 lw 492 256 m20 6 lw 3 lw 506 257 m20 6 lw 3 lw 519 274 m20 6 lw 3 lw 533 297 m20 6 lw 3 lw 547 326 m20 6 lw 560 541 m 5 Y s 560 572 m 5 Y s 3 lw 560 559
 m20 6 lw 574 636 m 7 Y s 574 669 m 7 Y s 3 lw 574 656 m20 6 lw 587 447 m 2 Y s 587 475 m 2 Y s 3 lw 587 462 m20 6 lw 601 419 m 1 Y s 601 446 m 1 Y s 3 lw 601 433 m20 6 lw 3 lw 615 404 m20 6 lw 3 lw 628 399 m20 6 lw 642 427 m 1 Y s 642 455 m 1 Y s 3
 lw 642 441 m20 6 lw 655 412 m 1 Y s 655 439 m 1 Y s 3 lw 655 426 m20 6 lw 669 426 m 1 Y s 669 454 m 1 Y s 3 lw 669 441 m20 6 lw 683 428 m 1 Y s 683 455 m 2 Y s 3 lw 683 442 m20 6 lw 696 434 m 1 Y s 696 461 m 2 Y s 3 lw 696 448 m20 6 lw 710 424 m 1 Y
 s 710 451 m 1 Y s 3 lw 710 438 m20 6 lw 723 404 m s 723 430 m 1 Y s 3 lw 723 417 m20 6 lw 737 434 m 1 Y s 737 461 m 2 Y s 3 lw 737 448 m20 6 lw 751 416 m 1 Y s 751 443 m 1 Y s 3 lw 751 430 m20 6 lw 764 439 m 2 Y s 764 467 m 2 Y s 3 lw 764 454 m20 6
 lw 3 lw 778 398 m20 6 lw 791 411 m s 791 437 m 1 Y s 3 lw 791 424 m20 6 lw 805 404 m s 805 430 m 1 Y s 3 lw 805 417 m20 6 lw 3 lw 819 394 m20 6 lw 832 401 m 1 Y s 832 428 m s 3 lw 832 415 m20 6 lw 3 lw 846 403 m20 6 lw 3 lw 859 384 m20 6 lw 3 lw 873
 397 m20 6 lw 3 lw 887 385 m20 6 lw 3 lw 900 395 m20 6 lw 3 lw 914 384 m20 6 lw 3 lw 927 363 m20 6 lw 3 lw 941 366 m20 6 lw 3 lw 955 364 m20 6 lw 3 lw 968 348 m20 6 lw 3 lw 982 353 m20 6 lw 3 lw 996 358 m20 6 lw 3 lw 1009 322 m20 6 lw 3 lw 1023 326
 m20 6 lw 3 lw 1036 338 m20 6 lw 3 lw 1050 333 m20 6 lw 3 lw 1064 330 m20 6 lw 3 lw 1077 335 m20 6 lw 3 lw 1091 335 m20 6 lw 3 lw 1104 334 m20 6 lw 3 lw 1118 308 m20 6 lw 3 lw 1132 304 m20 6 lw 3 lw 1145 314 m20 6 lw 3 lw 1159 306 m20 6 lw 3 lw 1172
 308 m20 6 lw 3 lw 1186 289 m20 6 lw 3 lw 1200 285 m20 6 lw 3 lw 1213 282 m20 6 lw 3 lw 1227 292 m20 6 lw 3 lw 1240 292 m20 6 lw 3 lw 1254 293 m20 6 lw 3 lw 1268 290 m20 6 lw 3 lw 1281 290 m20 6 lw 3 lw 1295 277 m20 6 lw 3 lw 1308 272 m20 6 lw 3 lw
 1322 273 m20 6 lw 3 lw 1336 269 m20 6 lw 3 lw 1349 266 m20 6 lw 3 lw 1363 264 m20 6 lw 3 lw 1377 263 m20 6 lw 3 lw 1390 260 m20 6 lw 3 lw 1404 260 m20 6 lw 3 lw 1417 276 m20 6 lw 3 lw 1431 264 m20 6 lw 3 lw 1445 261 m20 6 lw 3 lw 1458 262 m20 6 lw 3
 lw 1472 261 m20 6 lw 3 lw 1485 255 m20 6 lw 3 lw 1499 256 m20 6 lw 3 lw 1513 248 m20 6 lw 3 lw 1526 255 m20 6 lw 3 lw 1540 257 m20 6 lw 3 lw 1553 249 m20 6 lw 3 lw 1567 254 m20 6 lw 3 lw 1581 250 m20 6 lw 3 lw 1594 240 m20 6 lw 3 lw 1608 246 m20 6
 lw 3 lw 1621 243 m20 6 lw 3 lw 1635 249 m20 6 lw 3 lw 1649 239 m20 6 lw 3 lw 1662 240 m20 6 lw 3 lw 1676 242 m20 6 lw 3 lw 1689 240 m20 6 lw 3 lw 1703 242 m20 6 lw 3 lw 1717 237 m20 6 lw 3 lw 1730 243 m20 6 lw 3 lw 1744 238 m20 6 lw 3 lw 1757 240
 m20 6 lw 3 lw 1771 237 m20 6 lw 3 lw 1785 243 m20 6 lw 3 lw 1798 238 m20 6 lw 3 lw 1812 239 m20 6 lw 3 lw 1826 237 m20 6 lw 3 lw 1839 235 m20 6 lw 3 lw 1853 237 m20 6 lw 3 lw 1866 233 m20 6 lw 3 lw 1880 239 m20 6 lw 3 lw 1894 239 m20 6 lw 3 lw 1907
 233 m20 6 lw 3 lw 1921 237 m20 6 lw 3 lw 1934 233 m20 6 lw 3 lw 1948 233 m20 6 lw 3 lw 1962 235 m20 6 lw 3 lw 1975 235 m20 6 lw 3 lw 1989 233 m20 6 lw 3 lw 2002 235 m20 6 lw 3 lw 2016 234 m20 6 lw 3 lw 2030 234 m20 6 lw 3 lw 2043 235 m20 6 lw 3 lw
 2057 232 m20 6 lw 3 lw 2070 234 m20 6 lw 3 lw 2084 234 m20 6 lw 3 lw 2098 232 m20 6 lw 3 lw 2111 233 m20 6 lw 3 lw 2125 233 m20 6 lw 3 lw 2138 235 m20 6 lw 3 lw 2152 234 m20 6 lw 3 lw 2166 232 m20 6 lw 3 lw 2179 233 m20 6 lw 3 lw 2193 234 m20 6 lw
 black 3 lw 295 231 m 1905 X s 295 269 m -38 Y s 349 250 m -19 Y s 404 250 m -19 Y s 458 250 m -19 Y s 513 250 m -19 Y s 567 269 m -38 Y s 621 250 m -19 Y s 676 250 m -19 Y s 730 250 m -19 Y s 785 250 m -19 Y s 839 269 m -38 Y s 893 250 m -19 Y s 948
 250 m -19 Y s 1002 250 m -19 Y s 1057 250 m -19 Y s 1111 269 m -38 Y s 1166 250 m -19 Y s 1220 250 m -19 Y s 1274 250 m -19 Y s 1329 250 m -19 Y s 1383 269 m -38 Y s 1438 250 m -19 Y s 1492 250 m -19 Y s 1547 250 m -19 Y s 1601 250 m -19 Y s 1655
 269 m -38 Y s 1710 250 m -19 Y s 1764 250 m -19 Y s 1819 250 m -19 Y s 1873 250 m -19 Y s 1928 269 m -38 Y s 1982 250 m -19 Y s 2036 250 m -19 Y s 2091 250 m -19 Y s 2145 250 m -19 Y s 2200 269 m -38 Y s
 gsave  2268 1538 0 0 C 267.173 162.911 t 0 r /Helvetica findfont 71.6807 sf 0 0 m (0.1) show NC gr 
 gsave  2268 1538 0 0 C 231.333 162.911 t 0 r /Symbol findfont 71.6807 sf 0 0 m (-) show NC gr 
 gsave  2268 1538 0 0 C 547.38 162.911 t 0 r /Helvetica findfont 71.6807 sf 0 0 m (0) show NC gr 
 gsave  2268 1538 0 0 C 795.004 162.911 t 0 r /Helvetica findfont 71.6807 sf 0 0 m (0.1) show NC gr 
 gsave  2268 1538 0 0 C 1062.18 162.911 t 0 r /Helvetica findfont 71.6807 sf 0 0 m (0.2) show NC gr 
 gsave  2268 1538 0 0 C 1332.61 162.911 t 0 r /Helvetica findfont 71.6807 sf 0 0 m (0.3) show NC gr 
 gsave  2268 1538 0 0 C 1606.3 162.911 t 0 r /Helvetica findfont 71.6807 sf 0 0 m (0.4) show NC gr 
 gsave  2268 1538 0 0 C 1876.73 162.911 t 0 r /Helvetica findfont 71.6807 sf 0 0 m (0.5) show NC gr 
 gsave  2268 1538 0 0 C 2150.42 162.911 t 0 r /Helvetica findfont 71.6807 sf 0 0 m (0.6) show NC gr 
 gsave  2268 1538 0 0 C 2095.03 19.5493 t 0 r /Helvetica findfont 48.8732 sf 0 0 m (Tile0) show NC gr 
 gsave  2268 1538 0 0 C 2075.48 42.3568 t 0 r /Helvetica findfont 71.6807 sf 0 0 m (f) show NC gr  295 1507 m 1905 X s 295 1468 m 39 Y s 349 1488 m 19 Y s 404 1488 m 19 Y s 458 1488 m 19 Y s 513 1488 m 19 Y s 567 1468 m 39 Y s 621 1488 m 19 Y s 676
 1488 m 19 Y s 730 1488 m 19 Y s 785 1488 m 19 Y s 839 1468 m 39 Y s 893 1488 m 19 Y s 948 1488 m 19 Y s 1002 1488 m 19 Y s 1057 1488 m 19 Y s 1111 1468 m 39 Y s 1166 1488 m 19 Y s 1220 1488 m 19 Y s 1274 1488 m 19 Y s 1329 1488 m 19 Y s 1383 1468 m
 39 Y s 1438 1488 m 19 Y s 1492 1488 m 19 Y s 1547 1488 m 19 Y s 1601 1488 m 19 Y s 1655 1468 m 39 Y s 1710 1488 m 19 Y s 1764 1488 m 19 Y s 1819 1488 m 19 Y s 1873 1488 m 19 Y s 1928 1468 m 39 Y s 1982 1488 m 19 Y s 2036 1488 m 19 Y s 2091 1488 m 19
 Y s 2145 1488 m 19 Y s 2200 1468 m 39 Y s 295 231 m 1276 Y s 351 231 m -56 X s 323 277 m -28 X s 323 323 m -28 X s 323 369 m -28 X s 351 415 m -56 X s 323 461 m -28 X s 323 507 m -28 X s 323 552 m -28 X s 351 598 m -56 X s 323 644 m -28 X s 323 690
 m -28 X s 323 736 m -28 X s 351 782 m -56 X s 323 828 m -28 X s 323 874 m -28 X s 323 920 m -28 X s 351 966 m -56 X s 323 1012 m -28 X s 323 1058 m -28 X s 323 1104 m -28 X s 351 1150 m -56 X s 323 1196 m -28 X s 323 1242 m -28 X s 323 1288 m -28 X
 s 351 1334 m -56 X s 351 1334 m -56 X s 323 1380 m -28 X s 323 1426 m -28 X s 323 1472 m -28 X s
 gsave  2268 1538 0 0 C 244.366 205.267 t 0 r /Helvetica findfont 71.6807 sf 0 0 m (0) show NC gr 
 gsave  2268 1538 0 0 C 146.62 390.986 t 0 r /Helvetica findfont 71.6807 sf 0 0 m (0.02) show NC gr 
 gsave  2268 1538 0 0 C 146.62 573.446 t 0 r /Helvetica findfont 71.6807 sf 0 0 m (0.04) show NC gr 
 gsave  2268 1538 0 0 C 146.62 759.164 t 0 r /Helvetica findfont 71.6807 sf 0 0 m (0.06) show NC gr 
 gsave  2268 1538 0 0 C 146.62 941.624 t 0 r /Helvetica findfont 71.6807 sf 0 0 m (0.08) show NC gr 
 gsave  2268 1538 0 0 C 198.751 1124.08 t 0 r /Helvetica findfont 71.6807 sf 0 0 m (0.1) show NC gr 
 gsave  2268 1538 0 0 C 146.62 1309.8 t 0 r /Helvetica findfont 71.6807 sf 0 0 m (0.12) show NC gr 
 gsave  2268 1538 0 0 C 156.394 925.333 t 90 r /Helvetica findfont 71.6807 sf 0 0 m (Normalized entries) show NC gr  2200 231 m 1276 Y s 2143 231 m 57 X s 2171 277 m 29 X s 2171 323 m 29 X s 2171 369 m 29 X s 2143 415 m 57 X s 2171 461 m 29 X s 2171
 507 m 29 X s 2171 552 m 29 X s 2143 598 m 57 X s 2171 644 m 29 X s 2171 690 m 29 X s 2171 736 m 29 X s 2143 782 m 57 X s 2171 828 m 29 X s 2171 874 m 29 X s 2171 920 m 29 X s 2143 966 m 57 X s 2171 1012 m 29 X s 2171 1058 m 29 X s 2171 1104 m 29 X s
 2143 1150 m 57 X s 2171 1196 m 29 X s 2171 1242 m 29 X s 2171 1288 m 29 X s 2143 1334 m 57 X s 2143 1334 m 57 X s 2171 1380 m 29 X s 2171 1426 m 29 X s 2171 1472 m 29 X s 1 0 0 c 6 lw 1 1 1 c 1 0 0 c 3 lw 356 231 m20 6 lw 3 lw 370 231 m20 6 lw 3 lw
 383 231 m20 6 lw 3 lw 424 231 m20 6 lw 3 lw 451 231 m20 6 lw 3 lw 465 231 m20 6 lw 3 lw 478 231 m20 6 lw 3 lw 492 232 m20 6 lw 3 lw 506 232 m20 6 lw 3 lw 519 233 m20 6 lw 3 lw 533 235 m20 6 lw 3 lw 547 240 m20 6 lw 3 lw 560 267 m20 6 lw 3 lw 574 308
 m20 6 lw 3 lw 587 304 m20 6 lw 3 lw 601 316 m20 6 lw 3 lw 615 321 m20 6 lw 3 lw 628 354 m20 6 lw 3 lw 642 358 m20 6 lw 3 lw 655 369 m20 6 lw 3 lw 669 380 m20 6 lw 3 lw 683 388 m20 6 lw 3 lw 696 415 m20 6 lw 3 lw 710 424 m20 6 lw 3 lw 723 428 m20 6
 lw 3 lw 737 436 m20 6 lw 3 lw 751 442 m20 6 lw 3 lw 764 441 m20 6 lw 3 lw 778 443 m20 6 lw 3 lw 791 445 m20 6 lw 3 lw 805 453 m20 6 lw 3 lw 819 443 m20 6 lw 3 lw 832 449 m20 6 lw 3 lw 846 448 m20 6 lw 3 lw 859 452 m20 6 lw 3 lw 873 440 m20 6 lw 3 lw
 887 434 m20 6 lw 3 lw 900 442 m20 6 lw 3 lw 914 425 m20 6 lw 3 lw 927 430 m20 6 lw 3 lw 941 428 m20 6 lw 3 lw 955 411 m20 6 lw 3 lw 968 408 m20 6 lw 3 lw 982 409 m20 6 lw 3 lw 996 395 m20 6 lw 3 lw 1009 386 m20 6 lw 3 lw 1023 396 m20 6 lw 3 lw 1036
 386 m20 6 lw 3 lw 1050 380 m20 6 lw 3 lw 1064 383 m20 6 lw 3 lw 1077 367 m20 6 lw 3 lw 1091 353 m20 6 lw 3 lw 1104 352 m20 6 lw 3 lw 1118 345 m20 6 lw 3 lw 1132 355 m20 6 lw 3 lw 1145 344 m20 6 lw 3 lw 1159 340 m20 6 lw 3 lw 1172 330 m20 6 lw 3 lw
 1186 314 m20 6 lw 3 lw 1200 322 m20 6 lw 3 lw 1213 316 m20 6 lw 3 lw 1227 313 m20 6 lw 3 lw 1240 310 m20 6 lw 3 lw 1254 300 m20 6 lw 3 lw 1268 302 m20 6 lw 3 lw 1281 302 m20 6 lw 3 lw 1295 289 m20 6 lw 3 lw 1308 289 m20 6 lw 3 lw 1322 287 m20 6 lw 3
 lw 1336 284 m20 6 lw 3 lw 1349 285 m20 6 lw 3 lw 1363 279 m20 6 lw 3 lw 1377 277 m20 6 lw 3 lw 1390 280 m20 6 lw 3 lw 1404 273 m20 6 lw 3 lw 1417 270 m20 6 lw 3 lw 1431 266 m20 6 lw 3 lw 1445 269 m20 6 lw 3 lw 1458 262 m20 6 lw 3 lw 1472 261 m20 6
 lw 3 lw 1485 258 m20 6 lw 3 lw 1499 259 m20 6 lw 3 lw 1513 256 m20 6 lw 3 lw 1526 254 m20 6 lw 3 lw 1540 255 m20 6 lw 3 lw 1553 251 m20 6 lw 3 lw 1567 251 m20 6 lw 3 lw 1581 251 m20 6 lw 3 lw 1594 247 m20 6 lw 3 lw 1608 247 m20 6 lw 3 lw 1621 249
 m20 6 lw 3 lw 1635 243 m20 6 lw 3 lw 1649 246 m20 6 lw 3 lw 1662 244 m20 6 lw 3 lw 1676 244 m20 6 lw 3 lw 1689 244 m20 6 lw 3 lw 1703 243 m20 6 lw 3 lw 1717 242 m20 6 lw 3 lw 1730 242 m20 6 lw 3 lw 1744 242 m20 6 lw 3 lw 1757 239 m20 6 lw 3 lw 1771
 239 m20 6 lw 3 lw 1785 237 m20 6 lw 3 lw 1798 239 m20 6 lw 3 lw 1812 237 m20 6 lw 3 lw 1826 237 m20 6 lw 3 lw 1839 237 m20 6 lw 3 lw 1853 236 m20 6 lw 3 lw 1866 237 m20 6 lw 3 lw 1880 234 m20 6 lw 3 lw 1894 235 m20 6 lw 3 lw 1907 237 m20 6 lw 3 lw
 1921 237 m20 6 lw 3 lw 1934 236 m20 6 lw 3 lw 1948 235 m20 6 lw 3 lw 1962 237 m20 6 lw 3 lw 1975 233 m20 6 lw 3 lw 1989 234 m20 6 lw 3 lw 2002 233 m20 6 lw 3 lw 2016 232 m20 6 lw 3 lw 2030 233 m20 6 lw 3 lw 2043 232 m20 6 lw 3 lw 2057 233 m20 6 lw 3
 lw 2070 233 m20 6 lw 3 lw 2084 232 m20 6 lw 3 lw 2098 233 m20 6 lw 3 lw 2111 234 m20 6 lw 3 lw 2125 233 m20 6 lw 3 lw 2138 231 m20 6 lw 3 lw 2152 233 m20 6 lw 3 lw 2166 232 m20 6 lw 3 lw 2179 232 m20 6 lw 3 lw 2193 232 m20 6 lw black 1 1 1 c black 3
 lw 547 231 m20 6 lw 3 lw 560 234 m20 6 lw 3 lw 574 241 m20 6 lw 3 lw 587 246 m20 6 lw 3 lw 601 248 m20 6 lw 3 lw 615 249 m20 6 lw 3 lw 628 255 m20 6 lw 3 lw 642 271 m20 6 lw 3 lw 655 273 m20 6 lw 3 lw 669 276 m20 6 lw 3 lw 683 300 m20 6 lw 3 lw 696
 305 m20 6 lw 3 lw 710 316 m20 6 lw 3 lw 723 321 m20 6 lw 3 lw 737 349 m20 6 lw 3 lw 751 345 m20 6 lw 3 lw 764 373 m20 6 lw 3 lw 778 378 m20 6 lw 3 lw 791 380 m20 6 lw 3 lw 805 395 m20 6 lw 3 lw 819 389 m20 6 lw 3 lw 832 407 m20 6 lw 3 lw 846 427 m20
 6 lw 3 lw 859 441 m20 6 lw 3 lw 873 451 m20 6 lw 3 lw 887 444 m20 6 lw 3 lw 900 458 m20 6 lw 3 lw 914 445 m20 6 lw 3 lw 927 450 m20 6 lw 3 lw 941 484 m20 6 lw 3 lw 955 462 m20 6 lw 3 lw 968 458 m20 6 lw 3 lw 982 471 m20 6 lw 3 lw 996 462 m20 6 lw 3
 lw 1009 463 m20 6 lw 3 lw 1023 455 m20 6 lw 3 lw 1036 434 m20 6 lw 3 lw 1050 445 m20 6 lw 3 lw 1064 433 m20 6 lw 3 lw 1077 441 m20 6 lw 3 lw 1091 421 m20 6 lw 3 lw 1104 430 m20 6 lw 3 lw 1118 407 m20 6 lw 3 lw 1132 415 m20 6 lw 3 lw 1145 387 m20 6
 lw 3 lw 1159 388 m20 6 lw 3 lw 1172 381 m20 6 lw 3 lw 1186 375 m20 6 lw 3 lw 1200 374 m20 6 lw 3 lw 1213 364 m20 6 lw 3 lw 1227 350 m20 6 lw 3 lw 1240 341 m20 6 lw 3 lw 1254 340 m20 6 lw 3 lw 1268 339 m20 6 lw 3 lw 1281 321 m20 6 lw 3 lw 1295 315
 m20 6 lw 3 lw 1308 315 m20 6 lw 3 lw 1322 311 m20 6 lw 3 lw 1336 303 m20 6 lw 3 lw 1349 301 m20 6 lw 3 lw 1363 296 m20 6 lw 3 lw 1377 290 m20 6 lw 3 lw 1390 290 m20 6 lw 3 lw 1404 283 m20 6 lw 3 lw 1417 282 m20 6 lw 3 lw 1431 271 m20 6 lw 3 lw 1445
 276 m20 6 lw 3 lw 1458 265 m20 6 lw 3 lw 1472 266 m20 6 lw 3 lw 1485 262 m20 6 lw 3 lw 1499 263 m20 6 lw 3 lw 1513 258 m20 6 lw 3 lw 1526 257 m20 6 lw 3 lw 1540 260 m20 6 lw 3 lw 1553 257 m20 6 lw 3 lw 1567 251 m20 6 lw 3 lw 1581 255 m20 6 lw 3 lw
 1594 252 m20 6 lw 3 lw 1608 249 m20 6 lw 3 lw 1621 249 m20 6 lw 3 lw 1635 247 m20 6 lw 3 lw 1649 244 m20 6 lw 3 lw 1662 243 m20 6 lw 3 lw 1676 243 m20 6 lw 3 lw 1689 243 m20 6 lw 3 lw 1703 242 m20 6 lw 3 lw 1717 239 m20 6 lw 3 lw 1730 239 m20 6 lw 3
 lw 1744 239 m20 6 lw 3 lw 1757 239 m20 6 lw 3 lw 1771 240 m20 6 lw 3 lw 1785 239 m20 6 lw 3 lw 1798 240 m20 6 lw 3 lw 1812 237 m20 6 lw 3 lw 1826 238 m20 6 lw 3 lw 1839 235 m20 6 lw 3 lw 1853 238 m20 6 lw 3 lw 1866 235 m20 6 lw 3 lw 1880 235 m20 6
 lw 3 lw 1894 237 m20 6 lw 3 lw 1907 236 m20 6 lw 3 lw 1921 235 m20 6 lw 3 lw 1934 234 m20 6 lw 3 lw 1948 235 m20 6 lw 3 lw 1962 238 m20 6 lw 3 lw 1975 234 m20 6 lw 3 lw 1989 234 m20 6 lw 3 lw 2002 233 m20 6 lw 3 lw 2016 234 m20 6 lw 3 lw 2030 233
 m20 6 lw 3 lw 2043 231 m20 6 lw 3 lw 2057 232 m20 6 lw 3 lw 2070 233 m20 6 lw 3 lw 2084 232 m20 6 lw 3 lw 2098 232 m20 6 lw 3 lw 2111 233 m20 6 lw 3 lw 2125 232 m20 6 lw 3 lw 2138 232 m20 6 lw 3 lw 2152 232 m20 6 lw 3 lw 2166 231 m20 6 lw 3 lw 2179
 231 m20 6 lw 3 lw 2193 231 m20 6 lw 0 0.6 0 c 1 1 1 c 0 0.6 0 c 3 lw 560 231 m20 6 lw 3 lw 574 239 m20 6 lw 3 lw 587 241 m20 6 lw 3 lw 601 247 m20 6 lw 3 lw 615 250 m20 6 lw 3 lw 628 253 m20 6 lw 3 lw 642 257 m20 6 lw 3 lw 655 263 m20 6 lw 3 lw 669
 271 m20 6 lw 3 lw 683 276 m20 6 lw 3 lw 696 281 m20 6 lw 3 lw 710 288 m20 6 lw 3 lw 723 290 m20 6 lw 3 lw 737 310 m20 6 lw 3 lw 751 314 m20 6 lw 3 lw 764 322 m20 6 lw 3 lw 778 345 m20 6 lw 3 lw 791 349 m20 6 lw 3 lw 805 355 m20 6 lw 3 lw 819 366 m20
 6 lw 3 lw 832 372 m20 6 lw 3 lw 846 383 m20 6 lw 3 lw 859 393 m20 6 lw 3 lw 873 408 m20 6 lw 3 lw 887 424 m20 6 lw 3 lw 900 436 m20 6 lw 3 lw 914 440 m20 6 lw 3 lw 927 443 m20 6 lw 3 lw 941 446 m20 6 lw 3 lw 955 461 m20 6 lw 3 lw 968 462 m20 6 lw 3
 lw 982 469 m20 6 lw 3 lw 996 465 m20 6 lw 3 lw 1009 456 m20 6 lw 3 lw 1023 461 m20 6 lw 3 lw 1036 471 m20 6 lw 3 lw 1050 462 m20 6 lw 3 lw 1064 453 m20 6 lw 3 lw 1077 453 m20 6 lw 3 lw 1091 460 m20 6 lw 3 lw 1104 450 m20 6 lw 3 lw 1118 433 m20 6 lw
 3 lw 1132 428 m20 6 lw 3 lw 1145 427 m20 6 lw 3 lw 1159 409 m20 6 lw 3 lw 1172 405 m20 6 lw 3 lw 1186 400 m20 6 lw 3 lw 1200 399 m20 6 lw 3 lw 1213 383 m20 6 lw 3 lw 1227 375 m20 6 lw 3 lw 1240 370 m20 6 lw 3 lw 1254 362 m20 6 lw 3 lw 1268 353 m20 6
 lw 3 lw 1281 347 m20 6 lw 3 lw 1295 343 m20 6 lw 3 lw 1308 326 m20 6 lw 3 lw 1322 328 m20 6 lw 3 lw 1336 319 m20 6 lw 3 lw 1349 318 m20 6 lw 3 lw 1363 307 m20 6 lw 3 lw 1377 301 m20 6 lw 3 lw 1390 300 m20 6 lw 3 lw 1404 294 m20 6 lw 3 lw 1417 293
 m20 6 lw 3 lw 1431 283 m20 6 lw 3 lw 1445 280 m20 6 lw 3 lw 1458 277 m20 6 lw 3 lw 1472 275 m20 6 lw 3 lw 1485 271 m20 6 lw 3 lw 1499 266 m20 6 lw 3 lw 1513 266 m20 6 lw 3 lw 1526 261 m20 6 lw 3 lw 1540 262 m20 6 lw 3 lw 1553 258 m20 6 lw 3 lw 1567
 256 m20 6 lw 3 lw 1581 254 m20 6 lw 3 lw 1594 252 m20 6 lw 3 lw 1608 256 m20 6 lw 3 lw 1621 250 m20 6 lw 3 lw 1635 247 m20 6 lw 3 lw 1649 245 m20 6 lw 3 lw 1662 245 m20 6 lw 3 lw 1676 245 m20 6 lw 3 lw 1689 242 m20 6 lw 3 lw 1703 243 m20 6 lw 3 lw
 1717 239 m20 6 lw 3 lw 1730 240 m20 6 lw 3 lw 1744 239 m20 6 lw 3 lw 1757 239 m20 6 lw 3 lw 1771 238 m20 6 lw 3 lw 1785 238 m20 6 lw 3 lw 1798 239 m20 6 lw 3 lw 1812 236 m20 6 lw 3 lw 1826 236 m20 6 lw 3 lw 1839 237 m20 6 lw 3 lw 1853 236 m20 6 lw 3
 lw 1866 236 m20 6 lw 3 lw 1880 234 m20 6 lw 3 lw 1894 234 m20 6 lw 3 lw 1907 235 m20 6 lw 3 lw 1921 235 m20 6 lw 3 lw 1934 233 m20 6 lw 3 lw 1948 233 m20 6 lw 3 lw 1962 233 m20 6 lw 3 lw 1975 233 m20 6 lw 3 lw 1989 232 m20 6 lw 3 lw 2002 233 m20 6
 lw 3 lw 2016 233 m20 6 lw 3 lw 2030 233 m20 6 lw 3 lw 2043 232 m20 6 lw 3 lw 2057 232 m20 6 lw 3 lw 2070 232 m20 6 lw 3 lw 2084 232 m20 6 lw 3 lw 2098 231 m20 6 lw 3 lw 2111 232 m20 6 lw 3 lw 2125 232 m20 6 lw 3 lw 2138 232 m20 6 lw 3 lw 2152 231
 m20 6 lw 3 lw 2166 232 m20 6 lw 3 lw 2179 231 m20 6 lw 3 lw 2193 232 m20 6 lw black
 gsave  2268 1538 0 0 C 1648.66 1394.52 t 0 r /Helvetica-Bold findfont 48.8732 sf 0 0 m ( < 40 GeV) show NC gr 
 gsave  2268 1538 0 0 C 1573.72 1420.58 t 0 r /Helvetica-Bold findfont 32.5821 sf 0 0 m (truth) show NC gr 
 gsave  2268 1538 0 0 C 1573.72 1368.45 t 0 r /Helvetica-Bold findfont 32.5821 sf 0 0 m (T) show NC gr 
 gsave  2268 1538 0 0 C 1433.61 1394.52 t 0 r /Helvetica-Bold findfont 48.8732 sf 0 0 m (30 < p) show NC gr  0 0 1 c 1275 1413 m 131 X s 3 lw 1341 1413 m20 6 lw black
 gsave  2268 1538 0 0 C 1648.66 1296.77 t 0 r /Helvetica-Bold findfont 48.8732 sf 0 0 m ( < 100 GeV) show NC gr 
 gsave  2268 1538 0 0 C 1573.72 1322.83 t 0 r /Helvetica-Bold findfont 32.5821 sf 0 0 m (truth) show NC gr 
 gsave  2268 1538 0 0 C 1573.72 1270.7 t 0 r /Helvetica-Bold findfont 32.5821 sf 0 0 m (T) show NC gr 
 gsave  2268 1538 0 0 C 1433.61 1296.77 t 0 r /Helvetica-Bold findfont 48.8732 sf 0 0 m (80 < p) show NC gr  1 0 0 c 1275 1317 m 131 X s 3 lw 1341 1317 m20 6 lw black
 gsave  2268 1538 0 0 C 1674.72 1202.28 t 0 r /Helvetica-Bold findfont 48.8732 sf 0 0 m ( < 400 GeV) show NC gr 
 gsave  2268 1538 0 0 C 1599.78 1228.35 t 0 r /Helvetica-Bold findfont 32.5821 sf 0 0 m (truth) show NC gr 
 gsave  2268 1538 0 0 C 1599.78 1176.21 t 0 r /Helvetica-Bold findfont 32.5821 sf 0 0 m (T) show NC gr 
 gsave  2268 1538 0 0 C 1433.61 1202.28 t 0 r /Helvetica-Bold findfont 48.8732 sf 0 0 m (350 < p) show NC gr  1275 1221 m 131 X s 3 lw 1341 1221 m20 6 lw
 gsave  2268 1538 0 0 C 1704.05 1104.53 t 0 r /Helvetica-Bold findfont 48.8732 sf 0 0 m ( < 1200 GeV) show NC gr 
 gsave  2268 1538 0 0 C 1629.11 1130.6 t 0 r /Helvetica-Bold findfont 32.5821 sf 0 0 m (truth) show NC gr 
 gsave  2268 1538 0 0 C 1629.11 1078.47 t 0 r /Helvetica-Bold findfont 32.5821 sf 0 0 m (T) show NC gr 
 gsave  2268 1538 0 0 C 1433.61 1104.53 t 0 r /Helvetica-Bold findfont 48.8732 sf 0 0 m (1000 < p) show NC gr  0 0.6 0 c 1275 1125 m 131 X s 3 lw 1341 1125 m20 6 lw black
 gsave  2268 1538 0 0 C 384.469 1417.32 t 0 r /Helvetica-BoldOblique findfont 61.9061 sf 0 0 m (ATLAS) show NC gr 
 gsave  2268 1538 0 0 C 632.093 1417.32 t 0 r /Helvetica findfont 58.6478 sf 0 0 m (Simulation Internal) show NC gr 
 gsave  2268 1538 0 0 C 746.131 1339.13 t 0 r /Helvetica findfont 58.6478 sf 0 0 m ( = 13 TeV) show NC gr 
 gsave  2268 1538 0 0 C 716.807 1339.13 t 0 r /Helvetica findfont 58.6478 sf 0 0 m (s) show NC gr  697 1372 m 7 -36 d s 3 lw 704 1336 m 6 52 d s 710 1388 m 36 X s
 gsave  2268 1538 0 0 C 384.469 1339.13 t 0 r /Helvetica findfont 58.6478 sf 0 0 m (Pythia Dijet ) show NC gr 
 gsave  2268 1538 0 0 C 384.469 1264.19 t 0 r /Helvetica findfont 58.6478 sf 0 0 m (EM+JES) show NC gr 
 gsave  2268 1538 0 0 C 938.365 1185.99 t 0 r /Helvetica findfont 58.6478 sf 0 0 m (| < 0.8) show NC gr 
 gsave  2268 1538 0 0 C 905.783 1185.99 t 0 r /Symbol findfont 58.6478 sf 0 0 m (h) show NC gr 
 gsave  2268 1538 0 0 C 720.065 1185.99 t 0 r /Helvetica findfont 58.6478 sf 0 0 m (, 0.7 < |) show NC gr 
 gsave  2268 1538 0 0 C 707.032 1169.7 t 0 r /Helvetica findfont 39.0986 sf 0 0 m (t) show NC gr 
 gsave  2268 1538 0 0 C 671.192 1185.99 t 0 r /Helvetica-Oblique findfont 58.6478 sf 0 0 m (k) show NC gr 
 gsave  2268 1538 0 0 C 430.084 1185.99 t 0 r /Helvetica findfont 58.6478 sf 0 0 m (=0.4 anti\255) show NC gr 
 gsave  2268 1538 0 0 C 384.469 1185.99 t 0 r /Helvetica-Oblique findfont 58.6478 sf 0 0 m (R) show NC gr 
 gr  gr showpage
end
%%EOF
