%!PS-Adobe-2.0 EPSF-2.0
%%BoundingBox:  0 0 567 384
%%Title: Tile0_Tile0/Distribution_Tile0_eta_10.eps: c1
%%Creator: ROOT Version 6.22/08
%%CreationDate: Tue Aug  3 22:33:29 2021
%%DocumentNeededResources: ProcSet (FontSetInit)
%%EndComments
%%BeginProlog
80 dict begin
/s {stroke} def /l {lineto} def /m {moveto} def /t {translate} def
/r {rotate} def /rl {roll}  def /R {repeat} def
/d {rlineto} def /rm {rmoveto} def /gr {grestore} def /f {eofill} def
/c {setrgbcolor} def /black {0 setgray} def /sd {setdash} def
/cl {closepath} def /sf {scalefont setfont} def /lw {setlinewidth} def
/box {m dup 0 exch d exch 0 d 0 exch neg d cl} def
/NC{systemdict begin initclip end}def/C{NC box clip newpath}def
/bl {box s} def /bf {gsave box gsave f grestore 1 lw [] 0 sd s grestore} def /Y { 0 exch d} def /X { 0 d} def 
/K {{pop pop 0 moveto} exch kshow} bind def
/ita {/ang 15 def gsave [1 0 ang dup sin exch cos div 1 0 0] concat} def 
/mp {newpath /y exch def /x exch def} def
/side {[w .77 mul w .23 mul] .385 w mul sd w 0 l currentpoint t -144 r} def
/mr {mp x y w2 0 360 arc} def /m24 {mr s} def /m20 {mr f} def
/mb {mp x y w2 add m w2 neg 0 d 0 w neg d w 0 d 0 w d cl} def
/mt {mp x y w2 add m w2 neg w neg d w 0 d cl} def
/w4 {w 4 div} def
/w6 {w 6 div} def
/w8 {w 8 div} def
/m21 {mb f} def /m25 {mb s} def /m22 {mt f} def /m26{mt s} def
/m23 {mp x y w2 sub m w2 w d w neg 0 d cl f} def
/m27 {mp x y w2 add m w3 neg w2 neg d w3 w2 neg d w3 w2 d cl s} def
/m28 {mp x w2 sub y w2 sub w3 add m w3 0 d  0 w3 neg d w3 0 d 0 w3 d w3 0 d  0 w3 d w3 neg 0 d 0 w3 d w3 neg 0 d 0 w3 neg d w3 neg 0 d cl s } def
/m29 {mp gsave x w2 sub y w2 add w3 sub m currentpoint t 4 {side} repeat cl fill gr} def
/m30 {mp gsave x w2 sub y w2 add w3 sub m currentpoint t 4 {side} repeat cl s gr} def
/m31 {mp x y w2 sub m 0 w d x w2 sub y m w 0 d x w2 .707 mul sub y w2 .707 mul add m w 1.44 div w 1.44 div neg d x w2 .707 mul sub y w2 .707 mul sub m w 1.44 div w 1.44 div d s} def
/m32 {mp x y w2 sub m w2 w d w neg 0 d cl s} def
/m33 {mp x y w2 add m w3 neg w2 neg d w3 w2 neg d w3 w2 d cl f} def
/m34 {mp x w2 sub y w2 sub w3 add m w3 0 d  0 w3 neg d w3 0 d 0 w3 d w3 0 d  0 w3 d w3 neg 0 d 0 w3 d w3 neg 0 d 0 w3 neg d w3 neg 0 d cl f } def
/m35 {mp x y w2 add m w2 neg w2 neg d w2 w2 neg d w2 w2 d w2 neg w2 d x y w2 sub m 0 w d x w2 sub y m w 0 d s} def
/m36 {mb x w2 sub y w2 add m w w neg d x w2 sub y w2 sub m w w d s} def
/m37 {mp x y m w4 neg w2 d w4 neg w2 neg d w2 0 d  w4 neg w2 neg d w2 0 d w4 neg w2 d w2 0 d w4 neg w2 d w4 neg w2 neg d cl s} def
/m38 {mp x w4 sub y w2 add m w4 neg w4 neg d 0 w2 neg d w4 w4 neg d w2 0 d w4 w4 d 0 w2 d w4 neg w4 d w2 neg 0 d x y w2 sub m 0 w d x w2 sub y m w 0 d cl s} def
/m39 {mp x y m w4 neg w2 d w4 neg w2 neg d w2 0 d  w4 neg w2 neg d w2 0 d w4 neg w2 d w2 0 d w4 neg w2 d w4 neg w2 neg d cl f} def
/m40 {mp x y m w4 w2 d w4 w4 neg d w2 neg w4 neg d w2 w4 neg d w4 neg w4 neg d w4 neg w2 d w4 neg w2 neg d w4 neg w4 d w2 w4 d w2 neg w4 d w4 w4 d w4 w2 neg d cl s} def
/m41 {mp x y m w4 w2 d w4 w4 neg d w2 neg w4 neg d w2 w4 neg d w4 neg w4 neg d w4 neg w2 d w4 neg w2 neg d w4 neg w4 d w2 w4 d w2 neg w4 d w4 w4 d w4 w2 neg d cl f} def
/m42 {mp x y w2 add m w8 neg w2 -3 4 div mul d w2 -3 4 div mul w8 neg d w2 3 4 div mul w8 neg d w8 w2 -3 4 div mul d w8 w2 3 4 div mul d w2 3 4 div mul w8 d w2 -3 4 div mul w8 d w8 neg w2 3 4 div mul d cl s} def
/m43 {mp x y w2 add m w8 neg w2 -3 4 div mul d w2 -3 4 div mul w8 neg d w2 3 4 div mul w8 neg d w8 w2 -3 4 div mul d w8 w2 3 4 div mul d w2 3 4 div mul w8 d w2 -3 4 div mul w8 d w8 neg w2 3 4 div mul d cl f} def
/m44 {mp x y m w6 neg w2 d w2 2 3 div mul 0 d w6 neg w2 neg d w2 w6 d 0 w2 -2 3 div mul d w2 neg w6 d w6 w2 neg d w2 -2 3 div mul 0 d w6 w2 d w2 neg w6 neg d 0 w2 2 3 div mul d w2 w6 neg d cl s} def
/m45 {mp x y m w6 neg w2 d w2 2 3 div mul 0 d w6 neg w2 neg d w2 w6 d 0 w2 -2 3 div mul d w2 neg w6 d w6 w2 neg d w2 -2 3 div mul 0 d w6 w2 d w2 neg w6 neg d 0 w2 2 3 div mul d w2 w6 neg d cl f} def
/m46 {mp x y w4 add m w4 neg w4 d w4 neg w4 neg d  w4 w4 neg d w4 neg w4 neg d w4 w4 neg d w4 w4 d w4 w4 neg d w4 w4 d w4 neg w4 d w4 w4 d w4 neg w4 d w4 neg w4 neg d cl s} def
/m47 {mp x y w4 add m w4 neg w4 d w4 neg w4 neg d w4 w4 neg d w4 neg w4 neg d  w4 w4 neg d w4 w4 d w4 w4 neg d w4 w4 d w4 neg w4 d w4 w4 d w4 neg w4 d w4 neg w4 neg d cl f} def
/m48 {mp x y w4 add m w4 neg w4 d w4 neg w4 neg d w4 w4 neg d  w4 neg w4 neg d w4 w4 neg d w4 w4 d w4 w4 neg d w4 w4 d w4 neg w4 d w4 w4 d w4 neg w4 d w4 neg w4 neg d  w4 w4 neg d w4 neg w4 neg d w4 neg w4 d w4 w4 d cl f} def
/m49 {mp x w2 sub w3 add y w2 sub w3 add m  0 w3 neg d w3 0 d 0 w3 d w3 0 d 0 w3 d w3 neg 0 d 0 w3 d w3 neg 0 d 0 w3 neg d w3 neg 0 d 0 w3 neg d w3 0 d 0 w3 d w3 0 d 0 w3 neg d w3 neg 0 d cl f } def
/m2 {mp x y w2 sub m 0 w d x w2 sub y m w 0 d s} def
/m5 {mp x w2 .707 mul sub y w2 .707 mul sub m w 1.44 div w 1.44 div d x w2 .707 mul sub y w2 .707 mul add m w 1.44 div w 1.44 div neg d s} def
%%IncludeResource: ProcSet (FontSetInit)
%%IncludeResource: font Times-Roman
%%IncludeResource: font Times-Italic
%%IncludeResource: font Times-Bold
%%IncludeResource: font Times-BoldItalic
%%IncludeResource: font Helvetica
%%IncludeResource: font Helvetica-Oblique
%%IncludeResource: font Helvetica-Bold
%%IncludeResource: font Helvetica-BoldOblique
%%IncludeResource: font Courier
%%IncludeResource: font Courier-Oblique
%%IncludeResource: font Courier-Bold
%%IncludeResource: font Courier-BoldOblique
%%IncludeResource: font Symbol
%%IncludeResource: font ZapfDingbats
/reEncode {exch findfont dup length dict begin {1 index /FID eq  {pop pop} {def} ifelse } forall /Encoding exch def currentdict end dup /FontName get exch definefont pop } def [/Times-Bold /Times-Italic /Times-BoldItalic /Helvetica /Helvetica-Oblique
 /Helvetica-Bold /Helvetica-BoldOblique /Courier /Courier-Oblique /Courier-Bold /Courier-BoldOblique /Times-Roman /AvantGarde-Book /AvantGarde-BookOblique /AvantGarde-Demi /AvantGarde-DemiOblique /Bookman-Demi /Bookman-DemiItalic /Bookman-Light
 /Bookman-LightItalic /Helvetica-Narrow /Helvetica-Narrow-Bold /Helvetica-Narrow-BoldOblique /Helvetica-Narrow-Oblique /NewCenturySchlbk-Roman /NewCenturySchlbk-Bold /NewCenturySchlbk-BoldItalic /NewCenturySchlbk-Italic /Palatino-Bold
 /Palatino-BoldItalic /Palatino-Italic /Palatino-Roman ] {ISOLatin1Encoding reEncode } forall
%%EndProlog
%%BeginSetup
%%EndSetup
newpath  gsave  .25 .25 scale  gsave  0 0 t 1 0 0 c[  ] 0 sd 3 lw 1 1 1 c 2268 1538 0 0 bf black 1 1 1 c 1905 1276 295 231 bf black 1905 1276 295 231 bl 1 1 1 c 1905 1276 295 231 bf black 1905 1276 295 231 bl 0 0 1 c 6 lw 1 1 1 c 0 0 1 c 3 lw /w 31
 def /w2 {w 2 div} def /w3 {w 3 div} def 302 233 m20 6 lw 3 lw 315 232 m20 6 lw 3 lw 329 233 m20 6 lw 3 lw 342 231 m20 6 lw 3 lw 356 234 m20 6 lw 3 lw 370 236 m20 6 lw 3 lw 383 238 m20 6 lw 3 lw 397 238 m20 6 lw 3 lw 410 241 m20 6 lw 3 lw 424 241 m20
 6 lw 3 lw 438 239 m20 6 lw 3 lw 451 241 m20 6 lw 3 lw 465 249 m20 6 lw 3 lw 478 248 m20 6 lw 3 lw 492 258 m20 6 lw 3 lw 506 270 m20 6 lw 3 lw 519 286 m20 6 lw 3 lw 533 306 m20 6 lw 3 lw 547 377 m20 6 lw 3 lw 560 546 m20 6 lw 574 642 m 1 Y s 574 669
 m 1 Y s 3 lw 574 656 m20 6 lw 3 lw 587 474 m20 6 lw 3 lw 601 429 m20 6 lw 3 lw 615 414 m20 6 lw 3 lw 628 389 m20 6 lw 3 lw 642 417 m20 6 lw 3 lw 655 389 m20 6 lw 3 lw 669 399 m20 6 lw 3 lw 683 378 m20 6 lw 3 lw 696 388 m20 6 lw 3 lw 710 374 m20 6 lw
 3 lw 723 369 m20 6 lw 3 lw 737 357 m20 6 lw 3 lw 751 353 m20 6 lw 3 lw 764 346 m20 6 lw 3 lw 778 328 m20 6 lw 3 lw 791 333 m20 6 lw 3 lw 805 325 m20 6 lw 3 lw 819 315 m20 6 lw 3 lw 832 303 m20 6 lw 3 lw 846 298 m20 6 lw 3 lw 859 304 m20 6 lw 3 lw
 873 291 m20 6 lw 3 lw 887 279 m20 6 lw 3 lw 900 284 m20 6 lw 3 lw 914 283 m20 6 lw 3 lw 927 268 m20 6 lw 3 lw 941 276 m20 6 lw 3 lw 955 267 m20 6 lw 3 lw 968 265 m20 6 lw 3 lw 982 257 m20 6 lw 3 lw 996 261 m20 6 lw 3 lw 1009 262 m20 6 lw 3 lw 1023
 261 m20 6 lw 3 lw 1036 255 m20 6 lw 3 lw 1050 257 m20 6 lw 3 lw 1064 254 m20 6 lw 3 lw 1077 250 m20 6 lw 3 lw 1091 241 m20 6 lw 3 lw 1104 245 m20 6 lw 3 lw 1118 244 m20 6 lw 3 lw 1132 240 m20 6 lw 3 lw 1145 243 m20 6 lw 3 lw 1159 242 m20 6 lw 3 lw
 1172 241 m20 6 lw 3 lw 1186 238 m20 6 lw 3 lw 1200 243 m20 6 lw 3 lw 1213 240 m20 6 lw 3 lw 1227 239 m20 6 lw 3 lw 1240 238 m20 6 lw 3 lw 1254 239 m20 6 lw 3 lw 1268 239 m20 6 lw 3 lw 1281 237 m20 6 lw 3 lw 1295 237 m20 6 lw 3 lw 1308 237 m20 6 lw 3
 lw 1322 234 m20 6 lw 3 lw 1336 235 m20 6 lw 3 lw 1349 235 m20 6 lw 3 lw 1363 232 m20 6 lw 3 lw 1377 234 m20 6 lw 3 lw 1390 233 m20 6 lw 3 lw 1404 235 m20 6 lw 3 lw 1417 233 m20 6 lw 3 lw 1431 233 m20 6 lw 3 lw 1445 233 m20 6 lw 3 lw 1458 235 m20 6
 lw 3 lw 1472 232 m20 6 lw 3 lw 1485 232 m20 6 lw 3 lw 1499 233 m20 6 lw 3 lw 1513 233 m20 6 lw 3 lw 1526 233 m20 6 lw 3 lw 1540 233 m20 6 lw 3 lw 1553 232 m20 6 lw 3 lw 1567 231 m20 6 lw 3 lw 1581 232 m20 6 lw 3 lw 1594 232 m20 6 lw 3 lw 1608 233
 m20 6 lw 3 lw 1621 232 m20 6 lw 3 lw 1635 232 m20 6 lw 3 lw 1649 232 m20 6 lw 3 lw 1662 231 m20 6 lw 3 lw 1676 232 m20 6 lw 3 lw 1689 232 m20 6 lw 3 lw 1703 232 m20 6 lw 3 lw 1717 231 m20 6 lw 3 lw 1730 232 m20 6 lw 3 lw 1744 231 m20 6 lw 3 lw 1757
 231 m20 6 lw 3 lw 1771 231 m20 6 lw 3 lw 1785 231 m20 6 lw 3 lw 1798 231 m20 6 lw 3 lw 1812 231 m20 6 lw 3 lw 1826 231 m20 6 lw 3 lw 1839 231 m20 6 lw 3 lw 1853 231 m20 6 lw 3 lw 1866 231 m20 6 lw 3 lw 1880 231 m20 6 lw 3 lw 1894 231 m20 6 lw 3 lw
 1907 231 m20 6 lw 3 lw 1921 231 m20 6 lw 3 lw 1934 231 m20 6 lw 3 lw 1948 231 m20 6 lw 3 lw 1962 231 m20 6 lw 3 lw 1975 231 m20 6 lw 3 lw 1989 231 m20 6 lw 3 lw 2002 231 m20 6 lw 3 lw 2016 231 m20 6 lw 3 lw 2030 231 m20 6 lw 3 lw 2043 231 m20 6 lw 3
 lw 2057 231 m20 6 lw 3 lw 2070 231 m20 6 lw 3 lw 2084 231 m20 6 lw 3 lw 2098 231 m20 6 lw 3 lw 2111 231 m20 6 lw 3 lw 2125 231 m20 6 lw 3 lw 2138 231 m20 6 lw 3 lw 2152 231 m20 6 lw 3 lw 2166 231 m20 6 lw 3 lw 2179 231 m20 6 lw 3 lw 2193 231 m20 6
 lw black 3 lw 295 231 m 1905 X s 295 269 m -38 Y s 349 250 m -19 Y s 404 250 m -19 Y s 458 250 m -19 Y s 513 250 m -19 Y s 567 269 m -38 Y s 621 250 m -19 Y s 676 250 m -19 Y s 730 250 m -19 Y s 785 250 m -19 Y s 839 269 m -38 Y s 893 250 m -19 Y s
 948 250 m -19 Y s 1002 250 m -19 Y s 1057 250 m -19 Y s 1111 269 m -38 Y s 1166 250 m -19 Y s 1220 250 m -19 Y s 1274 250 m -19 Y s 1329 250 m -19 Y s 1383 269 m -38 Y s 1438 250 m -19 Y s 1492 250 m -19 Y s 1547 250 m -19 Y s 1601 250 m -19 Y s
 1655 269 m -38 Y s 1710 250 m -19 Y s 1764 250 m -19 Y s 1819 250 m -19 Y s 1873 250 m -19 Y s 1928 269 m -38 Y s 1982 250 m -19 Y s 2036 250 m -19 Y s 2091 250 m -19 Y s 2145 250 m -19 Y s 2200 269 m -38 Y s
 gsave  2268 1538 0 0 C 267.173 162.911 t 0 r /Helvetica findfont 71.6807 sf 0 0 m (0.1) show NC gr 
 gsave  2268 1538 0 0 C 231.333 162.911 t 0 r /Symbol findfont 71.6807 sf 0 0 m (-) show NC gr 
 gsave  2268 1538 0 0 C 547.38 162.911 t 0 r /Helvetica findfont 71.6807 sf 0 0 m (0) show NC gr 
 gsave  2268 1538 0 0 C 795.004 162.911 t 0 r /Helvetica findfont 71.6807 sf 0 0 m (0.1) show NC gr 
 gsave  2268 1538 0 0 C 1062.18 162.911 t 0 r /Helvetica findfont 71.6807 sf 0 0 m (0.2) show NC gr 
 gsave  2268 1538 0 0 C 1332.61 162.911 t 0 r /Helvetica findfont 71.6807 sf 0 0 m (0.3) show NC gr 
 gsave  2268 1538 0 0 C 1606.3 162.911 t 0 r /Helvetica findfont 71.6807 sf 0 0 m (0.4) show NC gr 
 gsave  2268 1538 0 0 C 1876.73 162.911 t 0 r /Helvetica findfont 71.6807 sf 0 0 m (0.5) show NC gr 
 gsave  2268 1538 0 0 C 2150.42 162.911 t 0 r /Helvetica findfont 71.6807 sf 0 0 m (0.6) show NC gr 
 gsave  2268 1538 0 0 C 2095.03 19.5493 t 0 r /Helvetica findfont 48.8732 sf 0 0 m (Tile0) show NC gr 
 gsave  2268 1538 0 0 C 2075.48 42.3568 t 0 r /Helvetica findfont 71.6807 sf 0 0 m (f) show NC gr  295 1507 m 1905 X s 295 1468 m 39 Y s 349 1488 m 19 Y s 404 1488 m 19 Y s 458 1488 m 19 Y s 513 1488 m 19 Y s 567 1468 m 39 Y s 621 1488 m 19 Y s 676
 1488 m 19 Y s 730 1488 m 19 Y s 785 1488 m 19 Y s 839 1468 m 39 Y s 893 1488 m 19 Y s 948 1488 m 19 Y s 1002 1488 m 19 Y s 1057 1488 m 19 Y s 1111 1468 m 39 Y s 1166 1488 m 19 Y s 1220 1488 m 19 Y s 1274 1488 m 19 Y s 1329 1488 m 19 Y s 1383 1468 m
 39 Y s 1438 1488 m 19 Y s 1492 1488 m 19 Y s 1547 1488 m 19 Y s 1601 1488 m 19 Y s 1655 1468 m 39 Y s 1710 1488 m 19 Y s 1764 1488 m 19 Y s 1819 1488 m 19 Y s 1873 1488 m 19 Y s 1928 1468 m 39 Y s 1982 1488 m 19 Y s 2036 1488 m 19 Y s 2091 1488 m 19
 Y s 2145 1488 m 19 Y s 2200 1468 m 39 Y s 295 231 m 1276 Y s 351 231 m -56 X s 323 279 m -28 X s 323 327 m -28 X s 323 376 m -28 X s 323 424 m -28 X s 351 472 m -56 X s 323 521 m -28 X s 323 569 m -28 X s 323 617 m -28 X s 323 665 m -28 X s 351 714
 m -56 X s 323 762 m -28 X s 323 810 m -28 X s 323 859 m -28 X s 323 907 m -28 X s 351 955 m -56 X s 323 1004 m -28 X s 323 1052 m -28 X s 323 1100 m -28 X s 323 1148 m -28 X s 351 1197 m -56 X s 323 1245 m -28 X s 323 1293 m -28 X s 323 1342 m -28 X
 s 323 1390 m -28 X s 351 1438 m -56 X s 351 1438 m -56 X s 323 1487 m -28 X s
 gsave  2268 1538 0 0 C 244.366 205.267 t 0 r /Helvetica findfont 71.6807 sf 0 0 m (0) show NC gr 
 gsave  2268 1538 0 0 C 146.62 446.375 t 0 r /Helvetica findfont 71.6807 sf 0 0 m (0.05) show NC gr 
 gsave  2268 1538 0 0 C 198.751 690.741 t 0 r /Helvetica findfont 71.6807 sf 0 0 m (0.1) show NC gr 
 gsave  2268 1538 0 0 C 146.62 931.849 t 0 r /Helvetica findfont 71.6807 sf 0 0 m (0.15) show NC gr 
 gsave  2268 1538 0 0 C 188.976 1172.96 t 0 r /Helvetica findfont 71.6807 sf 0 0 m (0.2) show NC gr 
 gsave  2268 1538 0 0 C 146.62 1414.06 t 0 r /Helvetica findfont 71.6807 sf 0 0 m (0.25) show NC gr 
 gsave  2268 1538 0 0 C 156.394 925.333 t 90 r /Helvetica findfont 71.6807 sf 0 0 m (Normalized entries) show NC gr  2200 231 m 1276 Y s 2143 231 m 57 X s 2171 279 m 29 X s 2171 327 m 29 X s 2171 376 m 29 X s 2171 424 m 29 X s 2143 472 m 57 X s 2171
 521 m 29 X s 2171 569 m 29 X s 2171 617 m 29 X s 2171 665 m 29 X s 2143 714 m 57 X s 2171 762 m 29 X s 2171 810 m 29 X s 2171 859 m 29 X s 2171 907 m 29 X s 2143 955 m 57 X s 2171 1004 m 29 X s 2171 1052 m 29 X s 2171 1100 m 29 X s 2171 1148 m 29 X
 s 2143 1197 m 57 X s 2171 1245 m 29 X s 2171 1293 m 29 X s 2171 1342 m 29 X s 2171 1390 m 29 X s 2143 1438 m 57 X s 2143 1438 m 57 X s 2171 1487 m 29 X s 1 0 0 c 6 lw 1 1 1 c 1 0 0 c 3 lw 342 231 m20 6 lw 3 lw 356 231 m20 6 lw 3 lw 370 231 m20 6 lw
 3 lw 383 231 m20 6 lw 3 lw 397 231 m20 6 lw 3 lw 410 231 m20 6 lw 3 lw 424 231 m20 6 lw 3 lw 438 231 m20 6 lw 3 lw 451 231 m20 6 lw 3 lw 465 231 m20 6 lw 3 lw 478 231 m20 6 lw 3 lw 492 233 m20 6 lw 3 lw 506 235 m20 6 lw 3 lw 519 238 m20 6 lw 3 lw
 533 246 m20 6 lw 3 lw 547 261 m20 6 lw 3 lw 560 345 m20 6 lw 3 lw 574 438 m20 6 lw 3 lw 587 431 m20 6 lw 3 lw 601 461 m20 6 lw 3 lw 615 486 m20 6 lw 3 lw 628 515 m20 6 lw 3 lw 642 530 m20 6 lw 3 lw 655 521 m20 6 lw 3 lw 669 509 m20 6 lw 3 lw 683 491
 m20 6 lw 3 lw 696 486 m20 6 lw 3 lw 710 466 m20 6 lw 3 lw 723 441 m20 6 lw 3 lw 737 413 m20 6 lw 3 lw 751 404 m20 6 lw 3 lw 764 381 m20 6 lw 3 lw 778 357 m20 6 lw 3 lw 791 350 m20 6 lw 3 lw 805 330 m20 6 lw 3 lw 819 321 m20 6 lw 3 lw 832 311 m20 6
 lw 3 lw 846 301 m20 6 lw 3 lw 859 294 m20 6 lw 3 lw 873 288 m20 6 lw 3 lw 887 278 m20 6 lw 3 lw 900 272 m20 6 lw 3 lw 914 271 m20 6 lw 3 lw 927 263 m20 6 lw 3 lw 941 257 m20 6 lw 3 lw 955 254 m20 6 lw 3 lw 968 254 m20 6 lw 3 lw 982 254 m20 6 lw 3 lw
 996 250 m20 6 lw 3 lw 1009 247 m20 6 lw 3 lw 1023 245 m20 6 lw 3 lw 1036 244 m20 6 lw 3 lw 1050 242 m20 6 lw 3 lw 1064 242 m20 6 lw 3 lw 1077 240 m20 6 lw 3 lw 1091 240 m20 6 lw 3 lw 1104 239 m20 6 lw 3 lw 1118 237 m20 6 lw 3 lw 1132 236 m20 6 lw 3
 lw 1145 235 m20 6 lw 3 lw 1159 235 m20 6 lw 3 lw 1172 235 m20 6 lw 3 lw 1186 235 m20 6 lw 3 lw 1200 234 m20 6 lw 3 lw 1213 234 m20 6 lw 3 lw 1227 234 m20 6 lw 3 lw 1240 234 m20 6 lw 3 lw 1254 233 m20 6 lw 3 lw 1268 233 m20 6 lw 3 lw 1281 232 m20 6
 lw 3 lw 1295 233 m20 6 lw 3 lw 1308 232 m20 6 lw 3 lw 1322 232 m20 6 lw 3 lw 1336 232 m20 6 lw 3 lw 1349 232 m20 6 lw 3 lw 1363 232 m20 6 lw 3 lw 1377 232 m20 6 lw 3 lw 1390 231 m20 6 lw 3 lw 1404 232 m20 6 lw 3 lw 1417 231 m20 6 lw 3 lw 1431 231
 m20 6 lw 3 lw 1445 232 m20 6 lw 3 lw 1458 231 m20 6 lw 3 lw 1472 231 m20 6 lw 3 lw 1485 231 m20 6 lw 3 lw 1499 231 m20 6 lw 3 lw 1513 231 m20 6 lw 3 lw 1526 231 m20 6 lw 3 lw 1540 231 m20 6 lw 3 lw 1553 231 m20 6 lw 3 lw 1567 231 m20 6 lw 3 lw 1581
 231 m20 6 lw 3 lw 1594 231 m20 6 lw 3 lw 1608 231 m20 6 lw 3 lw 1621 231 m20 6 lw 3 lw 1635 231 m20 6 lw 3 lw 1649 231 m20 6 lw 3 lw 1662 231 m20 6 lw 3 lw 1676 231 m20 6 lw 3 lw 1689 231 m20 6 lw 3 lw 1703 231 m20 6 lw 3 lw 1717 231 m20 6 lw 3 lw
 1730 231 m20 6 lw 3 lw 1744 231 m20 6 lw 3 lw 1757 231 m20 6 lw 3 lw 1771 231 m20 6 lw 3 lw 1785 231 m20 6 lw 3 lw 1812 231 m20 6 lw 3 lw 1826 231 m20 6 lw 3 lw 1839 231 m20 6 lw 3 lw 1866 231 m20 6 lw 3 lw 1880 231 m20 6 lw 3 lw 1921 231 m20 6 lw 3
 lw 1934 231 m20 6 lw 3 lw 1948 231 m20 6 lw 3 lw 2016 231 m20 6 lw 3 lw 2030 231 m20 6 lw 3 lw 2043 231 m20 6 lw black 1 1 1 c black 3 lw 547 231 m20 6 lw 3 lw 560 236 m20 6 lw 3 lw 574 284 m20 6 lw 3 lw 587 363 m20 6 lw 3 lw 601 457 m20 6 lw 3 lw
 615 563 m20 6 lw 3 lw 628 643 m20 6 lw 3 lw 642 691 m20 6 lw 3 lw 655 702 m20 6 lw 3 lw 669 654 m20 6 lw 3 lw 683 615 m20 6 lw 3 lw 696 524 m20 6 lw 3 lw 710 486 m20 6 lw 3 lw 723 433 m20 6 lw 3 lw 737 398 m20 6 lw 3 lw 751 365 m20 6 lw 3 lw 764 350
 m20 6 lw 3 lw 778 334 m20 6 lw 3 lw 791 322 m20 6 lw 3 lw 805 301 m20 6 lw 3 lw 819 297 m20 6 lw 3 lw 832 292 m20 6 lw 3 lw 846 281 m20 6 lw 3 lw 859 269 m20 6 lw 3 lw 873 260 m20 6 lw 3 lw 887 262 m20 6 lw 3 lw 900 255 m20 6 lw 3 lw 914 256 m20 6
 lw 3 lw 927 253 m20 6 lw 3 lw 941 247 m20 6 lw 3 lw 955 246 m20 6 lw 3 lw 968 246 m20 6 lw 3 lw 982 244 m20 6 lw 3 lw 996 243 m20 6 lw 3 lw 1009 239 m20 6 lw 3 lw 1023 239 m20 6 lw 3 lw 1036 236 m20 6 lw 3 lw 1050 236 m20 6 lw 3 lw 1064 235 m20 6 lw
 3 lw 1077 235 m20 6 lw 3 lw 1091 235 m20 6 lw 3 lw 1104 233 m20 6 lw 3 lw 1118 233 m20 6 lw 3 lw 1132 234 m20 6 lw 3 lw 1145 232 m20 6 lw 3 lw 1159 232 m20 6 lw 3 lw 1172 234 m20 6 lw 3 lw 1186 232 m20 6 lw 3 lw 1200 233 m20 6 lw 3 lw 1213 232 m20 6
 lw 3 lw 1227 231 m20 6 lw 3 lw 1240 232 m20 6 lw 3 lw 1254 232 m20 6 lw 3 lw 1268 231 m20 6 lw 3 lw 1281 231 m20 6 lw 3 lw 1295 231 m20 6 lw 3 lw 1308 231 m20 6 lw 3 lw 1322 231 m20 6 lw 3 lw 1336 231 m20 6 lw 3 lw 1349 231 m20 6 lw 3 lw 1363 231
 m20 6 lw 3 lw 1377 231 m20 6 lw 3 lw 1390 231 m20 6 lw 3 lw 1404 231 m20 6 lw 3 lw 1417 231 m20 6 lw 3 lw 1431 231 m20 6 lw 3 lw 1445 231 m20 6 lw 3 lw 1458 231 m20 6 lw 3 lw 1472 231 m20 6 lw 3 lw 1485 231 m20 6 lw 3 lw 1499 231 m20 6 lw 3 lw 1513
 231 m20 6 lw 3 lw 1540 231 m20 6 lw 3 lw 1608 231 m20 6 lw 3 lw 1621 231 m20 6 lw 3 lw 1635 231 m20 6 lw 3 lw 1662 231 m20 6 lw 3 lw 1676 231 m20 6 lw 3 lw 1730 231 m20 6 lw 3 lw 1771 231 m20 6 lw 3 lw 1853 231 m20 6 lw 0 0.6 0 c 1 1 1 c 0 0.6 0 c 3
 lw 560 231 m20 6 lw 3 lw 574 277 m20 6 lw 3 lw 587 384 m20 6 lw 3 lw 601 562 m20 6 lw 3 lw 615 737 m20 6 lw 3 lw 628 848 m20 6 lw 3 lw 642 818 m20 6 lw 3 lw 655 715 m20 6 lw 3 lw 669 599 m20 6 lw 3 lw 683 502 m20 6 lw 3 lw 696 455 m20 6 lw 3 lw 710
 404 m20 6 lw 3 lw 723 381 m20 6 lw 3 lw 737 358 m20 6 lw 3 lw 751 335 m20 6 lw 3 lw 764 325 m20 6 lw 3 lw 778 313 m20 6 lw 3 lw 791 302 m20 6 lw 3 lw 805 290 m20 6 lw 3 lw 819 280 m20 6 lw 3 lw 832 275 m20 6 lw 3 lw 846 268 m20 6 lw 3 lw 859 262 m20
 6 lw 3 lw 873 258 m20 6 lw 3 lw 887 255 m20 6 lw 3 lw 900 251 m20 6 lw 3 lw 914 249 m20 6 lw 3 lw 927 247 m20 6 lw 3 lw 941 245 m20 6 lw 3 lw 955 242 m20 6 lw 3 lw 968 240 m20 6 lw 3 lw 982 238 m20 6 lw 3 lw 996 238 m20 6 lw 3 lw 1009 237 m20 6 lw 3
 lw 1023 237 m20 6 lw 3 lw 1036 236 m20 6 lw 3 lw 1050 236 m20 6 lw 3 lw 1064 234 m20 6 lw 3 lw 1077 235 m20 6 lw 3 lw 1091 234 m20 6 lw 3 lw 1104 233 m20 6 lw 3 lw 1118 233 m20 6 lw 3 lw 1132 234 m20 6 lw 3 lw 1145 233 m20 6 lw 3 lw 1159 232 m20 6
 lw 3 lw 1172 232 m20 6 lw 3 lw 1186 232 m20 6 lw 3 lw 1200 232 m20 6 lw 3 lw 1213 232 m20 6 lw 3 lw 1227 231 m20 6 lw 3 lw 1240 231 m20 6 lw 3 lw 1254 231 m20 6 lw 3 lw 1268 232 m20 6 lw 3 lw 1281 231 m20 6 lw 3 lw 1295 231 m20 6 lw 3 lw 1308 231
 m20 6 lw 3 lw 1322 231 m20 6 lw 3 lw 1336 231 m20 6 lw 3 lw 1349 231 m20 6 lw 3 lw 1363 231 m20 6 lw 3 lw 1377 231 m20 6 lw 3 lw 1390 231 m20 6 lw 3 lw 1404 231 m20 6 lw 3 lw 1417 231 m20 6 lw 3 lw 1431 231 m20 6 lw 3 lw 1445 231 m20 6 lw 3 lw 1458
 231 m20 6 lw 3 lw 1472 231 m20 6 lw 3 lw 1499 231 m20 6 lw 3 lw 1526 231 m20 6 lw 3 lw 1553 231 m20 6 lw 3 lw 1581 231 m20 6 lw 3 lw 1689 231 m20 6 lw 3 lw 1812 231 m20 6 lw 3 lw 2016 231 m20 6 lw black
 gsave  2268 1538 0 0 C 1648.66 1394.52 t 0 r /Helvetica-Bold findfont 48.8732 sf 0 0 m ( < 40 GeV) show NC gr 
 gsave  2268 1538 0 0 C 1573.72 1420.58 t 0 r /Helvetica-Bold findfont 32.5821 sf 0 0 m (truth) show NC gr 
 gsave  2268 1538 0 0 C 1573.72 1368.45 t 0 r /Helvetica-Bold findfont 32.5821 sf 0 0 m (T) show NC gr 
 gsave  2268 1538 0 0 C 1433.61 1394.52 t 0 r /Helvetica-Bold findfont 48.8732 sf 0 0 m (30 < p) show NC gr  0 0 1 c 1275 1413 m 131 X s 3 lw 1341 1413 m20 6 lw black
 gsave  2268 1538 0 0 C 1648.66 1296.77 t 0 r /Helvetica-Bold findfont 48.8732 sf 0 0 m ( < 100 GeV) show NC gr 
 gsave  2268 1538 0 0 C 1573.72 1322.83 t 0 r /Helvetica-Bold findfont 32.5821 sf 0 0 m (truth) show NC gr 
 gsave  2268 1538 0 0 C 1573.72 1270.7 t 0 r /Helvetica-Bold findfont 32.5821 sf 0 0 m (T) show NC gr 
 gsave  2268 1538 0 0 C 1433.61 1296.77 t 0 r /Helvetica-Bold findfont 48.8732 sf 0 0 m (80 < p) show NC gr  1 0 0 c 1275 1317 m 131 X s 3 lw 1341 1317 m20 6 lw black
 gsave  2268 1538 0 0 C 1674.72 1202.28 t 0 r /Helvetica-Bold findfont 48.8732 sf 0 0 m ( < 400 GeV) show NC gr 
 gsave  2268 1538 0 0 C 1599.78 1228.35 t 0 r /Helvetica-Bold findfont 32.5821 sf 0 0 m (truth) show NC gr 
 gsave  2268 1538 0 0 C 1599.78 1176.21 t 0 r /Helvetica-Bold findfont 32.5821 sf 0 0 m (T) show NC gr 
 gsave  2268 1538 0 0 C 1433.61 1202.28 t 0 r /Helvetica-Bold findfont 48.8732 sf 0 0 m (350 < p) show NC gr  1275 1221 m 131 X s 3 lw 1341 1221 m20 6 lw
 gsave  2268 1538 0 0 C 1704.05 1104.53 t 0 r /Helvetica-Bold findfont 48.8732 sf 0 0 m ( < 1200 GeV) show NC gr 
 gsave  2268 1538 0 0 C 1629.11 1130.6 t 0 r /Helvetica-Bold findfont 32.5821 sf 0 0 m (truth) show NC gr 
 gsave  2268 1538 0 0 C 1629.11 1078.47 t 0 r /Helvetica-Bold findfont 32.5821 sf 0 0 m (T) show NC gr 
 gsave  2268 1538 0 0 C 1433.61 1104.53 t 0 r /Helvetica-Bold findfont 48.8732 sf 0 0 m (1000 < p) show NC gr  0 0.6 0 c 1275 1125 m 131 X s 3 lw 1341 1125 m20 6 lw black
 gsave  2268 1538 0 0 C 384.469 1417.32 t 0 r /Helvetica-BoldOblique findfont 61.9061 sf 0 0 m (ATLAS) show NC gr 
 gsave  2268 1538 0 0 C 632.093 1417.32 t 0 r /Helvetica findfont 58.6478 sf 0 0 m (Simulation Internal) show NC gr 
 gsave  2268 1538 0 0 C 746.131 1339.13 t 0 r /Helvetica findfont 58.6478 sf 0 0 m ( = 13 TeV) show NC gr 
 gsave  2268 1538 0 0 C 716.807 1339.13 t 0 r /Helvetica findfont 58.6478 sf 0 0 m (s) show NC gr  697 1372 m 7 -36 d s 3 lw 704 1336 m 6 52 d s 710 1388 m 36 X s
 gsave  2268 1538 0 0 C 384.469 1339.13 t 0 r /Helvetica findfont 58.6478 sf 0 0 m (Pythia Dijet ) show NC gr 
 gsave  2268 1538 0 0 C 384.469 1264.19 t 0 r /Helvetica findfont 58.6478 sf 0 0 m (EM+JES) show NC gr 
 gsave  2268 1538 0 0 C 938.365 1185.99 t 0 r /Helvetica findfont 58.6478 sf 0 0 m (| < 1.1) show NC gr 
 gsave  2268 1538 0 0 C 905.783 1185.99 t 0 r /Symbol findfont 58.6478 sf 0 0 m (h) show NC gr 
 gsave  2268 1538 0 0 C 720.065 1185.99 t 0 r /Helvetica findfont 58.6478 sf 0 0 m (, 1.0 < |) show NC gr 
 gsave  2268 1538 0 0 C 707.032 1169.7 t 0 r /Helvetica findfont 39.0986 sf 0 0 m (t) show NC gr 
 gsave  2268 1538 0 0 C 671.192 1185.99 t 0 r /Helvetica-Oblique findfont 58.6478 sf 0 0 m (k) show NC gr 
 gsave  2268 1538 0 0 C 430.084 1185.99 t 0 r /Helvetica findfont 58.6478 sf 0 0 m (=0.4 anti\255) show NC gr 
 gsave  2268 1538 0 0 C 384.469 1185.99 t 0 r /Helvetica-Oblique findfont 58.6478 sf 0 0 m (R) show NC gr 
 gr  gr showpage
end
%%EOF
