%!PS-Adobe-2.0 EPSF-2.0
%%BoundingBox:  0 0 567 384
%%Title: Tile0_Tile0/Distribution_Tile0_eta_16.eps: c1
%%Creator: ROOT Version 6.22/08
%%CreationDate: Tue Aug  3 22:33:31 2021
%%DocumentNeededResources: ProcSet (FontSetInit)
%%EndComments
%%BeginProlog
80 dict begin
/s {stroke} def /l {lineto} def /m {moveto} def /t {translate} def
/r {rotate} def /rl {roll}  def /R {repeat} def
/d {rlineto} def /rm {rmoveto} def /gr {grestore} def /f {eofill} def
/c {setrgbcolor} def /black {0 setgray} def /sd {setdash} def
/cl {closepath} def /sf {scalefont setfont} def /lw {setlinewidth} def
/box {m dup 0 exch d exch 0 d 0 exch neg d cl} def
/NC{systemdict begin initclip end}def/C{NC box clip newpath}def
/bl {box s} def /bf {gsave box gsave f grestore 1 lw [] 0 sd s grestore} def /Y { 0 exch d} def /X { 0 d} def 
/K {{pop pop 0 moveto} exch kshow} bind def
/ita {/ang 15 def gsave [1 0 ang dup sin exch cos div 1 0 0] concat} def 
/mp {newpath /y exch def /x exch def} def
/side {[w .77 mul w .23 mul] .385 w mul sd w 0 l currentpoint t -144 r} def
/mr {mp x y w2 0 360 arc} def /m24 {mr s} def /m20 {mr f} def
/mb {mp x y w2 add m w2 neg 0 d 0 w neg d w 0 d 0 w d cl} def
/mt {mp x y w2 add m w2 neg w neg d w 0 d cl} def
/w4 {w 4 div} def
/w6 {w 6 div} def
/w8 {w 8 div} def
/m21 {mb f} def /m25 {mb s} def /m22 {mt f} def /m26{mt s} def
/m23 {mp x y w2 sub m w2 w d w neg 0 d cl f} def
/m27 {mp x y w2 add m w3 neg w2 neg d w3 w2 neg d w3 w2 d cl s} def
/m28 {mp x w2 sub y w2 sub w3 add m w3 0 d  0 w3 neg d w3 0 d 0 w3 d w3 0 d  0 w3 d w3 neg 0 d 0 w3 d w3 neg 0 d 0 w3 neg d w3 neg 0 d cl s } def
/m29 {mp gsave x w2 sub y w2 add w3 sub m currentpoint t 4 {side} repeat cl fill gr} def
/m30 {mp gsave x w2 sub y w2 add w3 sub m currentpoint t 4 {side} repeat cl s gr} def
/m31 {mp x y w2 sub m 0 w d x w2 sub y m w 0 d x w2 .707 mul sub y w2 .707 mul add m w 1.44 div w 1.44 div neg d x w2 .707 mul sub y w2 .707 mul sub m w 1.44 div w 1.44 div d s} def
/m32 {mp x y w2 sub m w2 w d w neg 0 d cl s} def
/m33 {mp x y w2 add m w3 neg w2 neg d w3 w2 neg d w3 w2 d cl f} def
/m34 {mp x w2 sub y w2 sub w3 add m w3 0 d  0 w3 neg d w3 0 d 0 w3 d w3 0 d  0 w3 d w3 neg 0 d 0 w3 d w3 neg 0 d 0 w3 neg d w3 neg 0 d cl f } def
/m35 {mp x y w2 add m w2 neg w2 neg d w2 w2 neg d w2 w2 d w2 neg w2 d x y w2 sub m 0 w d x w2 sub y m w 0 d s} def
/m36 {mb x w2 sub y w2 add m w w neg d x w2 sub y w2 sub m w w d s} def
/m37 {mp x y m w4 neg w2 d w4 neg w2 neg d w2 0 d  w4 neg w2 neg d w2 0 d w4 neg w2 d w2 0 d w4 neg w2 d w4 neg w2 neg d cl s} def
/m38 {mp x w4 sub y w2 add m w4 neg w4 neg d 0 w2 neg d w4 w4 neg d w2 0 d w4 w4 d 0 w2 d w4 neg w4 d w2 neg 0 d x y w2 sub m 0 w d x w2 sub y m w 0 d cl s} def
/m39 {mp x y m w4 neg w2 d w4 neg w2 neg d w2 0 d  w4 neg w2 neg d w2 0 d w4 neg w2 d w2 0 d w4 neg w2 d w4 neg w2 neg d cl f} def
/m40 {mp x y m w4 w2 d w4 w4 neg d w2 neg w4 neg d w2 w4 neg d w4 neg w4 neg d w4 neg w2 d w4 neg w2 neg d w4 neg w4 d w2 w4 d w2 neg w4 d w4 w4 d w4 w2 neg d cl s} def
/m41 {mp x y m w4 w2 d w4 w4 neg d w2 neg w4 neg d w2 w4 neg d w4 neg w4 neg d w4 neg w2 d w4 neg w2 neg d w4 neg w4 d w2 w4 d w2 neg w4 d w4 w4 d w4 w2 neg d cl f} def
/m42 {mp x y w2 add m w8 neg w2 -3 4 div mul d w2 -3 4 div mul w8 neg d w2 3 4 div mul w8 neg d w8 w2 -3 4 div mul d w8 w2 3 4 div mul d w2 3 4 div mul w8 d w2 -3 4 div mul w8 d w8 neg w2 3 4 div mul d cl s} def
/m43 {mp x y w2 add m w8 neg w2 -3 4 div mul d w2 -3 4 div mul w8 neg d w2 3 4 div mul w8 neg d w8 w2 -3 4 div mul d w8 w2 3 4 div mul d w2 3 4 div mul w8 d w2 -3 4 div mul w8 d w8 neg w2 3 4 div mul d cl f} def
/m44 {mp x y m w6 neg w2 d w2 2 3 div mul 0 d w6 neg w2 neg d w2 w6 d 0 w2 -2 3 div mul d w2 neg w6 d w6 w2 neg d w2 -2 3 div mul 0 d w6 w2 d w2 neg w6 neg d 0 w2 2 3 div mul d w2 w6 neg d cl s} def
/m45 {mp x y m w6 neg w2 d w2 2 3 div mul 0 d w6 neg w2 neg d w2 w6 d 0 w2 -2 3 div mul d w2 neg w6 d w6 w2 neg d w2 -2 3 div mul 0 d w6 w2 d w2 neg w6 neg d 0 w2 2 3 div mul d w2 w6 neg d cl f} def
/m46 {mp x y w4 add m w4 neg w4 d w4 neg w4 neg d  w4 w4 neg d w4 neg w4 neg d w4 w4 neg d w4 w4 d w4 w4 neg d w4 w4 d w4 neg w4 d w4 w4 d w4 neg w4 d w4 neg w4 neg d cl s} def
/m47 {mp x y w4 add m w4 neg w4 d w4 neg w4 neg d w4 w4 neg d w4 neg w4 neg d  w4 w4 neg d w4 w4 d w4 w4 neg d w4 w4 d w4 neg w4 d w4 w4 d w4 neg w4 d w4 neg w4 neg d cl f} def
/m48 {mp x y w4 add m w4 neg w4 d w4 neg w4 neg d w4 w4 neg d  w4 neg w4 neg d w4 w4 neg d w4 w4 d w4 w4 neg d w4 w4 d w4 neg w4 d w4 w4 d w4 neg w4 d w4 neg w4 neg d  w4 w4 neg d w4 neg w4 neg d w4 neg w4 d w4 w4 d cl f} def
/m49 {mp x w2 sub w3 add y w2 sub w3 add m  0 w3 neg d w3 0 d 0 w3 d w3 0 d 0 w3 d w3 neg 0 d 0 w3 d w3 neg 0 d 0 w3 neg d w3 neg 0 d 0 w3 neg d w3 0 d 0 w3 d w3 0 d 0 w3 neg d w3 neg 0 d cl f } def
/m2 {mp x y w2 sub m 0 w d x w2 sub y m w 0 d s} def
/m5 {mp x w2 .707 mul sub y w2 .707 mul sub m w 1.44 div w 1.44 div d x w2 .707 mul sub y w2 .707 mul add m w 1.44 div w 1.44 div neg d s} def
%%IncludeResource: ProcSet (FontSetInit)
%%IncludeResource: font Times-Roman
%%IncludeResource: font Times-Italic
%%IncludeResource: font Times-Bold
%%IncludeResource: font Times-BoldItalic
%%IncludeResource: font Helvetica
%%IncludeResource: font Helvetica-Oblique
%%IncludeResource: font Helvetica-Bold
%%IncludeResource: font Helvetica-BoldOblique
%%IncludeResource: font Courier
%%IncludeResource: font Courier-Oblique
%%IncludeResource: font Courier-Bold
%%IncludeResource: font Courier-BoldOblique
%%IncludeResource: font Symbol
%%IncludeResource: font ZapfDingbats
/reEncode {exch findfont dup length dict begin {1 index /FID eq  {pop pop} {def} ifelse } forall /Encoding exch def currentdict end dup /FontName get exch definefont pop } def [/Times-Bold /Times-Italic /Times-BoldItalic /Helvetica /Helvetica-Oblique
 /Helvetica-Bold /Helvetica-BoldOblique /Courier /Courier-Oblique /Courier-Bold /Courier-BoldOblique /Times-Roman /AvantGarde-Book /AvantGarde-BookOblique /AvantGarde-Demi /AvantGarde-DemiOblique /Bookman-Demi /Bookman-DemiItalic /Bookman-Light
 /Bookman-LightItalic /Helvetica-Narrow /Helvetica-Narrow-Bold /Helvetica-Narrow-BoldOblique /Helvetica-Narrow-Oblique /NewCenturySchlbk-Roman /NewCenturySchlbk-Bold /NewCenturySchlbk-BoldItalic /NewCenturySchlbk-Italic /Palatino-Bold
 /Palatino-BoldItalic /Palatino-Italic /Palatino-Roman ] {ISOLatin1Encoding reEncode } forall
%%EndProlog
%%BeginSetup
%%EndSetup
newpath  gsave  .25 .25 scale  gsave  0 0 t 1 0 0 c[  ] 0 sd 3 lw 1 1 1 c 2268 1538 0 0 bf black 1 1 1 c 1905 1276 295 231 bf black 1905 1276 295 231 bl 1 1 1 c 1905 1276 295 231 bf black 1905 1276 295 231 bl 0 0 1 c 6 lw 1 1 1 c 0 0 1 c 3 lw /w 31
 def /w2 {w 2 div} def /w3 {w 3 div} def 302 291 m20 6 lw 3 lw 315 291 m20 6 lw 3 lw 329 292 m20 6 lw 3 lw 342 291 m20 6 lw 3 lw 356 291 m20 6 lw 3 lw 370 292 m20 6 lw 3 lw 383 292 m20 6 lw 3 lw 397 292 m20 6 lw 3 lw 410 292 m20 6 lw 3 lw 424 292 m20
 6 lw 3 lw 438 293 m20 6 lw 3 lw 451 292 m20 6 lw 3 lw 465 293 m20 6 lw 3 lw 478 295 m20 6 lw 3 lw 492 294 m20 6 lw 3 lw 506 297 m20 6 lw 3 lw 519 296 m20 6 lw 3 lw 533 300 m20 6 lw 3 lw 547 312 m20 6 lw 3 lw 560 493 m20 6 lw 3 lw 574 697 m20 6 lw 3
 lw 587 353 m20 6 lw 3 lw 601 345 m20 6 lw 3 lw 615 347 m20 6 lw 3 lw 628 344 m20 6 lw 3 lw 642 338 m20 6 lw 3 lw 655 337 m20 6 lw 3 lw 669 331 m20 6 lw 3 lw 683 325 m20 6 lw 3 lw 696 320 m20 6 lw 3 lw 710 318 m20 6 lw 3 lw 723 317 m20 6 lw 3 lw 737
 313 m20 6 lw 3 lw 751 311 m20 6 lw 3 lw 764 310 m20 6 lw 3 lw 778 307 m20 6 lw 3 lw 791 308 m20 6 lw 3 lw 805 305 m20 6 lw 3 lw 819 301 m20 6 lw 3 lw 832 302 m20 6 lw 3 lw 846 299 m20 6 lw 3 lw 859 300 m20 6 lw 3 lw 873 297 m20 6 lw 3 lw 887 297 m20
 6 lw 3 lw 900 297 m20 6 lw 3 lw 914 295 m20 6 lw 3 lw 927 297 m20 6 lw 3 lw 941 296 m20 6 lw 3 lw 955 295 m20 6 lw 3 lw 968 294 m20 6 lw 3 lw 982 293 m20 6 lw 3 lw 996 295 m20 6 lw 3 lw 1009 294 m20 6 lw 3 lw 1023 294 m20 6 lw 3 lw 1036 294 m20 6 lw
 3 lw 1050 293 m20 6 lw 3 lw 1064 292 m20 6 lw 3 lw 1077 293 m20 6 lw 3 lw 1091 293 m20 6 lw 3 lw 1104 293 m20 6 lw 3 lw 1118 292 m20 6 lw 3 lw 1132 293 m20 6 lw 3 lw 1145 292 m20 6 lw 3 lw 1159 292 m20 6 lw 3 lw 1172 292 m20 6 lw 3 lw 1186 292 m20 6
 lw 3 lw 1200 292 m20 6 lw 3 lw 1213 292 m20 6 lw 3 lw 1227 292 m20 6 lw 3 lw 1240 292 m20 6 lw 3 lw 1254 292 m20 6 lw 3 lw 1268 292 m20 6 lw 3 lw 1281 292 m20 6 lw 3 lw 1295 292 m20 6 lw 3 lw 1308 292 m20 6 lw 3 lw 1322 292 m20 6 lw 3 lw 1336 292
 m20 6 lw 3 lw 1349 292 m20 6 lw 3 lw 1363 291 m20 6 lw 3 lw 1377 292 m20 6 lw 3 lw 1390 292 m20 6 lw 3 lw 1404 292 m20 6 lw 3 lw 1417 292 m20 6 lw 3 lw 1431 292 m20 6 lw 3 lw 1445 292 m20 6 lw 3 lw 1458 292 m20 6 lw 3 lw 1472 291 m20 6 lw 3 lw 1485
 292 m20 6 lw 3 lw 1499 292 m20 6 lw 3 lw 1513 292 m20 6 lw 3 lw 1526 292 m20 6 lw 3 lw 1540 292 m20 6 lw 3 lw 1553 292 m20 6 lw 3 lw 1567 292 m20 6 lw 3 lw 1581 291 m20 6 lw 3 lw 1594 292 m20 6 lw 3 lw 1608 292 m20 6 lw 3 lw 1621 292 m20 6 lw 3 lw
 1635 291 m20 6 lw 3 lw 1649 292 m20 6 lw 3 lw 1662 291 m20 6 lw 3 lw 1676 291 m20 6 lw 3 lw 1689 291 m20 6 lw 3 lw 1703 291 m20 6 lw 3 lw 1717 291 m20 6 lw 3 lw 1730 292 m20 6 lw 3 lw 1744 291 m20 6 lw 3 lw 1757 291 m20 6 lw 3 lw 1771 291 m20 6 lw 3
 lw 1785 291 m20 6 lw 3 lw 1798 291 m20 6 lw 3 lw 1812 291 m20 6 lw 3 lw 1826 291 m20 6 lw 3 lw 1839 291 m20 6 lw 3 lw 1853 291 m20 6 lw 3 lw 1866 291 m20 6 lw 3 lw 1880 291 m20 6 lw 3 lw 1894 291 m20 6 lw 3 lw 1907 291 m20 6 lw 3 lw 1921 291 m20 6
 lw 3 lw 1934 291 m20 6 lw 3 lw 1948 291 m20 6 lw 3 lw 1962 291 m20 6 lw 3 lw 1975 291 m20 6 lw 3 lw 1989 291 m20 6 lw 3 lw 2002 291 m20 6 lw 3 lw 2016 291 m20 6 lw 3 lw 2043 291 m20 6 lw 3 lw 2070 292 m20 6 lw 3 lw 2111 291 m20 6 lw 3 lw 2125 291
 m20 6 lw 3 lw 2138 292 m20 6 lw 3 lw 2152 291 m20 6 lw 3 lw 2166 291 m20 6 lw black 3 lw 295 231 m 1905 X s 295 269 m -38 Y s 349 250 m -19 Y s 404 250 m -19 Y s 458 250 m -19 Y s 513 250 m -19 Y s 567 269 m -38 Y s 621 250 m -19 Y s 676 250 m -19 Y
 s 730 250 m -19 Y s 785 250 m -19 Y s 839 269 m -38 Y s 893 250 m -19 Y s 948 250 m -19 Y s 1002 250 m -19 Y s 1057 250 m -19 Y s 1111 269 m -38 Y s 1166 250 m -19 Y s 1220 250 m -19 Y s 1274 250 m -19 Y s 1329 250 m -19 Y s 1383 269 m -38 Y s 1438
 250 m -19 Y s 1492 250 m -19 Y s 1547 250 m -19 Y s 1601 250 m -19 Y s 1655 269 m -38 Y s 1710 250 m -19 Y s 1764 250 m -19 Y s 1819 250 m -19 Y s 1873 250 m -19 Y s 1928 269 m -38 Y s 1982 250 m -19 Y s 2036 250 m -19 Y s 2091 250 m -19 Y s 2145
 250 m -19 Y s 2200 269 m -38 Y s
 gsave  2268 1538 0 0 C 267.173 162.911 t 0 r /Helvetica findfont 71.6807 sf 0 0 m (0.1) show NC gr 
 gsave  2268 1538 0 0 C 231.333 162.911 t 0 r /Symbol findfont 71.6807 sf 0 0 m (-) show NC gr 
 gsave  2268 1538 0 0 C 547.38 162.911 t 0 r /Helvetica findfont 71.6807 sf 0 0 m (0) show NC gr 
 gsave  2268 1538 0 0 C 795.004 162.911 t 0 r /Helvetica findfont 71.6807 sf 0 0 m (0.1) show NC gr 
 gsave  2268 1538 0 0 C 1062.18 162.911 t 0 r /Helvetica findfont 71.6807 sf 0 0 m (0.2) show NC gr 
 gsave  2268 1538 0 0 C 1332.61 162.911 t 0 r /Helvetica findfont 71.6807 sf 0 0 m (0.3) show NC gr 
 gsave  2268 1538 0 0 C 1606.3 162.911 t 0 r /Helvetica findfont 71.6807 sf 0 0 m (0.4) show NC gr 
 gsave  2268 1538 0 0 C 1876.73 162.911 t 0 r /Helvetica findfont 71.6807 sf 0 0 m (0.5) show NC gr 
 gsave  2268 1538 0 0 C 2150.42 162.911 t 0 r /Helvetica findfont 71.6807 sf 0 0 m (0.6) show NC gr 
 gsave  2268 1538 0 0 C 2095.03 19.5493 t 0 r /Helvetica findfont 48.8732 sf 0 0 m (Tile0) show NC gr 
 gsave  2268 1538 0 0 C 2075.48 42.3568 t 0 r /Helvetica findfont 71.6807 sf 0 0 m (f) show NC gr  295 1507 m 1905 X s 295 1468 m 39 Y s 349 1488 m 19 Y s 404 1488 m 19 Y s 458 1488 m 19 Y s 513 1488 m 19 Y s 567 1468 m 39 Y s 621 1488 m 19 Y s 676
 1488 m 19 Y s 730 1488 m 19 Y s 785 1488 m 19 Y s 839 1468 m 39 Y s 893 1488 m 19 Y s 948 1488 m 19 Y s 1002 1488 m 19 Y s 1057 1488 m 19 Y s 1111 1468 m 39 Y s 1166 1488 m 19 Y s 1220 1488 m 19 Y s 1274 1488 m 19 Y s 1329 1488 m 19 Y s 1383 1468 m
 39 Y s 1438 1488 m 19 Y s 1492 1488 m 19 Y s 1547 1488 m 19 Y s 1601 1488 m 19 Y s 1655 1468 m 39 Y s 1710 1488 m 19 Y s 1764 1488 m 19 Y s 1819 1488 m 19 Y s 1873 1488 m 19 Y s 1928 1468 m 39 Y s 1982 1488 m 19 Y s 2036 1488 m 19 Y s 2091 1488 m 19
 Y s 2145 1488 m 19 Y s 2200 1468 m 39 Y s 295 231 m 1276 Y s 351 291 m -56 X s 323 318 m -28 X s 323 345 m -28 X s 323 372 m -28 X s 323 399 m -28 X s 351 426 m -56 X s 323 452 m -28 X s 323 479 m -28 X s 323 506 m -28 X s 323 533 m -28 X s 351 560
 m -56 X s 323 586 m -28 X s 323 613 m -28 X s 323 640 m -28 X s 323 667 m -28 X s 351 694 m -56 X s 323 720 m -28 X s 323 747 m -28 X s 323 774 m -28 X s 323 801 m -28 X s 351 828 m -56 X s 323 854 m -28 X s 323 881 m -28 X s 323 908 m -28 X s 323
 935 m -28 X s 351 962 m -56 X s 323 989 m -28 X s 323 1015 m -28 X s 323 1042 m -28 X s 323 1069 m -28 X s 351 1096 m -56 X s 323 1123 m -28 X s 323 1149 m -28 X s 323 1176 m -28 X s 323 1203 m -28 X s 351 1230 m -56 X s 323 1257 m -28 X s 323 1283
 m -28 X s 323 1310 m -28 X s 323 1337 m -28 X s 351 1364 m -56 X s 323 1391 m -28 X s 323 1418 m -28 X s 323 1444 m -28 X s 323 1471 m -28 X s 351 1498 m -56 X s 351 291 m -56 X s 323 265 m -28 X s 323 238 m -28 X s 351 1498 m -56 X s
 gsave  2268 1538 0 0 C 244.366 267.173 t 0 r /Helvetica findfont 71.6807 sf 0 0 m (0) show NC gr 
 gsave  2268 1538 0 0 C 198.751 400.76 t 0 r /Helvetica findfont 71.6807 sf 0 0 m (0.1) show NC gr 
 gsave  2268 1538 0 0 C 188.976 534.347 t 0 r /Helvetica findfont 71.6807 sf 0 0 m (0.2) show NC gr 
 gsave  2268 1538 0 0 C 188.976 667.934 t 0 r /Helvetica findfont 71.6807 sf 0 0 m (0.3) show NC gr 
 gsave  2268 1538 0 0 C 185.718 804.779 t 0 r /Helvetica findfont 71.6807 sf 0 0 m (0.4) show NC gr 
 gsave  2268 1538 0 0 C 185.718 938.365 t 0 r /Helvetica findfont 71.6807 sf 0 0 m (0.5) show NC gr 
 gsave  2268 1538 0 0 C 185.718 1071.95 t 0 r /Helvetica findfont 71.6807 sf 0 0 m (0.6) show NC gr 
 gsave  2268 1538 0 0 C 185.718 1205.54 t 0 r /Helvetica findfont 71.6807 sf 0 0 m (0.7) show NC gr 
 gsave  2268 1538 0 0 C 185.718 1339.13 t 0 r /Helvetica findfont 71.6807 sf 0 0 m (0.8) show NC gr 
 gsave  2268 1538 0 0 C 188.976 1472.71 t 0 r /Helvetica findfont 71.6807 sf 0 0 m (0.9) show NC gr 
 gsave  2268 1538 0 0 C 156.394 925.333 t 90 r /Helvetica findfont 71.6807 sf 0 0 m (Normalized entries) show NC gr  2200 231 m 1276 Y s 2143 291 m 57 X s 2171 318 m 29 X s 2171 345 m 29 X s 2171 372 m 29 X s 2171 399 m 29 X s 2143 426 m 57 X s 2171
 452 m 29 X s 2171 479 m 29 X s 2171 506 m 29 X s 2171 533 m 29 X s 2143 560 m 57 X s 2171 586 m 29 X s 2171 613 m 29 X s 2171 640 m 29 X s 2171 667 m 29 X s 2143 694 m 57 X s 2171 720 m 29 X s 2171 747 m 29 X s 2171 774 m 29 X s 2171 801 m 29 X s
 2143 828 m 57 X s 2171 854 m 29 X s 2171 881 m 29 X s 2171 908 m 29 X s 2171 935 m 29 X s 2143 962 m 57 X s 2171 989 m 29 X s 2171 1015 m 29 X s 2171 1042 m 29 X s 2171 1069 m 29 X s 2143 1096 m 57 X s 2171 1123 m 29 X s 2171 1149 m 29 X s 2171 1176
 m 29 X s 2171 1203 m 29 X s 2143 1230 m 57 X s 2171 1257 m 29 X s 2171 1283 m 29 X s 2171 1310 m 29 X s 2171 1337 m 29 X s 2143 1364 m 57 X s 2171 1391 m 29 X s 2171 1418 m 29 X s 2171 1444 m 29 X s 2171 1471 m 29 X s 2143 1498 m 57 X s 2143 291 m
 57 X s 2171 265 m 29 X s 2171 238 m 29 X s 2143 1498 m 57 X s 1 0 0 c 6 lw 1 1 1 c 1 0 0 c 3 lw 370 291 m20 6 lw 3 lw 383 291 m20 6 lw 3 lw 410 291 m20 6 lw 3 lw 424 291 m20 6 lw 3 lw 465 291 m20 6 lw 3 lw 478 291 m20 6 lw 3 lw 492 292 m20 6 lw 3 lw
 506 292 m20 6 lw 3 lw 519 292 m20 6 lw 3 lw 533 294 m20 6 lw 3 lw 547 297 m20 6 lw 3 lw 560 381 m20 6 lw 3 lw 574 535 m20 6 lw 3 lw 587 421 m20 6 lw 3 lw 601 419 m20 6 lw 3 lw 615 409 m20 6 lw 3 lw 628 390 m20 6 lw 3 lw 642 374 m20 6 lw 3 lw 655 363
 m20 6 lw 3 lw 669 349 m20 6 lw 3 lw 683 336 m20 6 lw 3 lw 696 329 m20 6 lw 3 lw 710 323 m20 6 lw 3 lw 723 317 m20 6 lw 3 lw 737 324 m20 6 lw 3 lw 751 309 m20 6 lw 3 lw 764 307 m20 6 lw 3 lw 778 304 m20 6 lw 3 lw 791 303 m20 6 lw 3 lw 805 301 m20 6
 lw 3 lw 819 300 m20 6 lw 3 lw 832 299 m20 6 lw 3 lw 846 298 m20 6 lw 3 lw 859 297 m20 6 lw 3 lw 873 297 m20 6 lw 3 lw 887 296 m20 6 lw 3 lw 900 296 m20 6 lw 3 lw 914 295 m20 6 lw 3 lw 927 295 m20 6 lw 3 lw 941 294 m20 6 lw 3 lw 955 294 m20 6 lw 3 lw
 968 293 m20 6 lw 3 lw 982 293 m20 6 lw 3 lw 996 293 m20 6 lw 3 lw 1009 293 m20 6 lw 3 lw 1023 292 m20 6 lw 3 lw 1036 293 m20 6 lw 3 lw 1050 293 m20 6 lw 3 lw 1064 293 m20 6 lw 3 lw 1077 292 m20 6 lw 3 lw 1091 292 m20 6 lw 3 lw 1104 292 m20 6 lw 3 lw
 1118 292 m20 6 lw 3 lw 1132 292 m20 6 lw 3 lw 1145 292 m20 6 lw 3 lw 1159 292 m20 6 lw 3 lw 1172 292 m20 6 lw 3 lw 1186 292 m20 6 lw 3 lw 1200 292 m20 6 lw 3 lw 1213 292 m20 6 lw 3 lw 1227 292 m20 6 lw 3 lw 1240 292 m20 6 lw 3 lw 1254 292 m20 6 lw 3
 lw 1268 292 m20 6 lw 3 lw 1281 292 m20 6 lw 3 lw 1295 292 m20 6 lw 3 lw 1308 292 m20 6 lw 3 lw 1322 292 m20 6 lw 3 lw 1336 292 m20 6 lw 3 lw 1349 292 m20 6 lw 3 lw 1363 292 m20 6 lw 3 lw 1377 292 m20 6 lw 3 lw 1390 292 m20 6 lw 3 lw 1404 292 m20 6
 lw 3 lw 1417 292 m20 6 lw 3 lw 1431 292 m20 6 lw 3 lw 1445 292 m20 6 lw 3 lw 1458 292 m20 6 lw 3 lw 1472 292 m20 6 lw 3 lw 1485 292 m20 6 lw 3 lw 1499 292 m20 6 lw 3 lw 1513 292 m20 6 lw 3 lw 1526 292 m20 6 lw 3 lw 1540 291 m20 6 lw 3 lw 1553 291
 m20 6 lw 3 lw 1567 292 m20 6 lw 3 lw 1581 291 m20 6 lw 3 lw 1594 292 m20 6 lw 3 lw 1608 291 m20 6 lw 3 lw 1621 292 m20 6 lw 3 lw 1635 292 m20 6 lw 3 lw 1649 291 m20 6 lw 3 lw 1662 291 m20 6 lw 3 lw 1676 291 m20 6 lw 3 lw 1689 292 m20 6 lw 3 lw 1703
 291 m20 6 lw 3 lw 1717 291 m20 6 lw 3 lw 1744 291 m20 6 lw 3 lw 1757 291 m20 6 lw 3 lw 1771 291 m20 6 lw 3 lw 1785 291 m20 6 lw 3 lw 1812 291 m20 6 lw 3 lw 1853 291 m20 6 lw 3 lw 1880 291 m20 6 lw 3 lw 1894 291 m20 6 lw 3 lw 1907 291 m20 6 lw 3 lw
 1921 291 m20 6 lw 3 lw 1989 291 m20 6 lw 3 lw 2193 291 m20 6 lw black 1 1 1 c black 3 lw 560 295 m20 6 lw 3 lw 574 390 m20 6 lw 3 lw 587 461 m20 6 lw 3 lw 601 483 m20 6 lw 3 lw 615 455 m20 6 lw 3 lw 628 429 m20 6 lw 3 lw 642 394 m20 6 lw 3 lw 655
 375 m20 6 lw 3 lw 669 356 m20 6 lw 3 lw 683 342 m20 6 lw 3 lw 696 334 m20 6 lw 3 lw 710 328 m20 6 lw 3 lw 723 323 m20 6 lw 3 lw 737 317 m20 6 lw 3 lw 751 312 m20 6 lw 3 lw 764 306 m20 6 lw 3 lw 778 306 m20 6 lw 3 lw 791 304 m20 6 lw 3 lw 805 300 m20
 6 lw 3 lw 819 300 m20 6 lw 3 lw 832 299 m20 6 lw 3 lw 846 299 m20 6 lw 3 lw 859 296 m20 6 lw 3 lw 873 295 m20 6 lw 3 lw 887 296 m20 6 lw 3 lw 900 295 m20 6 lw 3 lw 914 294 m20 6 lw 3 lw 927 294 m20 6 lw 3 lw 941 294 m20 6 lw 3 lw 955 294 m20 6 lw 3
 lw 968 293 m20 6 lw 3 lw 982 293 m20 6 lw 3 lw 996 292 m20 6 lw 3 lw 1009 293 m20 6 lw 3 lw 1023 293 m20 6 lw 3 lw 1036 292 m20 6 lw 3 lw 1050 293 m20 6 lw 3 lw 1064 293 m20 6 lw 3 lw 1077 292 m20 6 lw 3 lw 1091 292 m20 6 lw 3 lw 1104 292 m20 6 lw 3
 lw 1118 292 m20 6 lw 3 lw 1132 292 m20 6 lw 3 lw 1145 292 m20 6 lw 3 lw 1159 292 m20 6 lw 3 lw 1172 292 m20 6 lw 3 lw 1186 292 m20 6 lw 3 lw 1200 292 m20 6 lw 3 lw 1213 292 m20 6 lw 3 lw 1227 292 m20 6 lw 3 lw 1240 292 m20 6 lw 3 lw 1254 292 m20 6
 lw 3 lw 1268 292 m20 6 lw 3 lw 1281 292 m20 6 lw 3 lw 1295 292 m20 6 lw 3 lw 1308 292 m20 6 lw 3 lw 1322 292 m20 6 lw 3 lw 1336 292 m20 6 lw 3 lw 1349 292 m20 6 lw 3 lw 1363 292 m20 6 lw 3 lw 1377 292 m20 6 lw 3 lw 1390 292 m20 6 lw 3 lw 1404 292
 m20 6 lw 3 lw 1417 292 m20 6 lw 3 lw 1431 292 m20 6 lw 3 lw 1445 292 m20 6 lw 3 lw 1458 291 m20 6 lw 3 lw 1472 292 m20 6 lw 3 lw 1485 291 m20 6 lw 3 lw 1499 291 m20 6 lw 3 lw 1513 291 m20 6 lw 3 lw 1526 291 m20 6 lw 3 lw 1567 292 m20 6 lw 3 lw 1581
 292 m20 6 lw 3 lw 1608 292 m20 6 lw 3 lw 1621 292 m20 6 lw 3 lw 1649 291 m20 6 lw 3 lw 1703 291 m20 6 lw 3 lw 1717 291 m20 6 lw 3 lw 1771 292 m20 6 lw 3 lw 1798 291 m20 6 lw 3 lw 1866 291 m20 6 lw 3 lw 2016 291 m20 6 lw 0 0.6 0 c 1 1 1 c 0 0.6 0 c 3
 lw 560 293 m20 6 lw 3 lw 574 350 m20 6 lw 3 lw 587 440 m20 6 lw 3 lw 601 475 m20 6 lw 3 lw 615 457 m20 6 lw 3 lw 628 416 m20 6 lw 3 lw 642 391 m20 6 lw 3 lw 655 373 m20 6 lw 3 lw 669 365 m20 6 lw 3 lw 683 352 m20 6 lw 3 lw 696 341 m20 6 lw 3 lw 710
 335 m20 6 lw 3 lw 723 328 m20 6 lw 3 lw 737 320 m20 6 lw 3 lw 751 316 m20 6 lw 3 lw 764 313 m20 6 lw 3 lw 778 311 m20 6 lw 3 lw 791 310 m20 6 lw 3 lw 805 302 m20 6 lw 3 lw 819 304 m20 6 lw 3 lw 832 301 m20 6 lw 3 lw 846 301 m20 6 lw 3 lw 859 300 m20
 6 lw 3 lw 873 297 m20 6 lw 3 lw 887 297 m20 6 lw 3 lw 900 295 m20 6 lw 3 lw 914 295 m20 6 lw 3 lw 927 294 m20 6 lw 3 lw 941 294 m20 6 lw 3 lw 955 295 m20 6 lw 3 lw 968 294 m20 6 lw 3 lw 982 294 m20 6 lw 3 lw 996 294 m20 6 lw 3 lw 1009 293 m20 6 lw 3
 lw 1023 293 m20 6 lw 3 lw 1036 292 m20 6 lw 3 lw 1050 292 m20 6 lw 3 lw 1064 293 m20 6 lw 3 lw 1077 292 m20 6 lw 3 lw 1091 292 m20 6 lw 3 lw 1104 293 m20 6 lw 3 lw 1118 293 m20 6 lw 3 lw 1132 292 m20 6 lw 3 lw 1145 292 m20 6 lw 3 lw 1159 292 m20 6
 lw 3 lw 1172 292 m20 6 lw 3 lw 1186 292 m20 6 lw 3 lw 1200 292 m20 6 lw 3 lw 1213 292 m20 6 lw 3 lw 1227 292 m20 6 lw 3 lw 1240 292 m20 6 lw 3 lw 1268 292 m20 6 lw 3 lw 1281 292 m20 6 lw 3 lw 1295 292 m20 6 lw 3 lw 1308 292 m20 6 lw 3 lw 1322 292
 m20 6 lw 3 lw 1336 292 m20 6 lw 3 lw 1349 292 m20 6 lw 3 lw 1363 292 m20 6 lw 3 lw 1377 292 m20 6 lw 3 lw 1390 292 m20 6 lw 3 lw 1404 291 m20 6 lw 3 lw 1417 292 m20 6 lw 3 lw 1445 292 m20 6 lw 3 lw 1458 292 m20 6 lw 3 lw 1472 292 m20 6 lw 3 lw 1485
 292 m20 6 lw 3 lw 1526 292 m20 6 lw 3 lw 1567 292 m20 6 lw 3 lw 1676 291 m20 6 lw 3 lw 1730 292 m20 6 lw 3 lw 1866 292 m20 6 lw 3 lw 1880 292 m20 6 lw black
 gsave  2268 1538 0 0 C 1648.66 1394.52 t 0 r /Helvetica-Bold findfont 48.8732 sf 0 0 m ( < 40 GeV) show NC gr 
 gsave  2268 1538 0 0 C 1573.72 1420.58 t 0 r /Helvetica-Bold findfont 32.5821 sf 0 0 m (truth) show NC gr 
 gsave  2268 1538 0 0 C 1573.72 1368.45 t 0 r /Helvetica-Bold findfont 32.5821 sf 0 0 m (T) show NC gr 
 gsave  2268 1538 0 0 C 1433.61 1394.52 t 0 r /Helvetica-Bold findfont 48.8732 sf 0 0 m (30 < p) show NC gr  0 0 1 c 1275 1413 m 131 X s 3 lw 1341 1413 m20 6 lw black
 gsave  2268 1538 0 0 C 1648.66 1296.77 t 0 r /Helvetica-Bold findfont 48.8732 sf 0 0 m ( < 100 GeV) show NC gr 
 gsave  2268 1538 0 0 C 1573.72 1322.83 t 0 r /Helvetica-Bold findfont 32.5821 sf 0 0 m (truth) show NC gr 
 gsave  2268 1538 0 0 C 1573.72 1270.7 t 0 r /Helvetica-Bold findfont 32.5821 sf 0 0 m (T) show NC gr 
 gsave  2268 1538 0 0 C 1433.61 1296.77 t 0 r /Helvetica-Bold findfont 48.8732 sf 0 0 m (80 < p) show NC gr  1 0 0 c 1275 1317 m 131 X s 3 lw 1341 1317 m20 6 lw black
 gsave  2268 1538 0 0 C 1674.72 1202.28 t 0 r /Helvetica-Bold findfont 48.8732 sf 0 0 m ( < 400 GeV) show NC gr 
 gsave  2268 1538 0 0 C 1599.78 1228.35 t 0 r /Helvetica-Bold findfont 32.5821 sf 0 0 m (truth) show NC gr 
 gsave  2268 1538 0 0 C 1599.78 1176.21 t 0 r /Helvetica-Bold findfont 32.5821 sf 0 0 m (T) show NC gr 
 gsave  2268 1538 0 0 C 1433.61 1202.28 t 0 r /Helvetica-Bold findfont 48.8732 sf 0 0 m (350 < p) show NC gr  1275 1221 m 131 X s 3 lw 1341 1221 m20 6 lw
 gsave  2268 1538 0 0 C 1704.05 1104.53 t 0 r /Helvetica-Bold findfont 48.8732 sf 0 0 m ( < 1200 GeV) show NC gr 
 gsave  2268 1538 0 0 C 1629.11 1130.6 t 0 r /Helvetica-Bold findfont 32.5821 sf 0 0 m (truth) show NC gr 
 gsave  2268 1538 0 0 C 1629.11 1078.47 t 0 r /Helvetica-Bold findfont 32.5821 sf 0 0 m (T) show NC gr 
 gsave  2268 1538 0 0 C 1433.61 1104.53 t 0 r /Helvetica-Bold findfont 48.8732 sf 0 0 m (1000 < p) show NC gr  0 0.6 0 c 1275 1125 m 131 X s 3 lw 1341 1125 m20 6 lw black
 gsave  2268 1538 0 0 C 384.469 1417.32 t 0 r /Helvetica-BoldOblique findfont 61.9061 sf 0 0 m (ATLAS) show NC gr 
 gsave  2268 1538 0 0 C 632.093 1417.32 t 0 r /Helvetica findfont 58.6478 sf 0 0 m (Simulation Internal) show NC gr 
 gsave  2268 1538 0 0 C 746.131 1339.13 t 0 r /Helvetica findfont 58.6478 sf 0 0 m ( = 13 TeV) show NC gr 
 gsave  2268 1538 0 0 C 716.807 1339.13 t 0 r /Helvetica findfont 58.6478 sf 0 0 m (s) show NC gr  697 1372 m 7 -36 d s 3 lw 704 1336 m 6 52 d s 710 1388 m 36 X s
 gsave  2268 1538 0 0 C 384.469 1339.13 t 0 r /Helvetica findfont 58.6478 sf 0 0 m (Pythia Dijet ) show NC gr 
 gsave  2268 1538 0 0 C 384.469 1264.19 t 0 r /Helvetica findfont 58.6478 sf 0 0 m (EM+JES) show NC gr 
 gsave  2268 1538 0 0 C 938.365 1185.99 t 0 r /Helvetica findfont 58.6478 sf 0 0 m (| < 1.7) show NC gr 
 gsave  2268 1538 0 0 C 905.783 1185.99 t 0 r /Symbol findfont 58.6478 sf 0 0 m (h) show NC gr 
 gsave  2268 1538 0 0 C 720.065 1185.99 t 0 r /Helvetica findfont 58.6478 sf 0 0 m (, 1.6 < |) show NC gr 
 gsave  2268 1538 0 0 C 707.032 1169.7 t 0 r /Helvetica findfont 39.0986 sf 0 0 m (t) show NC gr 
 gsave  2268 1538 0 0 C 671.192 1185.99 t 0 r /Helvetica-Oblique findfont 58.6478 sf 0 0 m (k) show NC gr 
 gsave  2268 1538 0 0 C 430.084 1185.99 t 0 r /Helvetica findfont 58.6478 sf 0 0 m (=0.4 anti\255) show NC gr 
 gsave  2268 1538 0 0 C 384.469 1185.99 t 0 r /Helvetica-Oblique findfont 58.6478 sf 0 0 m (R) show NC gr 
 gr  gr showpage
end
%%EOF
