%!PS-Adobe-2.0 EPSF-2.0
%%BoundingBox:  0 0 567 384
%%Title: Tile0_Tile0/Distribution_Tile0_eta_4.eps: c1
%%Creator: ROOT Version 6.22/08
%%CreationDate: Tue Aug  3 22:33:28 2021
%%DocumentNeededResources: ProcSet (FontSetInit)
%%EndComments
%%BeginProlog
80 dict begin
/s {stroke} def /l {lineto} def /m {moveto} def /t {translate} def
/r {rotate} def /rl {roll}  def /R {repeat} def
/d {rlineto} def /rm {rmoveto} def /gr {grestore} def /f {eofill} def
/c {setrgbcolor} def /black {0 setgray} def /sd {setdash} def
/cl {closepath} def /sf {scalefont setfont} def /lw {setlinewidth} def
/box {m dup 0 exch d exch 0 d 0 exch neg d cl} def
/NC{systemdict begin initclip end}def/C{NC box clip newpath}def
/bl {box s} def /bf {gsave box gsave f grestore 1 lw [] 0 sd s grestore} def /Y { 0 exch d} def /X { 0 d} def 
/K {{pop pop 0 moveto} exch kshow} bind def
/ita {/ang 15 def gsave [1 0 ang dup sin exch cos div 1 0 0] concat} def 
/mp {newpath /y exch def /x exch def} def
/side {[w .77 mul w .23 mul] .385 w mul sd w 0 l currentpoint t -144 r} def
/mr {mp x y w2 0 360 arc} def /m24 {mr s} def /m20 {mr f} def
/mb {mp x y w2 add m w2 neg 0 d 0 w neg d w 0 d 0 w d cl} def
/mt {mp x y w2 add m w2 neg w neg d w 0 d cl} def
/w4 {w 4 div} def
/w6 {w 6 div} def
/w8 {w 8 div} def
/m21 {mb f} def /m25 {mb s} def /m22 {mt f} def /m26{mt s} def
/m23 {mp x y w2 sub m w2 w d w neg 0 d cl f} def
/m27 {mp x y w2 add m w3 neg w2 neg d w3 w2 neg d w3 w2 d cl s} def
/m28 {mp x w2 sub y w2 sub w3 add m w3 0 d  0 w3 neg d w3 0 d 0 w3 d w3 0 d  0 w3 d w3 neg 0 d 0 w3 d w3 neg 0 d 0 w3 neg d w3 neg 0 d cl s } def
/m29 {mp gsave x w2 sub y w2 add w3 sub m currentpoint t 4 {side} repeat cl fill gr} def
/m30 {mp gsave x w2 sub y w2 add w3 sub m currentpoint t 4 {side} repeat cl s gr} def
/m31 {mp x y w2 sub m 0 w d x w2 sub y m w 0 d x w2 .707 mul sub y w2 .707 mul add m w 1.44 div w 1.44 div neg d x w2 .707 mul sub y w2 .707 mul sub m w 1.44 div w 1.44 div d s} def
/m32 {mp x y w2 sub m w2 w d w neg 0 d cl s} def
/m33 {mp x y w2 add m w3 neg w2 neg d w3 w2 neg d w3 w2 d cl f} def
/m34 {mp x w2 sub y w2 sub w3 add m w3 0 d  0 w3 neg d w3 0 d 0 w3 d w3 0 d  0 w3 d w3 neg 0 d 0 w3 d w3 neg 0 d 0 w3 neg d w3 neg 0 d cl f } def
/m35 {mp x y w2 add m w2 neg w2 neg d w2 w2 neg d w2 w2 d w2 neg w2 d x y w2 sub m 0 w d x w2 sub y m w 0 d s} def
/m36 {mb x w2 sub y w2 add m w w neg d x w2 sub y w2 sub m w w d s} def
/m37 {mp x y m w4 neg w2 d w4 neg w2 neg d w2 0 d  w4 neg w2 neg d w2 0 d w4 neg w2 d w2 0 d w4 neg w2 d w4 neg w2 neg d cl s} def
/m38 {mp x w4 sub y w2 add m w4 neg w4 neg d 0 w2 neg d w4 w4 neg d w2 0 d w4 w4 d 0 w2 d w4 neg w4 d w2 neg 0 d x y w2 sub m 0 w d x w2 sub y m w 0 d cl s} def
/m39 {mp x y m w4 neg w2 d w4 neg w2 neg d w2 0 d  w4 neg w2 neg d w2 0 d w4 neg w2 d w2 0 d w4 neg w2 d w4 neg w2 neg d cl f} def
/m40 {mp x y m w4 w2 d w4 w4 neg d w2 neg w4 neg d w2 w4 neg d w4 neg w4 neg d w4 neg w2 d w4 neg w2 neg d w4 neg w4 d w2 w4 d w2 neg w4 d w4 w4 d w4 w2 neg d cl s} def
/m41 {mp x y m w4 w2 d w4 w4 neg d w2 neg w4 neg d w2 w4 neg d w4 neg w4 neg d w4 neg w2 d w4 neg w2 neg d w4 neg w4 d w2 w4 d w2 neg w4 d w4 w4 d w4 w2 neg d cl f} def
/m42 {mp x y w2 add m w8 neg w2 -3 4 div mul d w2 -3 4 div mul w8 neg d w2 3 4 div mul w8 neg d w8 w2 -3 4 div mul d w8 w2 3 4 div mul d w2 3 4 div mul w8 d w2 -3 4 div mul w8 d w8 neg w2 3 4 div mul d cl s} def
/m43 {mp x y w2 add m w8 neg w2 -3 4 div mul d w2 -3 4 div mul w8 neg d w2 3 4 div mul w8 neg d w8 w2 -3 4 div mul d w8 w2 3 4 div mul d w2 3 4 div mul w8 d w2 -3 4 div mul w8 d w8 neg w2 3 4 div mul d cl f} def
/m44 {mp x y m w6 neg w2 d w2 2 3 div mul 0 d w6 neg w2 neg d w2 w6 d 0 w2 -2 3 div mul d w2 neg w6 d w6 w2 neg d w2 -2 3 div mul 0 d w6 w2 d w2 neg w6 neg d 0 w2 2 3 div mul d w2 w6 neg d cl s} def
/m45 {mp x y m w6 neg w2 d w2 2 3 div mul 0 d w6 neg w2 neg d w2 w6 d 0 w2 -2 3 div mul d w2 neg w6 d w6 w2 neg d w2 -2 3 div mul 0 d w6 w2 d w2 neg w6 neg d 0 w2 2 3 div mul d w2 w6 neg d cl f} def
/m46 {mp x y w4 add m w4 neg w4 d w4 neg w4 neg d  w4 w4 neg d w4 neg w4 neg d w4 w4 neg d w4 w4 d w4 w4 neg d w4 w4 d w4 neg w4 d w4 w4 d w4 neg w4 d w4 neg w4 neg d cl s} def
/m47 {mp x y w4 add m w4 neg w4 d w4 neg w4 neg d w4 w4 neg d w4 neg w4 neg d  w4 w4 neg d w4 w4 d w4 w4 neg d w4 w4 d w4 neg w4 d w4 w4 d w4 neg w4 d w4 neg w4 neg d cl f} def
/m48 {mp x y w4 add m w4 neg w4 d w4 neg w4 neg d w4 w4 neg d  w4 neg w4 neg d w4 w4 neg d w4 w4 d w4 w4 neg d w4 w4 d w4 neg w4 d w4 w4 d w4 neg w4 d w4 neg w4 neg d  w4 w4 neg d w4 neg w4 neg d w4 neg w4 d w4 w4 d cl f} def
/m49 {mp x w2 sub w3 add y w2 sub w3 add m  0 w3 neg d w3 0 d 0 w3 d w3 0 d 0 w3 d w3 neg 0 d 0 w3 d w3 neg 0 d 0 w3 neg d w3 neg 0 d 0 w3 neg d w3 0 d 0 w3 d w3 0 d 0 w3 neg d w3 neg 0 d cl f } def
/m2 {mp x y w2 sub m 0 w d x w2 sub y m w 0 d s} def
/m5 {mp x w2 .707 mul sub y w2 .707 mul sub m w 1.44 div w 1.44 div d x w2 .707 mul sub y w2 .707 mul add m w 1.44 div w 1.44 div neg d s} def
%%IncludeResource: ProcSet (FontSetInit)
%%IncludeResource: font Times-Roman
%%IncludeResource: font Times-Italic
%%IncludeResource: font Times-Bold
%%IncludeResource: font Times-BoldItalic
%%IncludeResource: font Helvetica
%%IncludeResource: font Helvetica-Oblique
%%IncludeResource: font Helvetica-Bold
%%IncludeResource: font Helvetica-BoldOblique
%%IncludeResource: font Courier
%%IncludeResource: font Courier-Oblique
%%IncludeResource: font Courier-Bold
%%IncludeResource: font Courier-BoldOblique
%%IncludeResource: font Symbol
%%IncludeResource: font ZapfDingbats
/reEncode {exch findfont dup length dict begin {1 index /FID eq  {pop pop} {def} ifelse } forall /Encoding exch def currentdict end dup /FontName get exch definefont pop } def [/Times-Bold /Times-Italic /Times-BoldItalic /Helvetica /Helvetica-Oblique
 /Helvetica-Bold /Helvetica-BoldOblique /Courier /Courier-Oblique /Courier-Bold /Courier-BoldOblique /Times-Roman /AvantGarde-Book /AvantGarde-BookOblique /AvantGarde-Demi /AvantGarde-DemiOblique /Bookman-Demi /Bookman-DemiItalic /Bookman-Light
 /Bookman-LightItalic /Helvetica-Narrow /Helvetica-Narrow-Bold /Helvetica-Narrow-BoldOblique /Helvetica-Narrow-Oblique /NewCenturySchlbk-Roman /NewCenturySchlbk-Bold /NewCenturySchlbk-BoldItalic /NewCenturySchlbk-Italic /Palatino-Bold
 /Palatino-BoldItalic /Palatino-Italic /Palatino-Roman ] {ISOLatin1Encoding reEncode } forall
%%EndProlog
%%BeginSetup
%%EndSetup
newpath  gsave  .25 .25 scale  gsave  0 0 t 1 0 0 c[  ] 0 sd 3 lw 1 1 1 c 2268 1538 0 0 bf black 1 1 1 c 1905 1276 295 231 bf black 1905 1276 295 231 bl 1 1 1 c 1905 1276 295 231 bf black 1905 1276 295 231 bl 0 0 1 c 6 lw 1 1 1 c 0 0 1 c 3 lw /w 31
 def /w2 {w 2 div} def /w3 {w 3 div} def 302 232 m20 6 lw 3 lw 315 233 m20 6 lw 3 lw 329 235 m20 6 lw 3 lw 342 233 m20 6 lw 3 lw 356 233 m20 6 lw 3 lw 370 234 m20 6 lw 3 lw 383 233 m20 6 lw 3 lw 397 236 m20 6 lw 3 lw 410 236 m20 6 lw 3 lw 424 235 m20
 6 lw 3 lw 438 240 m20 6 lw 3 lw 451 241 m20 6 lw 3 lw 465 250 m20 6 lw 3 lw 478 247 m20 6 lw 3 lw 492 264 m20 6 lw 3 lw 506 255 m20 6 lw 3 lw 519 263 m20 6 lw 3 lw 533 277 m20 6 lw 3 lw 547 333 m20 6 lw 560 520 m 4 Y s 560 550 m 4 Y s 3 lw 560 537
 m20 6 lw 574 636 m 7 Y s 574 669 m 7 Y s 3 lw 574 656 m20 6 lw 587 412 m s 587 438 m s 3 lw 587 425 m20 6 lw 3 lw 601 389 m20 6 lw 3 lw 615 401 m20 6 lw 3 lw 628 391 m20 6 lw 3 lw 642 402 m20 6 lw 3 lw 655 394 m20 6 lw 669 407 m s 669 433 m 1 Y s 3
 lw 669 420 m20 6 lw 683 407 m s 683 433 m 1 Y s 3 lw 683 420 m20 6 lw 696 435 m 1 Y s 696 462 m 1 Y s 3 lw 696 449 m20 6 lw 710 405 m s 710 431 m 1 Y s 3 lw 710 418 m20 6 lw 723 442 m 1 Y s 723 469 m 2 Y s 3 lw 723 456 m20 6 lw 737 430 m 1 Y s 737
 457 m 1 Y s 3 lw 737 444 m20 6 lw 751 422 m 1 Y s 751 449 m 1 Y s 3 lw 751 436 m20 6 lw 764 429 m 1 Y s 764 456 m 1 Y s 3 lw 764 443 m20 6 lw 778 406 m s 778 432 m 1 Y s 3 lw 778 419 m20 6 lw 791 419 m s 791 445 m 1 Y s 3 lw 791 432 m20 6 lw 805 406
 m s 805 432 m 1 Y s 3 lw 805 419 m20 6 lw 819 427 m 1 Y s 819 454 m 1 Y s 3 lw 819 441 m20 6 lw 832 420 m 1 Y s 832 447 m 1 Y s 3 lw 832 434 m20 6 lw 846 404 m s 846 431 m s 3 lw 846 418 m20 6 lw 859 410 m s 859 436 m s 3 lw 859 423 m20 6 lw 873 408
 m s 873 434 m s 3 lw 873 421 m20 6 lw 3 lw 887 406 m20 6 lw 3 lw 900 412 m20 6 lw 914 423 m 1 Y s 914 450 m 1 Y s 3 lw 914 437 m20 6 lw 3 lw 927 406 m20 6 lw 3 lw 941 403 m20 6 lw 3 lw 955 412 m20 6 lw 968 409 m s 968 435 m s 3 lw 968 422 m20 6 lw 3
 lw 982 396 m20 6 lw 3 lw 996 388 m20 6 lw 3 lw 1009 374 m20 6 lw 3 lw 1023 379 m20 6 lw 3 lw 1036 370 m20 6 lw 3 lw 1050 378 m20 6 lw 3 lw 1064 354 m20 6 lw 3 lw 1077 344 m20 6 lw 3 lw 1091 348 m20 6 lw 3 lw 1104 334 m20 6 lw 3 lw 1118 337 m20 6 lw
 3 lw 1132 345 m20 6 lw 3 lw 1145 325 m20 6 lw 3 lw 1159 326 m20 6 lw 3 lw 1172 326 m20 6 lw 3 lw 1186 326 m20 6 lw 3 lw 1200 316 m20 6 lw 3 lw 1213 304 m20 6 lw 3 lw 1227 308 m20 6 lw 3 lw 1240 297 m20 6 lw 3 lw 1254 295 m20 6 lw 3 lw 1268 303 m20 6
 lw 3 lw 1281 299 m20 6 lw 3 lw 1295 290 m20 6 lw 3 lw 1308 290 m20 6 lw 3 lw 1322 289 m20 6 lw 3 lw 1336 282 m20 6 lw 3 lw 1349 291 m20 6 lw 3 lw 1363 270 m20 6 lw 3 lw 1377 284 m20 6 lw 3 lw 1390 275 m20 6 lw 3 lw 1404 277 m20 6 lw 3 lw 1417 274
 m20 6 lw 3 lw 1431 268 m20 6 lw 3 lw 1445 259 m20 6 lw 3 lw 1458 267 m20 6 lw 3 lw 1472 262 m20 6 lw 3 lw 1485 261 m20 6 lw 3 lw 1499 256 m20 6 lw 3 lw 1513 254 m20 6 lw 3 lw 1526 265 m20 6 lw 3 lw 1540 250 m20 6 lw 3 lw 1553 246 m20 6 lw 3 lw 1567
 261 m20 6 lw 3 lw 1581 250 m20 6 lw 3 lw 1594 241 m20 6 lw 3 lw 1608 250 m20 6 lw 3 lw 1621 248 m20 6 lw 3 lw 1635 247 m20 6 lw 3 lw 1649 243 m20 6 lw 3 lw 1662 245 m20 6 lw 3 lw 1676 245 m20 6 lw 3 lw 1689 244 m20 6 lw 3 lw 1703 249 m20 6 lw 3 lw
 1717 242 m20 6 lw 3 lw 1730 240 m20 6 lw 3 lw 1744 242 m20 6 lw 3 lw 1757 247 m20 6 lw 3 lw 1771 245 m20 6 lw 3 lw 1785 239 m20 6 lw 3 lw 1798 237 m20 6 lw 3 lw 1812 237 m20 6 lw 3 lw 1826 237 m20 6 lw 3 lw 1839 237 m20 6 lw 3 lw 1853 245 m20 6 lw 3
 lw 1866 240 m20 6 lw 3 lw 1880 237 m20 6 lw 3 lw 1894 238 m20 6 lw 3 lw 1907 238 m20 6 lw 3 lw 1921 233 m20 6 lw 3 lw 1934 233 m20 6 lw 3 lw 1948 238 m20 6 lw 3 lw 1962 234 m20 6 lw 3 lw 1975 237 m20 6 lw 3 lw 1989 233 m20 6 lw 3 lw 2002 235 m20 6
 lw 3 lw 2016 237 m20 6 lw 3 lw 2030 235 m20 6 lw 3 lw 2043 233 m20 6 lw 3 lw 2057 236 m20 6 lw 3 lw 2070 235 m20 6 lw 3 lw 2084 236 m20 6 lw 3 lw 2098 233 m20 6 lw 3 lw 2111 233 m20 6 lw 3 lw 2125 234 m20 6 lw 3 lw 2138 233 m20 6 lw 3 lw 2152 232
 m20 6 lw 3 lw 2166 232 m20 6 lw 3 lw 2179 232 m20 6 lw 3 lw 2193 232 m20 6 lw black 3 lw 295 231 m 1905 X s 295 269 m -38 Y s 349 250 m -19 Y s 404 250 m -19 Y s 458 250 m -19 Y s 513 250 m -19 Y s 567 269 m -38 Y s 621 250 m -19 Y s 676 250 m -19 Y
 s 730 250 m -19 Y s 785 250 m -19 Y s 839 269 m -38 Y s 893 250 m -19 Y s 948 250 m -19 Y s 1002 250 m -19 Y s 1057 250 m -19 Y s 1111 269 m -38 Y s 1166 250 m -19 Y s 1220 250 m -19 Y s 1274 250 m -19 Y s 1329 250 m -19 Y s 1383 269 m -38 Y s 1438
 250 m -19 Y s 1492 250 m -19 Y s 1547 250 m -19 Y s 1601 250 m -19 Y s 1655 269 m -38 Y s 1710 250 m -19 Y s 1764 250 m -19 Y s 1819 250 m -19 Y s 1873 250 m -19 Y s 1928 269 m -38 Y s 1982 250 m -19 Y s 2036 250 m -19 Y s 2091 250 m -19 Y s 2145
 250 m -19 Y s 2200 269 m -38 Y s
 gsave  2268 1538 0 0 C 267.173 162.911 t 0 r /Helvetica findfont 71.6807 sf 0 0 m (0.1) show NC gr 
 gsave  2268 1538 0 0 C 231.333 162.911 t 0 r /Symbol findfont 71.6807 sf 0 0 m (-) show NC gr 
 gsave  2268 1538 0 0 C 547.38 162.911 t 0 r /Helvetica findfont 71.6807 sf 0 0 m (0) show NC gr 
 gsave  2268 1538 0 0 C 795.004 162.911 t 0 r /Helvetica findfont 71.6807 sf 0 0 m (0.1) show NC gr 
 gsave  2268 1538 0 0 C 1062.18 162.911 t 0 r /Helvetica findfont 71.6807 sf 0 0 m (0.2) show NC gr 
 gsave  2268 1538 0 0 C 1332.61 162.911 t 0 r /Helvetica findfont 71.6807 sf 0 0 m (0.3) show NC gr 
 gsave  2268 1538 0 0 C 1606.3 162.911 t 0 r /Helvetica findfont 71.6807 sf 0 0 m (0.4) show NC gr 
 gsave  2268 1538 0 0 C 1876.73 162.911 t 0 r /Helvetica findfont 71.6807 sf 0 0 m (0.5) show NC gr 
 gsave  2268 1538 0 0 C 2150.42 162.911 t 0 r /Helvetica findfont 71.6807 sf 0 0 m (0.6) show NC gr 
 gsave  2268 1538 0 0 C 2095.03 19.5493 t 0 r /Helvetica findfont 48.8732 sf 0 0 m (Tile0) show NC gr 
 gsave  2268 1538 0 0 C 2075.48 42.3568 t 0 r /Helvetica findfont 71.6807 sf 0 0 m (f) show NC gr  295 1507 m 1905 X s 295 1468 m 39 Y s 349 1488 m 19 Y s 404 1488 m 19 Y s 458 1488 m 19 Y s 513 1488 m 19 Y s 567 1468 m 39 Y s 621 1488 m 19 Y s 676
 1488 m 19 Y s 730 1488 m 19 Y s 785 1488 m 19 Y s 839 1468 m 39 Y s 893 1488 m 19 Y s 948 1488 m 19 Y s 1002 1488 m 19 Y s 1057 1488 m 19 Y s 1111 1468 m 39 Y s 1166 1488 m 19 Y s 1220 1488 m 19 Y s 1274 1488 m 19 Y s 1329 1488 m 19 Y s 1383 1468 m
 39 Y s 1438 1488 m 19 Y s 1492 1488 m 19 Y s 1547 1488 m 19 Y s 1601 1488 m 19 Y s 1655 1468 m 39 Y s 1710 1488 m 19 Y s 1764 1488 m 19 Y s 1819 1488 m 19 Y s 1873 1488 m 19 Y s 1928 1468 m 39 Y s 1982 1488 m 19 Y s 2036 1488 m 19 Y s 2091 1488 m 19
 Y s 2145 1488 m 19 Y s 2200 1468 m 39 Y s 295 231 m 1276 Y s 351 231 m -56 X s 323 282 m -28 X s 323 333 m -28 X s 323 384 m -28 X s 351 435 m -56 X s 323 486 m -28 X s 323 538 m -28 X s 323 589 m -28 X s 351 640 m -56 X s 323 691 m -28 X s 323 742
 m -28 X s 323 793 m -28 X s 351 844 m -56 X s 323 896 m -28 X s 323 947 m -28 X s 323 998 m -28 X s 351 1049 m -56 X s 323 1100 m -28 X s 323 1151 m -28 X s 323 1202 m -28 X s 351 1253 m -56 X s 323 1305 m -28 X s 323 1356 m -28 X s 323 1407 m -28 X
 s 351 1458 m -56 X s 351 1458 m -56 X s
 gsave  2268 1538 0 0 C 244.366 205.267 t 0 r /Helvetica findfont 71.6807 sf 0 0 m (0) show NC gr 
 gsave  2268 1538 0 0 C 146.62 410.535 t 0 r /Helvetica findfont 71.6807 sf 0 0 m (0.02) show NC gr 
 gsave  2268 1538 0 0 C 146.62 615.802 t 0 r /Helvetica findfont 71.6807 sf 0 0 m (0.04) show NC gr 
 gsave  2268 1538 0 0 C 146.62 821.07 t 0 r /Helvetica findfont 71.6807 sf 0 0 m (0.06) show NC gr 
 gsave  2268 1538 0 0 C 146.62 1023.08 t 0 r /Helvetica findfont 71.6807 sf 0 0 m (0.08) show NC gr 
 gsave  2268 1538 0 0 C 198.751 1228.35 t 0 r /Helvetica findfont 71.6807 sf 0 0 m (0.1) show NC gr 
 gsave  2268 1538 0 0 C 146.62 1433.61 t 0 r /Helvetica findfont 71.6807 sf 0 0 m (0.12) show NC gr 
 gsave  2268 1538 0 0 C 156.394 925.333 t 90 r /Helvetica findfont 71.6807 sf 0 0 m (Normalized entries) show NC gr  2200 231 m 1276 Y s 2143 231 m 57 X s 2171 282 m 29 X s 2171 333 m 29 X s 2171 384 m 29 X s 2143 435 m 57 X s 2171 486 m 29 X s 2171
 538 m 29 X s 2171 589 m 29 X s 2143 640 m 57 X s 2171 691 m 29 X s 2171 742 m 29 X s 2171 793 m 29 X s 2143 844 m 57 X s 2171 896 m 29 X s 2171 947 m 29 X s 2171 998 m 29 X s 2143 1049 m 57 X s 2171 1100 m 29 X s 2171 1151 m 29 X s 2171 1202 m 29 X
 s 2143 1253 m 57 X s 2171 1305 m 29 X s 2171 1356 m 29 X s 2171 1407 m 29 X s 2143 1458 m 57 X s 2143 1458 m 57 X s 1 0 0 c 6 lw 1 1 1 c 1 0 0 c 3 lw 370 231 m20 6 lw 3 lw 383 231 m20 6 lw 3 lw 397 231 m20 6 lw 3 lw 410 231 m20 6 lw 3 lw 438 231 m20
 6 lw 3 lw 465 231 m20 6 lw 3 lw 478 231 m20 6 lw 3 lw 492 231 m20 6 lw 3 lw 506 231 m20 6 lw 3 lw 519 233 m20 6 lw 3 lw 533 234 m20 6 lw 3 lw 547 239 m20 6 lw 3 lw 560 258 m20 6 lw 3 lw 574 288 m20 6 lw 3 lw 587 280 m20 6 lw 3 lw 601 294 m20 6 lw 3
 lw 615 311 m20 6 lw 3 lw 628 321 m20 6 lw 3 lw 642 340 m20 6 lw 3 lw 655 347 m20 6 lw 3 lw 669 367 m20 6 lw 3 lw 683 378 m20 6 lw 3 lw 696 384 m20 6 lw 3 lw 710 392 m20 6 lw 3 lw 723 411 m20 6 lw 3 lw 737 426 m20 6 lw 3 lw 751 429 m20 6 lw 3 lw 764
 443 m20 6 lw 3 lw 778 440 m20 6 lw 3 lw 791 448 m20 6 lw 3 lw 805 455 m20 6 lw 3 lw 819 460 m20 6 lw 3 lw 832 464 m20 6 lw 3 lw 846 465 m20 6 lw 3 lw 859 463 m20 6 lw 3 lw 873 449 m20 6 lw 3 lw 887 458 m20 6 lw 3 lw 900 457 m20 6 lw 3 lw 914 456 m20
 6 lw 3 lw 927 450 m20 6 lw 3 lw 941 439 m20 6 lw 3 lw 955 445 m20 6 lw 3 lw 968 453 m20 6 lw 3 lw 982 447 m20 6 lw 3 lw 996 438 m20 6 lw 3 lw 1009 426 m20 6 lw 3 lw 1023 437 m20 6 lw 3 lw 1036 417 m20 6 lw 3 lw 1050 418 m20 6 lw 3 lw 1064 412 m20 6
 lw 3 lw 1077 408 m20 6 lw 3 lw 1091 391 m20 6 lw 3 lw 1104 397 m20 6 lw 3 lw 1118 379 m20 6 lw 3 lw 1132 381 m20 6 lw 3 lw 1145 371 m20 6 lw 3 lw 1159 365 m20 6 lw 3 lw 1172 366 m20 6 lw 3 lw 1186 350 m20 6 lw 3 lw 1200 352 m20 6 lw 3 lw 1213 344
 m20 6 lw 3 lw 1227 337 m20 6 lw 3 lw 1240 332 m20 6 lw 3 lw 1254 329 m20 6 lw 3 lw 1268 326 m20 6 lw 3 lw 1281 323 m20 6 lw 3 lw 1295 310 m20 6 lw 3 lw 1308 310 m20 6 lw 3 lw 1322 310 m20 6 lw 3 lw 1336 305 m20 6 lw 3 lw 1349 297 m20 6 lw 3 lw 1363
 298 m20 6 lw 3 lw 1377 290 m20 6 lw 3 lw 1390 291 m20 6 lw 3 lw 1404 282 m20 6 lw 3 lw 1417 277 m20 6 lw 3 lw 1431 279 m20 6 lw 3 lw 1445 277 m20 6 lw 3 lw 1458 274 m20 6 lw 3 lw 1472 268 m20 6 lw 3 lw 1485 274 m20 6 lw 3 lw 1499 265 m20 6 lw 3 lw
 1513 269 m20 6 lw 3 lw 1526 265 m20 6 lw 3 lw 1540 258 m20 6 lw 3 lw 1553 258 m20 6 lw 3 lw 1567 257 m20 6 lw 3 lw 1581 260 m20 6 lw 3 lw 1594 257 m20 6 lw 3 lw 1608 252 m20 6 lw 3 lw 1621 251 m20 6 lw 3 lw 1635 249 m20 6 lw 3 lw 1649 248 m20 6 lw 3
 lw 1662 247 m20 6 lw 3 lw 1676 247 m20 6 lw 3 lw 1689 246 m20 6 lw 3 lw 1703 244 m20 6 lw 3 lw 1717 243 m20 6 lw 3 lw 1730 243 m20 6 lw 3 lw 1744 242 m20 6 lw 3 lw 1757 242 m20 6 lw 3 lw 1771 241 m20 6 lw 3 lw 1785 240 m20 6 lw 3 lw 1798 242 m20 6
 lw 3 lw 1812 241 m20 6 lw 3 lw 1826 240 m20 6 lw 3 lw 1839 237 m20 6 lw 3 lw 1853 237 m20 6 lw 3 lw 1866 236 m20 6 lw 3 lw 1880 236 m20 6 lw 3 lw 1894 236 m20 6 lw 3 lw 1907 235 m20 6 lw 3 lw 1921 235 m20 6 lw 3 lw 1934 235 m20 6 lw 3 lw 1948 236
 m20 6 lw 3 lw 1962 236 m20 6 lw 3 lw 1975 234 m20 6 lw 3 lw 1989 234 m20 6 lw 3 lw 2002 235 m20 6 lw 3 lw 2016 233 m20 6 lw 3 lw 2030 235 m20 6 lw 3 lw 2043 233 m20 6 lw 3 lw 2057 233 m20 6 lw 3 lw 2070 232 m20 6 lw 3 lw 2084 232 m20 6 lw 3 lw 2098
 233 m20 6 lw 3 lw 2111 233 m20 6 lw 3 lw 2125 232 m20 6 lw 3 lw 2138 232 m20 6 lw 3 lw 2152 232 m20 6 lw 3 lw 2166 233 m20 6 lw 3 lw 2179 232 m20 6 lw 3 lw 2193 232 m20 6 lw black 1 1 1 c black 3 lw 547 231 m20 6 lw 3 lw 560 231 m20 6 lw 3 lw 574
 241 m20 6 lw 3 lw 587 239 m20 6 lw 3 lw 601 247 m20 6 lw 3 lw 615 253 m20 6 lw 3 lw 628 256 m20 6 lw 3 lw 642 264 m20 6 lw 3 lw 655 272 m20 6 lw 3 lw 669 279 m20 6 lw 3 lw 683 284 m20 6 lw 3 lw 696 301 m20 6 lw 3 lw 710 295 m20 6 lw 3 lw 723 311 m20
 6 lw 3 lw 737 320 m20 6 lw 3 lw 751 322 m20 6 lw 3 lw 764 339 m20 6 lw 3 lw 778 351 m20 6 lw 3 lw 791 384 m20 6 lw 3 lw 805 382 m20 6 lw 3 lw 819 398 m20 6 lw 3 lw 832 404 m20 6 lw 3 lw 846 423 m20 6 lw 3 lw 859 424 m20 6 lw 3 lw 873 432 m20 6 lw 3
 lw 887 469 m20 6 lw 3 lw 900 474 m20 6 lw 3 lw 914 462 m20 6 lw 3 lw 927 477 m20 6 lw 3 lw 941 488 m20 6 lw 3 lw 955 488 m20 6 lw 3 lw 968 484 m20 6 lw 3 lw 982 495 m20 6 lw 3 lw 996 492 m20 6 lw 3 lw 1009 484 m20 6 lw 3 lw 1023 489 m20 6 lw 3 lw
 1036 502 m20 6 lw 3 lw 1050 478 m20 6 lw 3 lw 1064 476 m20 6 lw 3 lw 1077 463 m20 6 lw 3 lw 1091 452 m20 6 lw 3 lw 1104 448 m20 6 lw 3 lw 1118 447 m20 6 lw 3 lw 1132 437 m20 6 lw 3 lw 1145 435 m20 6 lw 3 lw 1159 420 m20 6 lw 3 lw 1172 443 m20 6 lw 3
 lw 1186 415 m20 6 lw 3 lw 1200 397 m20 6 lw 3 lw 1213 385 m20 6 lw 3 lw 1227 395 m20 6 lw 3 lw 1240 382 m20 6 lw 3 lw 1254 357 m20 6 lw 3 lw 1268 362 m20 6 lw 3 lw 1281 341 m20 6 lw 3 lw 1295 354 m20 6 lw 3 lw 1308 333 m20 6 lw 3 lw 1322 324 m20 6
 lw 3 lw 1336 329 m20 6 lw 3 lw 1349 324 m20 6 lw 3 lw 1363 315 m20 6 lw 3 lw 1377 316 m20 6 lw 3 lw 1390 306 m20 6 lw 3 lw 1404 298 m20 6 lw 3 lw 1417 302 m20 6 lw 3 lw 1431 292 m20 6 lw 3 lw 1445 289 m20 6 lw 3 lw 1458 285 m20 6 lw 3 lw 1472 278
 m20 6 lw 3 lw 1485 271 m20 6 lw 3 lw 1499 274 m20 6 lw 3 lw 1513 264 m20 6 lw 3 lw 1526 269 m20 6 lw 3 lw 1540 264 m20 6 lw 3 lw 1553 256 m20 6 lw 3 lw 1567 260 m20 6 lw 3 lw 1581 264 m20 6 lw 3 lw 1594 255 m20 6 lw 3 lw 1608 253 m20 6 lw 3 lw 1621
 254 m20 6 lw 3 lw 1635 245 m20 6 lw 3 lw 1649 251 m20 6 lw 3 lw 1662 247 m20 6 lw 3 lw 1676 249 m20 6 lw 3 lw 1689 247 m20 6 lw 3 lw 1703 242 m20 6 lw 3 lw 1717 240 m20 6 lw 3 lw 1730 239 m20 6 lw 3 lw 1744 240 m20 6 lw 3 lw 1757 242 m20 6 lw 3 lw
 1771 238 m20 6 lw 3 lw 1785 241 m20 6 lw 3 lw 1798 238 m20 6 lw 3 lw 1812 237 m20 6 lw 3 lw 1826 238 m20 6 lw 3 lw 1839 236 m20 6 lw 3 lw 1853 235 m20 6 lw 3 lw 1866 237 m20 6 lw 3 lw 1880 235 m20 6 lw 3 lw 1894 234 m20 6 lw 3 lw 1907 236 m20 6 lw 3
 lw 1921 234 m20 6 lw 3 lw 1934 233 m20 6 lw 3 lw 1948 233 m20 6 lw 3 lw 1962 233 m20 6 lw 3 lw 1975 232 m20 6 lw 3 lw 1989 233 m20 6 lw 3 lw 2002 232 m20 6 lw 3 lw 2016 233 m20 6 lw 3 lw 2030 232 m20 6 lw 3 lw 2043 232 m20 6 lw 3 lw 2057 231 m20 6
 lw 3 lw 2070 232 m20 6 lw 3 lw 2084 231 m20 6 lw 3 lw 2098 233 m20 6 lw 3 lw 2111 232 m20 6 lw 3 lw 2125 232 m20 6 lw 3 lw 2138 231 m20 6 lw 3 lw 2152 232 m20 6 lw 3 lw 2166 232 m20 6 lw 3 lw 2179 231 m20 6 lw 3 lw 2193 231 m20 6 lw 0 0.6 0 c 1 1 1
 c 0 0.6 0 c 3 lw 560 231 m20 6 lw 3 lw 574 235 m20 6 lw 3 lw 587 238 m20 6 lw 3 lw 601 246 m20 6 lw 3 lw 615 245 m20 6 lw 3 lw 628 251 m20 6 lw 3 lw 642 255 m20 6 lw 3 lw 655 262 m20 6 lw 3 lw 669 264 m20 6 lw 3 lw 683 275 m20 6 lw 3 lw 696 280 m20
 6 lw 3 lw 710 286 m20 6 lw 3 lw 723 295 m20 6 lw 3 lw 737 303 m20 6 lw 3 lw 751 312 m20 6 lw 3 lw 764 323 m20 6 lw 3 lw 778 333 m20 6 lw 3 lw 791 343 m20 6 lw 3 lw 805 347 m20 6 lw 3 lw 819 364 m20 6 lw 3 lw 832 380 m20 6 lw 3 lw 846 384 m20 6 lw 3
 lw 859 406 m20 6 lw 3 lw 873 418 m20 6 lw 3 lw 887 421 m20 6 lw 3 lw 900 435 m20 6 lw 3 lw 914 455 m20 6 lw 3 lw 927 459 m20 6 lw 3 lw 941 450 m20 6 lw 3 lw 955 483 m20 6 lw 3 lw 968 492 m20 6 lw 3 lw 982 485 m20 6 lw 3 lw 996 499 m20 6 lw 3 lw 1009
 502 m20 6 lw 3 lw 1023 492 m20 6 lw 3 lw 1036 510 m20 6 lw 3 lw 1050 505 m20 6 lw 3 lw 1064 510 m20 6 lw 3 lw 1077 494 m20 6 lw 3 lw 1091 481 m20 6 lw 3 lw 1104 486 m20 6 lw 3 lw 1118 478 m20 6 lw 3 lw 1132 479 m20 6 lw 3 lw 1145 463 m20 6 lw 3 lw
 1159 448 m20 6 lw 3 lw 1172 449 m20 6 lw 3 lw 1186 444 m20 6 lw 3 lw 1200 438 m20 6 lw 3 lw 1213 412 m20 6 lw 3 lw 1227 404 m20 6 lw 3 lw 1240 395 m20 6 lw 3 lw 1254 393 m20 6 lw 3 lw 1268 374 m20 6 lw 3 lw 1281 364 m20 6 lw 3 lw 1295 359 m20 6 lw 3
 lw 1308 350 m20 6 lw 3 lw 1322 344 m20 6 lw 3 lw 1336 332 m20 6 lw 3 lw 1349 332 m20 6 lw 3 lw 1363 326 m20 6 lw 3 lw 1377 318 m20 6 lw 3 lw 1390 309 m20 6 lw 3 lw 1404 304 m20 6 lw 3 lw 1417 296 m20 6 lw 3 lw 1431 289 m20 6 lw 3 lw 1445 285 m20 6
 lw 3 lw 1458 276 m20 6 lw 3 lw 1472 280 m20 6 lw 3 lw 1485 276 m20 6 lw 3 lw 1499 272 m20 6 lw 3 lw 1513 268 m20 6 lw 3 lw 1526 264 m20 6 lw 3 lw 1540 260 m20 6 lw 3 lw 1553 263 m20 6 lw 3 lw 1567 260 m20 6 lw 3 lw 1581 255 m20 6 lw 3 lw 1594 254
 m20 6 lw 3 lw 1608 255 m20 6 lw 3 lw 1621 249 m20 6 lw 3 lw 1635 248 m20 6 lw 3 lw 1649 247 m20 6 lw 3 lw 1662 246 m20 6 lw 3 lw 1676 247 m20 6 lw 3 lw 1689 243 m20 6 lw 3 lw 1703 243 m20 6 lw 3 lw 1717 240 m20 6 lw 3 lw 1730 239 m20 6 lw 3 lw 1744
 240 m20 6 lw 3 lw 1757 239 m20 6 lw 3 lw 1771 239 m20 6 lw 3 lw 1785 238 m20 6 lw 3 lw 1798 237 m20 6 lw 3 lw 1812 235 m20 6 lw 3 lw 1826 235 m20 6 lw 3 lw 1839 235 m20 6 lw 3 lw 1853 235 m20 6 lw 3 lw 1866 234 m20 6 lw 3 lw 1880 235 m20 6 lw 3 lw
 1894 234 m20 6 lw 3 lw 1907 233 m20 6 lw 3 lw 1921 234 m20 6 lw 3 lw 1934 233 m20 6 lw 3 lw 1948 233 m20 6 lw 3 lw 1962 233 m20 6 lw 3 lw 1975 232 m20 6 lw 3 lw 1989 233 m20 6 lw 3 lw 2002 232 m20 6 lw 3 lw 2016 233 m20 6 lw 3 lw 2030 232 m20 6 lw 3
 lw 2043 231 m20 6 lw 3 lw 2057 232 m20 6 lw 3 lw 2070 232 m20 6 lw 3 lw 2084 231 m20 6 lw 3 lw 2098 231 m20 6 lw 3 lw 2111 232 m20 6 lw 3 lw 2125 232 m20 6 lw 3 lw 2138 231 m20 6 lw 3 lw 2152 231 m20 6 lw 3 lw 2166 231 m20 6 lw 3 lw 2179 231 m20 6
 lw 3 lw 2193 231 m20 6 lw black
 gsave  2268 1538 0 0 C 1648.66 1394.52 t 0 r /Helvetica-Bold findfont 48.8732 sf 0 0 m ( < 40 GeV) show NC gr 
 gsave  2268 1538 0 0 C 1573.72 1420.58 t 0 r /Helvetica-Bold findfont 32.5821 sf 0 0 m (truth) show NC gr 
 gsave  2268 1538 0 0 C 1573.72 1368.45 t 0 r /Helvetica-Bold findfont 32.5821 sf 0 0 m (T) show NC gr 
 gsave  2268 1538 0 0 C 1433.61 1394.52 t 0 r /Helvetica-Bold findfont 48.8732 sf 0 0 m (30 < p) show NC gr  0 0 1 c 1275 1413 m 131 X s 3 lw 1341 1413 m20 6 lw black
 gsave  2268 1538 0 0 C 1648.66 1296.77 t 0 r /Helvetica-Bold findfont 48.8732 sf 0 0 m ( < 100 GeV) show NC gr 
 gsave  2268 1538 0 0 C 1573.72 1322.83 t 0 r /Helvetica-Bold findfont 32.5821 sf 0 0 m (truth) show NC gr 
 gsave  2268 1538 0 0 C 1573.72 1270.7 t 0 r /Helvetica-Bold findfont 32.5821 sf 0 0 m (T) show NC gr 
 gsave  2268 1538 0 0 C 1433.61 1296.77 t 0 r /Helvetica-Bold findfont 48.8732 sf 0 0 m (80 < p) show NC gr  1 0 0 c 1275 1317 m 131 X s 3 lw 1341 1317 m20 6 lw black
 gsave  2268 1538 0 0 C 1674.72 1202.28 t 0 r /Helvetica-Bold findfont 48.8732 sf 0 0 m ( < 400 GeV) show NC gr 
 gsave  2268 1538 0 0 C 1599.78 1228.35 t 0 r /Helvetica-Bold findfont 32.5821 sf 0 0 m (truth) show NC gr 
 gsave  2268 1538 0 0 C 1599.78 1176.21 t 0 r /Helvetica-Bold findfont 32.5821 sf 0 0 m (T) show NC gr 
 gsave  2268 1538 0 0 C 1433.61 1202.28 t 0 r /Helvetica-Bold findfont 48.8732 sf 0 0 m (350 < p) show NC gr  1275 1221 m 131 X s 3 lw 1341 1221 m20 6 lw
 gsave  2268 1538 0 0 C 1704.05 1104.53 t 0 r /Helvetica-Bold findfont 48.8732 sf 0 0 m ( < 1200 GeV) show NC gr 
 gsave  2268 1538 0 0 C 1629.11 1130.6 t 0 r /Helvetica-Bold findfont 32.5821 sf 0 0 m (truth) show NC gr 
 gsave  2268 1538 0 0 C 1629.11 1078.47 t 0 r /Helvetica-Bold findfont 32.5821 sf 0 0 m (T) show NC gr 
 gsave  2268 1538 0 0 C 1433.61 1104.53 t 0 r /Helvetica-Bold findfont 48.8732 sf 0 0 m (1000 < p) show NC gr  0 0.6 0 c 1275 1125 m 131 X s 3 lw 1341 1125 m20 6 lw black
 gsave  2268 1538 0 0 C 384.469 1417.32 t 0 r /Helvetica-BoldOblique findfont 61.9061 sf 0 0 m (ATLAS) show NC gr 
 gsave  2268 1538 0 0 C 632.093 1417.32 t 0 r /Helvetica findfont 58.6478 sf 0 0 m (Simulation Internal) show NC gr 
 gsave  2268 1538 0 0 C 746.131 1339.13 t 0 r /Helvetica findfont 58.6478 sf 0 0 m ( = 13 TeV) show NC gr 
 gsave  2268 1538 0 0 C 716.807 1339.13 t 0 r /Helvetica findfont 58.6478 sf 0 0 m (s) show NC gr  697 1372 m 7 -36 d s 3 lw 704 1336 m 6 52 d s 710 1388 m 36 X s
 gsave  2268 1538 0 0 C 384.469 1339.13 t 0 r /Helvetica findfont 58.6478 sf 0 0 m (Pythia Dijet ) show NC gr 
 gsave  2268 1538 0 0 C 384.469 1264.19 t 0 r /Helvetica findfont 58.6478 sf 0 0 m (EM+JES) show NC gr 
 gsave  2268 1538 0 0 C 938.365 1185.99 t 0 r /Helvetica findfont 58.6478 sf 0 0 m (| < 0.5) show NC gr 
 gsave  2268 1538 0 0 C 905.783 1185.99 t 0 r /Symbol findfont 58.6478 sf 0 0 m (h) show NC gr 
 gsave  2268 1538 0 0 C 720.065 1185.99 t 0 r /Helvetica findfont 58.6478 sf 0 0 m (, 0.4 < |) show NC gr 
 gsave  2268 1538 0 0 C 707.032 1169.7 t 0 r /Helvetica findfont 39.0986 sf 0 0 m (t) show NC gr 
 gsave  2268 1538 0 0 C 671.192 1185.99 t 0 r /Helvetica-Oblique findfont 58.6478 sf 0 0 m (k) show NC gr 
 gsave  2268 1538 0 0 C 430.084 1185.99 t 0 r /Helvetica findfont 58.6478 sf 0 0 m (=0.4 anti\255) show NC gr 
 gsave  2268 1538 0 0 C 384.469 1185.99 t 0 r /Helvetica-Oblique findfont 58.6478 sf 0 0 m (R) show NC gr 
 gr  gr showpage
end
%%EOF
